ARM GAS  C:\Users\diego\AppData\Local\Temp\ccnKlrcw.s 			page 1


   1              		.syntax unified
   2              		.cpu cortex-m0
   3              		.fpu softvfp
   4              		.eabi_attribute 20, 1
   5              		.eabi_attribute 21, 1
   6              		.eabi_attribute 23, 3
   7              		.eabi_attribute 24, 1
   8              		.eabi_attribute 25, 1
   9              		.eabi_attribute 26, 1
  10              		.eabi_attribute 30, 2
  11              		.eabi_attribute 34, 0
  12              		.eabi_attribute 18, 4
  13              		.thumb
  14              		.syntax unified
  15              		.file	"out_releay.c"
  16              		.text
  17              	.Ltext0:
  18              		.cfi_sections	.debug_frame
  19              		.section	.text.out_releay_SetDriveMode,"ax",%progbits
  20              		.align	2
  21              		.global	out_releay_SetDriveMode
  22              		.code	16
  23              		.thumb_func
  24              		.type	out_releay_SetDriveMode, %function
  25              	out_releay_SetDriveMode:
  26              	.LFB0:
  27              		.file 1 "Generated_Source\\PSoC4\\out_releay.c"
   1:Generated_Source\PSoC4/out_releay.c **** /*******************************************************************************
   2:Generated_Source\PSoC4/out_releay.c **** * File Name: out_releay.c  
   3:Generated_Source\PSoC4/out_releay.c **** * Version 2.20
   4:Generated_Source\PSoC4/out_releay.c **** *
   5:Generated_Source\PSoC4/out_releay.c **** * Description:
   6:Generated_Source\PSoC4/out_releay.c **** *  This file contains API to enable firmware control of a Pins component.
   7:Generated_Source\PSoC4/out_releay.c **** *
   8:Generated_Source\PSoC4/out_releay.c **** ********************************************************************************
   9:Generated_Source\PSoC4/out_releay.c **** * Copyright 2008-2015, Cypress Semiconductor Corporation.  All rights reserved.
  10:Generated_Source\PSoC4/out_releay.c **** * You may use this file only in accordance with the license, terms, conditions, 
  11:Generated_Source\PSoC4/out_releay.c **** * disclaimers, and limitations in the end user license agreement accompanying 
  12:Generated_Source\PSoC4/out_releay.c **** * the software package with which this file was provided.
  13:Generated_Source\PSoC4/out_releay.c **** *******************************************************************************/
  14:Generated_Source\PSoC4/out_releay.c **** 
  15:Generated_Source\PSoC4/out_releay.c **** #include "cytypes.h"
  16:Generated_Source\PSoC4/out_releay.c **** #include "out_releay.h"
  17:Generated_Source\PSoC4/out_releay.c **** 
  18:Generated_Source\PSoC4/out_releay.c **** 
  19:Generated_Source\PSoC4/out_releay.c **** #if defined(out_releay__PC)
  20:Generated_Source\PSoC4/out_releay.c ****     #define out_releay_SetP4PinDriveMode(shift, mode)  \
  21:Generated_Source\PSoC4/out_releay.c ****     do { \
  22:Generated_Source\PSoC4/out_releay.c ****         out_releay_PC =   (out_releay_PC & \
  23:Generated_Source\PSoC4/out_releay.c ****                                 (uint32)(~(uint32)(out_releay_DRIVE_MODE_IND_MASK << \
  24:Generated_Source\PSoC4/out_releay.c ****                                 (out_releay_DRIVE_MODE_BITS * (shift))))) | \
  25:Generated_Source\PSoC4/out_releay.c ****                                 (uint32)((uint32)(mode) << \
  26:Generated_Source\PSoC4/out_releay.c ****                                 (out_releay_DRIVE_MODE_BITS * (shift))); \
  27:Generated_Source\PSoC4/out_releay.c ****     } while (0)
  28:Generated_Source\PSoC4/out_releay.c **** #else
  29:Generated_Source\PSoC4/out_releay.c ****     #if (CY_PSOC4_4200L)
  30:Generated_Source\PSoC4/out_releay.c ****         #define out_releay_SetP4PinDriveMode(shift, mode)  \
ARM GAS  C:\Users\diego\AppData\Local\Temp\ccnKlrcw.s 			page 2


  31:Generated_Source\PSoC4/out_releay.c ****         do { \
  32:Generated_Source\PSoC4/out_releay.c ****             out_releay_USBIO_CTRL_REG = (out_releay_USBIO_CTRL_REG & \
  33:Generated_Source\PSoC4/out_releay.c ****                                     (uint32)(~(uint32)(out_releay_DRIVE_MODE_IND_MASK << \
  34:Generated_Source\PSoC4/out_releay.c ****                                     (out_releay_DRIVE_MODE_BITS * (shift))))) | \
  35:Generated_Source\PSoC4/out_releay.c ****                                     (uint32)((uint32)(mode) << \
  36:Generated_Source\PSoC4/out_releay.c ****                                     (out_releay_DRIVE_MODE_BITS * (shift))); \
  37:Generated_Source\PSoC4/out_releay.c ****         } while (0)
  38:Generated_Source\PSoC4/out_releay.c ****     #endif
  39:Generated_Source\PSoC4/out_releay.c **** #endif
  40:Generated_Source\PSoC4/out_releay.c ****   
  41:Generated_Source\PSoC4/out_releay.c **** 
  42:Generated_Source\PSoC4/out_releay.c **** #if defined(out_releay__PC) || (CY_PSOC4_4200L) 
  43:Generated_Source\PSoC4/out_releay.c ****     /*******************************************************************************
  44:Generated_Source\PSoC4/out_releay.c ****     * Function Name: out_releay_SetDriveMode
  45:Generated_Source\PSoC4/out_releay.c ****     ****************************************************************************//**
  46:Generated_Source\PSoC4/out_releay.c ****     *
  47:Generated_Source\PSoC4/out_releay.c ****     * \brief Sets the drive mode for each of the Pins component's pins.
  48:Generated_Source\PSoC4/out_releay.c ****     * 
  49:Generated_Source\PSoC4/out_releay.c ****     * <b>Note</b> This affects all pins in the Pins component instance. Use the
  50:Generated_Source\PSoC4/out_releay.c ****     * Per-Pin APIs if you wish to control individual pin's drive modes.
  51:Generated_Source\PSoC4/out_releay.c ****     *
  52:Generated_Source\PSoC4/out_releay.c ****     * <b>Note</b> USBIOs have limited drive functionality. Refer to the Drive Mode
  53:Generated_Source\PSoC4/out_releay.c ****     * parameter for more information.
  54:Generated_Source\PSoC4/out_releay.c ****     *
  55:Generated_Source\PSoC4/out_releay.c ****     * \param mode
  56:Generated_Source\PSoC4/out_releay.c ****     *  Mode for the selected signals. Valid options are documented in 
  57:Generated_Source\PSoC4/out_releay.c ****     *  \ref driveMode.
  58:Generated_Source\PSoC4/out_releay.c ****     *
  59:Generated_Source\PSoC4/out_releay.c ****     * \return
  60:Generated_Source\PSoC4/out_releay.c ****     *  None
  61:Generated_Source\PSoC4/out_releay.c ****     *
  62:Generated_Source\PSoC4/out_releay.c ****     * \sideeffect
  63:Generated_Source\PSoC4/out_releay.c ****     *  If you use read-modify-write operations that are not atomic, the ISR can
  64:Generated_Source\PSoC4/out_releay.c ****     *  cause corruption of this function. An ISR that interrupts this function 
  65:Generated_Source\PSoC4/out_releay.c ****     *  and performs writes to the Pins component Drive Mode registers can cause 
  66:Generated_Source\PSoC4/out_releay.c ****     *  corrupted port data. To avoid this issue, you should either use the Per-Pin
  67:Generated_Source\PSoC4/out_releay.c ****     *  APIs (primary method) or disable interrupts around this function.
  68:Generated_Source\PSoC4/out_releay.c ****     *
  69:Generated_Source\PSoC4/out_releay.c ****     * \funcusage
  70:Generated_Source\PSoC4/out_releay.c ****     *  \snippet out_releay_SUT.c usage_out_releay_SetDriveMode
  71:Generated_Source\PSoC4/out_releay.c ****     *******************************************************************************/
  72:Generated_Source\PSoC4/out_releay.c ****     void out_releay_SetDriveMode(uint8 mode)
  73:Generated_Source\PSoC4/out_releay.c ****     {
  28              		.loc 1 73 0
  29              		.cfi_startproc
  30              		@ args = 0, pretend = 0, frame = 0
  31              		@ frame_needed = 0, uses_anonymous_args = 0
  32              		@ link register save eliminated.
  33              	.LVL0:
  74:Generated_Source\PSoC4/out_releay.c **** 		out_releay_SetP4PinDriveMode(out_releay__0__SHIFT, mode);
  34              		.loc 1 74 0
  35 0000 0721     		movs	r1, #7
  36 0002 034A     		ldr	r2, .L2
  75:Generated_Source\PSoC4/out_releay.c ****     }
  37              		.loc 1 75 0
  38              		@ sp needed
  74:Generated_Source\PSoC4/out_releay.c **** 		out_releay_SetP4PinDriveMode(out_releay__0__SHIFT, mode);
ARM GAS  C:\Users\diego\AppData\Local\Temp\ccnKlrcw.s 			page 3


  39              		.loc 1 74 0
  40 0004 1368     		ldr	r3, [r2]
  41 0006 8B43     		bics	r3, r1
  42 0008 1843     		orrs	r0, r3
  43              	.LVL1:
  44 000a 1060     		str	r0, [r2]
  45              		.loc 1 75 0
  46 000c 7047     		bx	lr
  47              	.L3:
  48 000e C046     		.align	2
  49              	.L2:
  50 0010 08050440 		.word	1074005256
  51              		.cfi_endproc
  52              	.LFE0:
  53              		.size	out_releay_SetDriveMode, .-out_releay_SetDriveMode
  54              		.section	.text.out_releay_Write,"ax",%progbits
  55              		.align	2
  56              		.global	out_releay_Write
  57              		.code	16
  58              		.thumb_func
  59              		.type	out_releay_Write, %function
  60              	out_releay_Write:
  61              	.LFB1:
  76:Generated_Source\PSoC4/out_releay.c **** #endif
  77:Generated_Source\PSoC4/out_releay.c **** 
  78:Generated_Source\PSoC4/out_releay.c **** 
  79:Generated_Source\PSoC4/out_releay.c **** /*******************************************************************************
  80:Generated_Source\PSoC4/out_releay.c **** * Function Name: out_releay_Write
  81:Generated_Source\PSoC4/out_releay.c **** ****************************************************************************//**
  82:Generated_Source\PSoC4/out_releay.c **** *
  83:Generated_Source\PSoC4/out_releay.c **** * \brief Writes the value to the physical port (data output register), masking
  84:Generated_Source\PSoC4/out_releay.c **** *  and shifting the bits appropriately. 
  85:Generated_Source\PSoC4/out_releay.c **** *
  86:Generated_Source\PSoC4/out_releay.c **** * The data output register controls the signal applied to the physical pin in 
  87:Generated_Source\PSoC4/out_releay.c **** * conjunction with the drive mode parameter. This function avoids changing 
  88:Generated_Source\PSoC4/out_releay.c **** * other bits in the port by using the appropriate method (read-modify-write or
  89:Generated_Source\PSoC4/out_releay.c **** * bit banding).
  90:Generated_Source\PSoC4/out_releay.c **** *
  91:Generated_Source\PSoC4/out_releay.c **** * <b>Note</b> This function should not be used on a hardware digital output pin 
  92:Generated_Source\PSoC4/out_releay.c **** * as it is driven by the hardware signal attached to it.
  93:Generated_Source\PSoC4/out_releay.c **** *
  94:Generated_Source\PSoC4/out_releay.c **** * \param value
  95:Generated_Source\PSoC4/out_releay.c **** *  Value to write to the component instance.
  96:Generated_Source\PSoC4/out_releay.c **** *
  97:Generated_Source\PSoC4/out_releay.c **** * \return 
  98:Generated_Source\PSoC4/out_releay.c **** *  None 
  99:Generated_Source\PSoC4/out_releay.c **** *
 100:Generated_Source\PSoC4/out_releay.c **** * \sideeffect
 101:Generated_Source\PSoC4/out_releay.c **** *  If you use read-modify-write operations that are not atomic; the Interrupt 
 102:Generated_Source\PSoC4/out_releay.c **** *  Service Routines (ISR) can cause corruption of this function. An ISR that 
 103:Generated_Source\PSoC4/out_releay.c **** *  interrupts this function and performs writes to the Pins component data 
 104:Generated_Source\PSoC4/out_releay.c **** *  register can cause corrupted port data. To avoid this issue, you should 
 105:Generated_Source\PSoC4/out_releay.c **** *  either use the Per-Pin APIs (primary method) or disable interrupts around 
 106:Generated_Source\PSoC4/out_releay.c **** *  this function.
 107:Generated_Source\PSoC4/out_releay.c **** *
 108:Generated_Source\PSoC4/out_releay.c **** * \funcusage
 109:Generated_Source\PSoC4/out_releay.c **** *  \snippet out_releay_SUT.c usage_out_releay_Write
ARM GAS  C:\Users\diego\AppData\Local\Temp\ccnKlrcw.s 			page 4


 110:Generated_Source\PSoC4/out_releay.c **** *******************************************************************************/
 111:Generated_Source\PSoC4/out_releay.c **** void out_releay_Write(uint8 value)
 112:Generated_Source\PSoC4/out_releay.c **** {
  62              		.loc 1 112 0
  63              		.cfi_startproc
  64              		@ args = 0, pretend = 0, frame = 0
  65              		@ frame_needed = 0, uses_anonymous_args = 0
  66              		@ link register save eliminated.
  67              	.LVL2:
 113:Generated_Source\PSoC4/out_releay.c ****     uint8 drVal = (uint8)(out_releay_DR & (uint8)(~out_releay_MASK));
  68              		.loc 1 113 0
  69 0000 0121     		movs	r1, #1
  70 0002 044A     		ldr	r2, .L5
 114:Generated_Source\PSoC4/out_releay.c ****     drVal = (drVal | ((uint8)(value << out_releay_SHIFT) & out_releay_MASK));
 115:Generated_Source\PSoC4/out_releay.c ****     out_releay_DR = (uint32)drVal;
  71              		.loc 1 115 0
  72 0004 0840     		ands	r0, r1
  73              	.LVL3:
 113:Generated_Source\PSoC4/out_releay.c ****     uint8 drVal = (uint8)(out_releay_DR & (uint8)(~out_releay_MASK));
  74              		.loc 1 113 0
  75 0006 1368     		ldr	r3, [r2]
 116:Generated_Source\PSoC4/out_releay.c **** }
  76              		.loc 1 116 0
  77              		@ sp needed
 113:Generated_Source\PSoC4/out_releay.c ****     uint8 drVal = (uint8)(out_releay_DR & (uint8)(~out_releay_MASK));
  78              		.loc 1 113 0
  79 0008 8B43     		bics	r3, r1
  80 000a DBB2     		uxtb	r3, r3
 115:Generated_Source\PSoC4/out_releay.c **** }
  81              		.loc 1 115 0
  82 000c 1843     		orrs	r0, r3
  83 000e 1060     		str	r0, [r2]
  84              		.loc 1 116 0
  85 0010 7047     		bx	lr
  86              	.L6:
  87 0012 C046     		.align	2
  88              	.L5:
  89 0014 00050440 		.word	1074005248
  90              		.cfi_endproc
  91              	.LFE1:
  92              		.size	out_releay_Write, .-out_releay_Write
  93              		.section	.text.out_releay_Read,"ax",%progbits
  94              		.align	2
  95              		.global	out_releay_Read
  96              		.code	16
  97              		.thumb_func
  98              		.type	out_releay_Read, %function
  99              	out_releay_Read:
 100              	.LFB2:
 117:Generated_Source\PSoC4/out_releay.c **** 
 118:Generated_Source\PSoC4/out_releay.c **** 
 119:Generated_Source\PSoC4/out_releay.c **** /*******************************************************************************
 120:Generated_Source\PSoC4/out_releay.c **** * Function Name: out_releay_Read
 121:Generated_Source\PSoC4/out_releay.c **** ****************************************************************************//**
 122:Generated_Source\PSoC4/out_releay.c **** *
 123:Generated_Source\PSoC4/out_releay.c **** * \brief Reads the associated physical port (pin status register) and masks 
 124:Generated_Source\PSoC4/out_releay.c **** *  the required bits according to the width and bit position of the component
ARM GAS  C:\Users\diego\AppData\Local\Temp\ccnKlrcw.s 			page 5


 125:Generated_Source\PSoC4/out_releay.c **** *  instance. 
 126:Generated_Source\PSoC4/out_releay.c **** *
 127:Generated_Source\PSoC4/out_releay.c **** * The pin's status register returns the current logic level present on the 
 128:Generated_Source\PSoC4/out_releay.c **** * physical pin.
 129:Generated_Source\PSoC4/out_releay.c **** *
 130:Generated_Source\PSoC4/out_releay.c **** * \return 
 131:Generated_Source\PSoC4/out_releay.c **** *  The current value for the pins in the component as a right justified number.
 132:Generated_Source\PSoC4/out_releay.c **** *
 133:Generated_Source\PSoC4/out_releay.c **** * \funcusage
 134:Generated_Source\PSoC4/out_releay.c **** *  \snippet out_releay_SUT.c usage_out_releay_Read  
 135:Generated_Source\PSoC4/out_releay.c **** *******************************************************************************/
 136:Generated_Source\PSoC4/out_releay.c **** uint8 out_releay_Read(void)
 137:Generated_Source\PSoC4/out_releay.c **** {
 101              		.loc 1 137 0
 102              		.cfi_startproc
 103              		@ args = 0, pretend = 0, frame = 0
 104              		@ frame_needed = 0, uses_anonymous_args = 0
 105              		@ link register save eliminated.
 138:Generated_Source\PSoC4/out_releay.c ****     return (uint8)((out_releay_PS & out_releay_MASK) >> out_releay_SHIFT);
 106              		.loc 1 138 0
 107 0000 0120     		movs	r0, #1
 108 0002 024B     		ldr	r3, .L8
 139:Generated_Source\PSoC4/out_releay.c **** }
 109              		.loc 1 139 0
 110              		@ sp needed
 138:Generated_Source\PSoC4/out_releay.c ****     return (uint8)((out_releay_PS & out_releay_MASK) >> out_releay_SHIFT);
 111              		.loc 1 138 0
 112 0004 1B68     		ldr	r3, [r3]
 113 0006 1840     		ands	r0, r3
 114              		.loc 1 139 0
 115 0008 7047     		bx	lr
 116              	.L9:
 117 000a C046     		.align	2
 118              	.L8:
 119 000c 04050440 		.word	1074005252
 120              		.cfi_endproc
 121              	.LFE2:
 122              		.size	out_releay_Read, .-out_releay_Read
 123              		.section	.text.out_releay_ReadDataReg,"ax",%progbits
 124              		.align	2
 125              		.global	out_releay_ReadDataReg
 126              		.code	16
 127              		.thumb_func
 128              		.type	out_releay_ReadDataReg, %function
 129              	out_releay_ReadDataReg:
 130              	.LFB3:
 140:Generated_Source\PSoC4/out_releay.c **** 
 141:Generated_Source\PSoC4/out_releay.c **** 
 142:Generated_Source\PSoC4/out_releay.c **** /*******************************************************************************
 143:Generated_Source\PSoC4/out_releay.c **** * Function Name: out_releay_ReadDataReg
 144:Generated_Source\PSoC4/out_releay.c **** ****************************************************************************//**
 145:Generated_Source\PSoC4/out_releay.c **** *
 146:Generated_Source\PSoC4/out_releay.c **** * \brief Reads the associated physical port's data output register and masks 
 147:Generated_Source\PSoC4/out_releay.c **** *  the correct bits according to the width and bit position of the component 
 148:Generated_Source\PSoC4/out_releay.c **** *  instance. 
 149:Generated_Source\PSoC4/out_releay.c **** *
 150:Generated_Source\PSoC4/out_releay.c **** * The data output register controls the signal applied to the physical pin in 
ARM GAS  C:\Users\diego\AppData\Local\Temp\ccnKlrcw.s 			page 6


 151:Generated_Source\PSoC4/out_releay.c **** * conjunction with the drive mode parameter. This is not the same as the 
 152:Generated_Source\PSoC4/out_releay.c **** * preferred out_releay_Read() API because the 
 153:Generated_Source\PSoC4/out_releay.c **** * out_releay_ReadDataReg() reads the data register instead of the status 
 154:Generated_Source\PSoC4/out_releay.c **** * register. For output pins this is a useful function to determine the value 
 155:Generated_Source\PSoC4/out_releay.c **** * just written to the pin.
 156:Generated_Source\PSoC4/out_releay.c **** *
 157:Generated_Source\PSoC4/out_releay.c **** * \return 
 158:Generated_Source\PSoC4/out_releay.c **** *  The current value of the data register masked and shifted into a right 
 159:Generated_Source\PSoC4/out_releay.c **** *  justified number for the component instance.
 160:Generated_Source\PSoC4/out_releay.c **** *
 161:Generated_Source\PSoC4/out_releay.c **** * \funcusage
 162:Generated_Source\PSoC4/out_releay.c **** *  \snippet out_releay_SUT.c usage_out_releay_ReadDataReg 
 163:Generated_Source\PSoC4/out_releay.c **** *******************************************************************************/
 164:Generated_Source\PSoC4/out_releay.c **** uint8 out_releay_ReadDataReg(void)
 165:Generated_Source\PSoC4/out_releay.c **** {
 131              		.loc 1 165 0
 132              		.cfi_startproc
 133              		@ args = 0, pretend = 0, frame = 0
 134              		@ frame_needed = 0, uses_anonymous_args = 0
 135              		@ link register save eliminated.
 166:Generated_Source\PSoC4/out_releay.c ****     return (uint8)((out_releay_DR & out_releay_MASK) >> out_releay_SHIFT);
 136              		.loc 1 166 0
 137 0000 0120     		movs	r0, #1
 138 0002 024B     		ldr	r3, .L11
 167:Generated_Source\PSoC4/out_releay.c **** }
 139              		.loc 1 167 0
 140              		@ sp needed
 166:Generated_Source\PSoC4/out_releay.c ****     return (uint8)((out_releay_DR & out_releay_MASK) >> out_releay_SHIFT);
 141              		.loc 1 166 0
 142 0004 1B68     		ldr	r3, [r3]
 143 0006 1840     		ands	r0, r3
 144              		.loc 1 167 0
 145 0008 7047     		bx	lr
 146              	.L12:
 147 000a C046     		.align	2
 148              	.L11:
 149 000c 00050440 		.word	1074005248
 150              		.cfi_endproc
 151              	.LFE3:
 152              		.size	out_releay_ReadDataReg, .-out_releay_ReadDataReg
 153              		.section	.text.out_releay_SetInterruptMode,"ax",%progbits
 154              		.align	2
 155              		.global	out_releay_SetInterruptMode
 156              		.code	16
 157              		.thumb_func
 158              		.type	out_releay_SetInterruptMode, %function
 159              	out_releay_SetInterruptMode:
 160              	.LFB4:
 168:Generated_Source\PSoC4/out_releay.c **** 
 169:Generated_Source\PSoC4/out_releay.c **** 
 170:Generated_Source\PSoC4/out_releay.c **** /*******************************************************************************
 171:Generated_Source\PSoC4/out_releay.c **** * Function Name: out_releay_SetInterruptMode
 172:Generated_Source\PSoC4/out_releay.c **** ****************************************************************************//**
 173:Generated_Source\PSoC4/out_releay.c **** *
 174:Generated_Source\PSoC4/out_releay.c **** * \brief Configures the interrupt mode for each of the Pins component's
 175:Generated_Source\PSoC4/out_releay.c **** *  pins. Alternatively you may set the interrupt mode for all the pins
 176:Generated_Source\PSoC4/out_releay.c **** *  specified in the Pins component.
ARM GAS  C:\Users\diego\AppData\Local\Temp\ccnKlrcw.s 			page 7


 177:Generated_Source\PSoC4/out_releay.c **** *
 178:Generated_Source\PSoC4/out_releay.c **** *  <b>Note</b> The interrupt is port-wide and therefore any enabled pin
 179:Generated_Source\PSoC4/out_releay.c **** *  interrupt may trigger it.
 180:Generated_Source\PSoC4/out_releay.c **** *
 181:Generated_Source\PSoC4/out_releay.c **** * \param position
 182:Generated_Source\PSoC4/out_releay.c **** *  The pin position as listed in the Pins component. You may OR these to be 
 183:Generated_Source\PSoC4/out_releay.c **** *  able to configure the interrupt mode of multiple pins within a Pins 
 184:Generated_Source\PSoC4/out_releay.c **** *  component. Or you may use out_releay_INTR_ALL to configure the
 185:Generated_Source\PSoC4/out_releay.c **** *  interrupt mode of all the pins in the Pins component.       
 186:Generated_Source\PSoC4/out_releay.c **** *  - out_releay_0_INTR       (First pin in the list)
 187:Generated_Source\PSoC4/out_releay.c **** *  - out_releay_1_INTR       (Second pin in the list)
 188:Generated_Source\PSoC4/out_releay.c **** *  - ...
 189:Generated_Source\PSoC4/out_releay.c **** *  - out_releay_INTR_ALL     (All pins in Pins component)
 190:Generated_Source\PSoC4/out_releay.c **** *
 191:Generated_Source\PSoC4/out_releay.c **** * \param mode
 192:Generated_Source\PSoC4/out_releay.c **** *  Interrupt mode for the selected pins. Valid options are documented in
 193:Generated_Source\PSoC4/out_releay.c **** *  \ref intrMode.
 194:Generated_Source\PSoC4/out_releay.c **** *
 195:Generated_Source\PSoC4/out_releay.c **** * \return 
 196:Generated_Source\PSoC4/out_releay.c **** *  None
 197:Generated_Source\PSoC4/out_releay.c **** *  
 198:Generated_Source\PSoC4/out_releay.c **** * \sideeffect
 199:Generated_Source\PSoC4/out_releay.c **** *  It is recommended that the interrupt be disabled before calling this 
 200:Generated_Source\PSoC4/out_releay.c **** *  function to avoid unintended interrupt requests. Note that the interrupt
 201:Generated_Source\PSoC4/out_releay.c **** *  type is port wide, and therefore will trigger for any enabled pin on the 
 202:Generated_Source\PSoC4/out_releay.c **** *  port.
 203:Generated_Source\PSoC4/out_releay.c **** *
 204:Generated_Source\PSoC4/out_releay.c **** * \funcusage
 205:Generated_Source\PSoC4/out_releay.c **** *  \snippet out_releay_SUT.c usage_out_releay_SetInterruptMode
 206:Generated_Source\PSoC4/out_releay.c **** *******************************************************************************/
 207:Generated_Source\PSoC4/out_releay.c **** void out_releay_SetInterruptMode(uint16 position, uint16 mode)
 208:Generated_Source\PSoC4/out_releay.c **** {
 161              		.loc 1 208 0
 162              		.cfi_startproc
 163              		@ args = 0, pretend = 0, frame = 0
 164              		@ frame_needed = 0, uses_anonymous_args = 0
 165              		@ link register save eliminated.
 166              	.LVL4:
 209:Generated_Source\PSoC4/out_releay.c ****     uint32 intrCfg;
 210:Generated_Source\PSoC4/out_releay.c ****     
 211:Generated_Source\PSoC4/out_releay.c ****     intrCfg =  out_releay_INTCFG & (uint32)(~(uint32)position);
 167              		.loc 1 211 0
 168 0000 034A     		ldr	r2, .L14
 212:Generated_Source\PSoC4/out_releay.c ****     out_releay_INTCFG = intrCfg | ((uint32)position & (uint32)mode);
 213:Generated_Source\PSoC4/out_releay.c **** }
 169              		.loc 1 213 0
 170              		@ sp needed
 211:Generated_Source\PSoC4/out_releay.c ****     out_releay_INTCFG = intrCfg | ((uint32)position & (uint32)mode);
 171              		.loc 1 211 0
 172 0002 1368     		ldr	r3, [r2]
 173              	.LVL5:
 212:Generated_Source\PSoC4/out_releay.c ****     out_releay_INTCFG = intrCfg | ((uint32)position & (uint32)mode);
 174              		.loc 1 212 0
 175 0004 8343     		bics	r3, r0
 176              	.LVL6:
 177 0006 0840     		ands	r0, r1
 178              	.LVL7:
ARM GAS  C:\Users\diego\AppData\Local\Temp\ccnKlrcw.s 			page 8


 179 0008 1843     		orrs	r0, r3
 180 000a 1060     		str	r0, [r2]
 181              		.loc 1 213 0
 182 000c 7047     		bx	lr
 183              	.L15:
 184 000e C046     		.align	2
 185              	.L14:
 186 0010 0C050440 		.word	1074005260
 187              		.cfi_endproc
 188              	.LFE4:
 189              		.size	out_releay_SetInterruptMode, .-out_releay_SetInterruptMode
 190              		.section	.text.out_releay_ClearInterrupt,"ax",%progbits
 191              		.align	2
 192              		.global	out_releay_ClearInterrupt
 193              		.code	16
 194              		.thumb_func
 195              		.type	out_releay_ClearInterrupt, %function
 196              	out_releay_ClearInterrupt:
 197              	.LFB5:
 214:Generated_Source\PSoC4/out_releay.c **** 
 215:Generated_Source\PSoC4/out_releay.c **** 
 216:Generated_Source\PSoC4/out_releay.c **** /*******************************************************************************
 217:Generated_Source\PSoC4/out_releay.c **** * Function Name: out_releay_ClearInterrupt
 218:Generated_Source\PSoC4/out_releay.c **** ****************************************************************************//**
 219:Generated_Source\PSoC4/out_releay.c **** *
 220:Generated_Source\PSoC4/out_releay.c **** * \brief Clears any active interrupts attached with the component and returns 
 221:Generated_Source\PSoC4/out_releay.c **** *  the value of the interrupt status register allowing determination of which
 222:Generated_Source\PSoC4/out_releay.c **** *  pins generated an interrupt event.
 223:Generated_Source\PSoC4/out_releay.c **** *
 224:Generated_Source\PSoC4/out_releay.c **** * \return 
 225:Generated_Source\PSoC4/out_releay.c **** *  The right-shifted current value of the interrupt status register. Each pin 
 226:Generated_Source\PSoC4/out_releay.c **** *  has one bit set if it generated an interrupt event. For example, bit 0 is 
 227:Generated_Source\PSoC4/out_releay.c **** *  for pin 0 and bit 1 is for pin 1 of the Pins component.
 228:Generated_Source\PSoC4/out_releay.c **** *  
 229:Generated_Source\PSoC4/out_releay.c **** * \sideeffect
 230:Generated_Source\PSoC4/out_releay.c **** *  Clears all bits of the physical port's interrupt status register, not just
 231:Generated_Source\PSoC4/out_releay.c **** *  those associated with the Pins component.
 232:Generated_Source\PSoC4/out_releay.c **** *
 233:Generated_Source\PSoC4/out_releay.c **** * \funcusage
 234:Generated_Source\PSoC4/out_releay.c **** *  \snippet out_releay_SUT.c usage_out_releay_ClearInterrupt
 235:Generated_Source\PSoC4/out_releay.c **** *******************************************************************************/
 236:Generated_Source\PSoC4/out_releay.c **** uint8 out_releay_ClearInterrupt(void)
 237:Generated_Source\PSoC4/out_releay.c **** {
 198              		.loc 1 237 0
 199              		.cfi_startproc
 200              		@ args = 0, pretend = 0, frame = 0
 201              		@ frame_needed = 0, uses_anonymous_args = 0
 202              		@ link register save eliminated.
 238:Generated_Source\PSoC4/out_releay.c **** 	uint8 maskedStatus = (uint8)(out_releay_INTSTAT & out_releay_MASK);
 203              		.loc 1 238 0
 204 0000 0120     		movs	r0, #1
 205 0002 024A     		ldr	r2, .L17
 239:Generated_Source\PSoC4/out_releay.c **** 	out_releay_INTSTAT = maskedStatus;
 240:Generated_Source\PSoC4/out_releay.c ****     return maskedStatus >> out_releay_SHIFT;
 241:Generated_Source\PSoC4/out_releay.c **** }
 206              		.loc 1 241 0
 207              		@ sp needed
ARM GAS  C:\Users\diego\AppData\Local\Temp\ccnKlrcw.s 			page 9


 238:Generated_Source\PSoC4/out_releay.c **** 	uint8 maskedStatus = (uint8)(out_releay_INTSTAT & out_releay_MASK);
 208              		.loc 1 238 0
 209 0004 1368     		ldr	r3, [r2]
 210 0006 1840     		ands	r0, r3
 211              	.LVL8:
 239:Generated_Source\PSoC4/out_releay.c **** 	out_releay_INTSTAT = maskedStatus;
 212              		.loc 1 239 0
 213 0008 1060     		str	r0, [r2]
 214              		.loc 1 241 0
 215 000a 7047     		bx	lr
 216              	.L18:
 217              		.align	2
 218              	.L17:
 219 000c 10050440 		.word	1074005264
 220              		.cfi_endproc
 221              	.LFE5:
 222              		.size	out_releay_ClearInterrupt, .-out_releay_ClearInterrupt
 223              		.text
 224              	.Letext0:
 225              		.file 2 "Generated_Source\\PSoC4\\cytypes.h"
 226              		.section	.debug_info,"",%progbits
 227              	.Ldebug_info0:
 228 0000 95010000 		.4byte	0x195
 229 0004 0400     		.2byte	0x4
 230 0006 00000000 		.4byte	.Ldebug_abbrev0
 231 000a 04       		.byte	0x4
 232 000b 01       		.uleb128 0x1
 233 000c EA000000 		.4byte	.LASF27
 234 0010 0C       		.byte	0xc
 235 0011 77000000 		.4byte	.LASF28
 236 0015 40000000 		.4byte	.LASF29
 237 0019 00000000 		.4byte	.Ldebug_ranges0+0
 238 001d 00000000 		.4byte	0
 239 0021 00000000 		.4byte	.Ldebug_line0
 240 0025 02       		.uleb128 0x2
 241 0026 01       		.byte	0x1
 242 0027 06       		.byte	0x6
 243 0028 42020000 		.4byte	.LASF0
 244 002c 02       		.uleb128 0x2
 245 002d 01       		.byte	0x1
 246 002e 08       		.byte	0x8
 247 002f A1000000 		.4byte	.LASF1
 248 0033 02       		.uleb128 0x2
 249 0034 02       		.byte	0x2
 250 0035 05       		.byte	0x5
 251 0036 12020000 		.4byte	.LASF2
 252 003a 02       		.uleb128 0x2
 253 003b 02       		.byte	0x2
 254 003c 07       		.byte	0x7
 255 003d C7000000 		.4byte	.LASF3
 256 0041 02       		.uleb128 0x2
 257 0042 04       		.byte	0x4
 258 0043 05       		.byte	0x5
 259 0044 22020000 		.4byte	.LASF4
 260 0048 02       		.uleb128 0x2
 261 0049 04       		.byte	0x4
 262 004a 07       		.byte	0x7
ARM GAS  C:\Users\diego\AppData\Local\Temp\ccnKlrcw.s 			page 10


 263 004b B5000000 		.4byte	.LASF5
 264 004f 02       		.uleb128 0x2
 265 0050 08       		.byte	0x8
 266 0051 05       		.byte	0x5
 267 0052 E1010000 		.4byte	.LASF6
 268 0056 02       		.uleb128 0x2
 269 0057 08       		.byte	0x8
 270 0058 07       		.byte	0x7
 271 0059 C5010000 		.4byte	.LASF7
 272 005d 03       		.uleb128 0x3
 273 005e 04       		.byte	0x4
 274 005f 05       		.byte	0x5
 275 0060 696E7400 		.ascii	"int\000"
 276 0064 02       		.uleb128 0x2
 277 0065 04       		.byte	0x4
 278 0066 07       		.byte	0x7
 279 0067 B8010000 		.4byte	.LASF8
 280 006b 04       		.uleb128 0x4
 281 006c 1C020000 		.4byte	.LASF9
 282 0070 02       		.byte	0x2
 283 0071 F701     		.2byte	0x1f7
 284 0073 2C000000 		.4byte	0x2c
 285 0077 04       		.uleb128 0x4
 286 0078 99010000 		.4byte	.LASF10
 287 007c 02       		.byte	0x2
 288 007d F801     		.2byte	0x1f8
 289 007f 3A000000 		.4byte	0x3a
 290 0083 04       		.uleb128 0x4
 291 0084 A9010000 		.4byte	.LASF11
 292 0088 02       		.byte	0x2
 293 0089 F901     		.2byte	0x1f9
 294 008b 48000000 		.4byte	0x48
 295 008f 02       		.uleb128 0x2
 296 0090 04       		.byte	0x4
 297 0091 04       		.byte	0x4
 298 0092 9B000000 		.4byte	.LASF12
 299 0096 02       		.uleb128 0x2
 300 0097 08       		.byte	0x8
 301 0098 04       		.byte	0x4
 302 0099 78010000 		.4byte	.LASF13
 303 009d 02       		.uleb128 0x2
 304 009e 01       		.byte	0x1
 305 009f 08       		.byte	0x8
 306 00a0 FC010000 		.4byte	.LASF14
 307 00a4 04       		.uleb128 0x4
 308 00a5 00000000 		.4byte	.LASF15
 309 00a9 02       		.byte	0x2
 310 00aa A302     		.2byte	0x2a3
 311 00ac B0000000 		.4byte	0xb0
 312 00b0 05       		.uleb128 0x5
 313 00b1 83000000 		.4byte	0x83
 314 00b5 06       		.uleb128 0x6
 315 00b6 22000000 		.4byte	.LASF16
 316 00ba 01       		.byte	0x1
 317 00bb 48       		.byte	0x48
 318 00bc 00000000 		.4byte	.LFB0
 319 00c0 14000000 		.4byte	.LFE0-.LFB0
ARM GAS  C:\Users\diego\AppData\Local\Temp\ccnKlrcw.s 			page 11


 320 00c4 01       		.uleb128 0x1
 321 00c5 9C       		.byte	0x9c
 322 00c6 DA000000 		.4byte	0xda
 323 00ca 07       		.uleb128 0x7
 324 00cb DC010000 		.4byte	.LASF18
 325 00cf 01       		.byte	0x1
 326 00d0 48       		.byte	0x48
 327 00d1 6B000000 		.4byte	0x6b
 328 00d5 00000000 		.4byte	.LLST0
 329 00d9 00       		.byte	0
 330 00da 06       		.uleb128 0x6
 331 00db 01020000 		.4byte	.LASF17
 332 00df 01       		.byte	0x1
 333 00e0 6F       		.byte	0x6f
 334 00e1 00000000 		.4byte	.LFB1
 335 00e5 18000000 		.4byte	.LFE1-.LFB1
 336 00e9 01       		.uleb128 0x1
 337 00ea 9C       		.byte	0x9c
 338 00eb 0A010000 		.4byte	0x10a
 339 00ef 07       		.uleb128 0x7
 340 00f0 3A000000 		.4byte	.LASF19
 341 00f4 01       		.byte	0x1
 342 00f5 6F       		.byte	0x6f
 343 00f6 6B000000 		.4byte	0x6b
 344 00fa 21000000 		.4byte	.LLST1
 345 00fe 08       		.uleb128 0x8
 346 00ff AF000000 		.4byte	.LASF30
 347 0103 01       		.byte	0x1
 348 0104 71       		.byte	0x71
 349 0105 6B000000 		.4byte	0x6b
 350 0109 00       		.byte	0
 351 010a 09       		.uleb128 0x9
 352 010b DA000000 		.4byte	.LASF20
 353 010f 01       		.byte	0x1
 354 0110 88       		.byte	0x88
 355 0111 6B000000 		.4byte	0x6b
 356 0115 00000000 		.4byte	.LFB2
 357 0119 10000000 		.4byte	.LFE2-.LFB2
 358 011d 01       		.uleb128 0x1
 359 011e 9C       		.byte	0x9c
 360 011f 09       		.uleb128 0x9
 361 0120 2B020000 		.4byte	.LASF21
 362 0124 01       		.byte	0x1
 363 0125 A4       		.byte	0xa4
 364 0126 6B000000 		.4byte	0x6b
 365 012a 00000000 		.4byte	.LFB3
 366 012e 10000000 		.4byte	.LFE3-.LFB3
 367 0132 01       		.uleb128 0x1
 368 0133 9C       		.byte	0x9c
 369 0134 06       		.uleb128 0x6
 370 0135 06000000 		.4byte	.LASF22
 371 0139 01       		.byte	0x1
 372 013a CF       		.byte	0xcf
 373 013b 00000000 		.4byte	.LFB4
 374 013f 14000000 		.4byte	.LFE4-.LFB4
 375 0143 01       		.uleb128 0x1
 376 0144 9C       		.byte	0x9c
ARM GAS  C:\Users\diego\AppData\Local\Temp\ccnKlrcw.s 			page 12


 377 0145 75010000 		.4byte	0x175
 378 0149 07       		.uleb128 0x7
 379 014a A0010000 		.4byte	.LASF23
 380 014e 01       		.byte	0x1
 381 014f CF       		.byte	0xcf
 382 0150 77000000 		.4byte	0x77
 383 0154 42000000 		.4byte	.LLST2
 384 0158 0A       		.uleb128 0xa
 385 0159 DC010000 		.4byte	.LASF18
 386 015d 01       		.byte	0x1
 387 015e CF       		.byte	0xcf
 388 015f 77000000 		.4byte	0x77
 389 0163 01       		.uleb128 0x1
 390 0164 51       		.byte	0x51
 391 0165 0B       		.uleb128 0xb
 392 0166 B0010000 		.4byte	.LASF25
 393 016a 01       		.byte	0x1
 394 016b D1       		.byte	0xd1
 395 016c 83000000 		.4byte	0x83
 396 0170 63000000 		.4byte	.LLST3
 397 0174 00       		.byte	0
 398 0175 0C       		.uleb128 0xc
 399 0176 7F010000 		.4byte	.LASF24
 400 017a 01       		.byte	0x1
 401 017b EC       		.byte	0xec
 402 017c 6B000000 		.4byte	0x6b
 403 0180 00000000 		.4byte	.LFB5
 404 0184 10000000 		.4byte	.LFE5-.LFB5
 405 0188 01       		.uleb128 0x1
 406 0189 9C       		.byte	0x9c
 407 018a 0D       		.uleb128 0xd
 408 018b EF010000 		.4byte	.LASF26
 409 018f 01       		.byte	0x1
 410 0190 EE       		.byte	0xee
 411 0191 6B000000 		.4byte	0x6b
 412 0195 01       		.uleb128 0x1
 413 0196 50       		.byte	0x50
 414 0197 00       		.byte	0
 415 0198 00       		.byte	0
 416              		.section	.debug_abbrev,"",%progbits
 417              	.Ldebug_abbrev0:
 418 0000 01       		.uleb128 0x1
 419 0001 11       		.uleb128 0x11
 420 0002 01       		.byte	0x1
 421 0003 25       		.uleb128 0x25
 422 0004 0E       		.uleb128 0xe
 423 0005 13       		.uleb128 0x13
 424 0006 0B       		.uleb128 0xb
 425 0007 03       		.uleb128 0x3
 426 0008 0E       		.uleb128 0xe
 427 0009 1B       		.uleb128 0x1b
 428 000a 0E       		.uleb128 0xe
 429 000b 55       		.uleb128 0x55
 430 000c 17       		.uleb128 0x17
 431 000d 11       		.uleb128 0x11
 432 000e 01       		.uleb128 0x1
 433 000f 10       		.uleb128 0x10
ARM GAS  C:\Users\diego\AppData\Local\Temp\ccnKlrcw.s 			page 13


 434 0010 17       		.uleb128 0x17
 435 0011 00       		.byte	0
 436 0012 00       		.byte	0
 437 0013 02       		.uleb128 0x2
 438 0014 24       		.uleb128 0x24
 439 0015 00       		.byte	0
 440 0016 0B       		.uleb128 0xb
 441 0017 0B       		.uleb128 0xb
 442 0018 3E       		.uleb128 0x3e
 443 0019 0B       		.uleb128 0xb
 444 001a 03       		.uleb128 0x3
 445 001b 0E       		.uleb128 0xe
 446 001c 00       		.byte	0
 447 001d 00       		.byte	0
 448 001e 03       		.uleb128 0x3
 449 001f 24       		.uleb128 0x24
 450 0020 00       		.byte	0
 451 0021 0B       		.uleb128 0xb
 452 0022 0B       		.uleb128 0xb
 453 0023 3E       		.uleb128 0x3e
 454 0024 0B       		.uleb128 0xb
 455 0025 03       		.uleb128 0x3
 456 0026 08       		.uleb128 0x8
 457 0027 00       		.byte	0
 458 0028 00       		.byte	0
 459 0029 04       		.uleb128 0x4
 460 002a 16       		.uleb128 0x16
 461 002b 00       		.byte	0
 462 002c 03       		.uleb128 0x3
 463 002d 0E       		.uleb128 0xe
 464 002e 3A       		.uleb128 0x3a
 465 002f 0B       		.uleb128 0xb
 466 0030 3B       		.uleb128 0x3b
 467 0031 05       		.uleb128 0x5
 468 0032 49       		.uleb128 0x49
 469 0033 13       		.uleb128 0x13
 470 0034 00       		.byte	0
 471 0035 00       		.byte	0
 472 0036 05       		.uleb128 0x5
 473 0037 35       		.uleb128 0x35
 474 0038 00       		.byte	0
 475 0039 49       		.uleb128 0x49
 476 003a 13       		.uleb128 0x13
 477 003b 00       		.byte	0
 478 003c 00       		.byte	0
 479 003d 06       		.uleb128 0x6
 480 003e 2E       		.uleb128 0x2e
 481 003f 01       		.byte	0x1
 482 0040 3F       		.uleb128 0x3f
 483 0041 19       		.uleb128 0x19
 484 0042 03       		.uleb128 0x3
 485 0043 0E       		.uleb128 0xe
 486 0044 3A       		.uleb128 0x3a
 487 0045 0B       		.uleb128 0xb
 488 0046 3B       		.uleb128 0x3b
 489 0047 0B       		.uleb128 0xb
 490 0048 27       		.uleb128 0x27
ARM GAS  C:\Users\diego\AppData\Local\Temp\ccnKlrcw.s 			page 14


 491 0049 19       		.uleb128 0x19
 492 004a 11       		.uleb128 0x11
 493 004b 01       		.uleb128 0x1
 494 004c 12       		.uleb128 0x12
 495 004d 06       		.uleb128 0x6
 496 004e 40       		.uleb128 0x40
 497 004f 18       		.uleb128 0x18
 498 0050 9742     		.uleb128 0x2117
 499 0052 19       		.uleb128 0x19
 500 0053 01       		.uleb128 0x1
 501 0054 13       		.uleb128 0x13
 502 0055 00       		.byte	0
 503 0056 00       		.byte	0
 504 0057 07       		.uleb128 0x7
 505 0058 05       		.uleb128 0x5
 506 0059 00       		.byte	0
 507 005a 03       		.uleb128 0x3
 508 005b 0E       		.uleb128 0xe
 509 005c 3A       		.uleb128 0x3a
 510 005d 0B       		.uleb128 0xb
 511 005e 3B       		.uleb128 0x3b
 512 005f 0B       		.uleb128 0xb
 513 0060 49       		.uleb128 0x49
 514 0061 13       		.uleb128 0x13
 515 0062 02       		.uleb128 0x2
 516 0063 17       		.uleb128 0x17
 517 0064 00       		.byte	0
 518 0065 00       		.byte	0
 519 0066 08       		.uleb128 0x8
 520 0067 34       		.uleb128 0x34
 521 0068 00       		.byte	0
 522 0069 03       		.uleb128 0x3
 523 006a 0E       		.uleb128 0xe
 524 006b 3A       		.uleb128 0x3a
 525 006c 0B       		.uleb128 0xb
 526 006d 3B       		.uleb128 0x3b
 527 006e 0B       		.uleb128 0xb
 528 006f 49       		.uleb128 0x49
 529 0070 13       		.uleb128 0x13
 530 0071 00       		.byte	0
 531 0072 00       		.byte	0
 532 0073 09       		.uleb128 0x9
 533 0074 2E       		.uleb128 0x2e
 534 0075 00       		.byte	0
 535 0076 3F       		.uleb128 0x3f
 536 0077 19       		.uleb128 0x19
 537 0078 03       		.uleb128 0x3
 538 0079 0E       		.uleb128 0xe
 539 007a 3A       		.uleb128 0x3a
 540 007b 0B       		.uleb128 0xb
 541 007c 3B       		.uleb128 0x3b
 542 007d 0B       		.uleb128 0xb
 543 007e 27       		.uleb128 0x27
 544 007f 19       		.uleb128 0x19
 545 0080 49       		.uleb128 0x49
 546 0081 13       		.uleb128 0x13
 547 0082 11       		.uleb128 0x11
ARM GAS  C:\Users\diego\AppData\Local\Temp\ccnKlrcw.s 			page 15


 548 0083 01       		.uleb128 0x1
 549 0084 12       		.uleb128 0x12
 550 0085 06       		.uleb128 0x6
 551 0086 40       		.uleb128 0x40
 552 0087 18       		.uleb128 0x18
 553 0088 9742     		.uleb128 0x2117
 554 008a 19       		.uleb128 0x19
 555 008b 00       		.byte	0
 556 008c 00       		.byte	0
 557 008d 0A       		.uleb128 0xa
 558 008e 05       		.uleb128 0x5
 559 008f 00       		.byte	0
 560 0090 03       		.uleb128 0x3
 561 0091 0E       		.uleb128 0xe
 562 0092 3A       		.uleb128 0x3a
 563 0093 0B       		.uleb128 0xb
 564 0094 3B       		.uleb128 0x3b
 565 0095 0B       		.uleb128 0xb
 566 0096 49       		.uleb128 0x49
 567 0097 13       		.uleb128 0x13
 568 0098 02       		.uleb128 0x2
 569 0099 18       		.uleb128 0x18
 570 009a 00       		.byte	0
 571 009b 00       		.byte	0
 572 009c 0B       		.uleb128 0xb
 573 009d 34       		.uleb128 0x34
 574 009e 00       		.byte	0
 575 009f 03       		.uleb128 0x3
 576 00a0 0E       		.uleb128 0xe
 577 00a1 3A       		.uleb128 0x3a
 578 00a2 0B       		.uleb128 0xb
 579 00a3 3B       		.uleb128 0x3b
 580 00a4 0B       		.uleb128 0xb
 581 00a5 49       		.uleb128 0x49
 582 00a6 13       		.uleb128 0x13
 583 00a7 02       		.uleb128 0x2
 584 00a8 17       		.uleb128 0x17
 585 00a9 00       		.byte	0
 586 00aa 00       		.byte	0
 587 00ab 0C       		.uleb128 0xc
 588 00ac 2E       		.uleb128 0x2e
 589 00ad 01       		.byte	0x1
 590 00ae 3F       		.uleb128 0x3f
 591 00af 19       		.uleb128 0x19
 592 00b0 03       		.uleb128 0x3
 593 00b1 0E       		.uleb128 0xe
 594 00b2 3A       		.uleb128 0x3a
 595 00b3 0B       		.uleb128 0xb
 596 00b4 3B       		.uleb128 0x3b
 597 00b5 0B       		.uleb128 0xb
 598 00b6 27       		.uleb128 0x27
 599 00b7 19       		.uleb128 0x19
 600 00b8 49       		.uleb128 0x49
 601 00b9 13       		.uleb128 0x13
 602 00ba 11       		.uleb128 0x11
 603 00bb 01       		.uleb128 0x1
 604 00bc 12       		.uleb128 0x12
ARM GAS  C:\Users\diego\AppData\Local\Temp\ccnKlrcw.s 			page 16


 605 00bd 06       		.uleb128 0x6
 606 00be 40       		.uleb128 0x40
 607 00bf 18       		.uleb128 0x18
 608 00c0 9742     		.uleb128 0x2117
 609 00c2 19       		.uleb128 0x19
 610 00c3 00       		.byte	0
 611 00c4 00       		.byte	0
 612 00c5 0D       		.uleb128 0xd
 613 00c6 34       		.uleb128 0x34
 614 00c7 00       		.byte	0
 615 00c8 03       		.uleb128 0x3
 616 00c9 0E       		.uleb128 0xe
 617 00ca 3A       		.uleb128 0x3a
 618 00cb 0B       		.uleb128 0xb
 619 00cc 3B       		.uleb128 0x3b
 620 00cd 0B       		.uleb128 0xb
 621 00ce 49       		.uleb128 0x49
 622 00cf 13       		.uleb128 0x13
 623 00d0 02       		.uleb128 0x2
 624 00d1 18       		.uleb128 0x18
 625 00d2 00       		.byte	0
 626 00d3 00       		.byte	0
 627 00d4 00       		.byte	0
 628              		.section	.debug_loc,"",%progbits
 629              	.Ldebug_loc0:
 630              	.LLST0:
 631 0000 00000000 		.4byte	.LVL0
 632 0004 0A000000 		.4byte	.LVL1
 633 0008 0100     		.2byte	0x1
 634 000a 50       		.byte	0x50
 635 000b 0A000000 		.4byte	.LVL1
 636 000f 14000000 		.4byte	.LFE0
 637 0013 0400     		.2byte	0x4
 638 0015 F3       		.byte	0xf3
 639 0016 01       		.uleb128 0x1
 640 0017 50       		.byte	0x50
 641 0018 9F       		.byte	0x9f
 642 0019 00000000 		.4byte	0
 643 001d 00000000 		.4byte	0
 644              	.LLST1:
 645 0021 00000000 		.4byte	.LVL2
 646 0025 06000000 		.4byte	.LVL3
 647 0029 0100     		.2byte	0x1
 648 002b 50       		.byte	0x50
 649 002c 06000000 		.4byte	.LVL3
 650 0030 18000000 		.4byte	.LFE1
 651 0034 0400     		.2byte	0x4
 652 0036 F3       		.byte	0xf3
 653 0037 01       		.uleb128 0x1
 654 0038 50       		.byte	0x50
 655 0039 9F       		.byte	0x9f
 656 003a 00000000 		.4byte	0
 657 003e 00000000 		.4byte	0
 658              	.LLST2:
 659 0042 00000000 		.4byte	.LVL4
 660 0046 08000000 		.4byte	.LVL7
 661 004a 0100     		.2byte	0x1
ARM GAS  C:\Users\diego\AppData\Local\Temp\ccnKlrcw.s 			page 17


 662 004c 50       		.byte	0x50
 663 004d 08000000 		.4byte	.LVL7
 664 0051 14000000 		.4byte	.LFE4
 665 0055 0400     		.2byte	0x4
 666 0057 F3       		.byte	0xf3
 667 0058 01       		.uleb128 0x1
 668 0059 50       		.byte	0x50
 669 005a 9F       		.byte	0x9f
 670 005b 00000000 		.4byte	0
 671 005f 00000000 		.4byte	0
 672              	.LLST3:
 673 0063 04000000 		.4byte	.LVL5
 674 0067 06000000 		.4byte	.LVL6
 675 006b 0B00     		.2byte	0xb
 676 006d 70       		.byte	0x70
 677 006e 00       		.sleb128 0
 678 006f 0A       		.byte	0xa
 679 0070 FFFF     		.2byte	0xffff
 680 0072 1A       		.byte	0x1a
 681 0073 20       		.byte	0x20
 682 0074 73       		.byte	0x73
 683 0075 00       		.sleb128 0
 684 0076 1A       		.byte	0x1a
 685 0077 9F       		.byte	0x9f
 686 0078 00000000 		.4byte	0
 687 007c 00000000 		.4byte	0
 688              		.section	.debug_aranges,"",%progbits
 689 0000 44000000 		.4byte	0x44
 690 0004 0200     		.2byte	0x2
 691 0006 00000000 		.4byte	.Ldebug_info0
 692 000a 04       		.byte	0x4
 693 000b 00       		.byte	0
 694 000c 0000     		.2byte	0
 695 000e 0000     		.2byte	0
 696 0010 00000000 		.4byte	.LFB0
 697 0014 14000000 		.4byte	.LFE0-.LFB0
 698 0018 00000000 		.4byte	.LFB1
 699 001c 18000000 		.4byte	.LFE1-.LFB1
 700 0020 00000000 		.4byte	.LFB2
 701 0024 10000000 		.4byte	.LFE2-.LFB2
 702 0028 00000000 		.4byte	.LFB3
 703 002c 10000000 		.4byte	.LFE3-.LFB3
 704 0030 00000000 		.4byte	.LFB4
 705 0034 14000000 		.4byte	.LFE4-.LFB4
 706 0038 00000000 		.4byte	.LFB5
 707 003c 10000000 		.4byte	.LFE5-.LFB5
 708 0040 00000000 		.4byte	0
 709 0044 00000000 		.4byte	0
 710              		.section	.debug_ranges,"",%progbits
 711              	.Ldebug_ranges0:
 712 0000 00000000 		.4byte	.LFB0
 713 0004 14000000 		.4byte	.LFE0
 714 0008 00000000 		.4byte	.LFB1
 715 000c 18000000 		.4byte	.LFE1
 716 0010 00000000 		.4byte	.LFB2
 717 0014 10000000 		.4byte	.LFE2
 718 0018 00000000 		.4byte	.LFB3
ARM GAS  C:\Users\diego\AppData\Local\Temp\ccnKlrcw.s 			page 18


 719 001c 10000000 		.4byte	.LFE3
 720 0020 00000000 		.4byte	.LFB4
 721 0024 14000000 		.4byte	.LFE4
 722 0028 00000000 		.4byte	.LFB5
 723 002c 10000000 		.4byte	.LFE5
 724 0030 00000000 		.4byte	0
 725 0034 00000000 		.4byte	0
 726              		.section	.debug_line,"",%progbits
 727              	.Ldebug_line0:
 728 0000 CA000000 		.section	.debug_str,"MS",%progbits,1
 728      02004700 
 728      00000201 
 728      FB0E0D00 
 728      01010101 
 729              	.LASF15:
 730 0000 72656733 		.ascii	"reg32\000"
 730      3200
 731              	.LASF22:
 732 0006 6F75745F 		.ascii	"out_releay_SetInterruptMode\000"
 732      72656C65 
 732      61795F53 
 732      6574496E 
 732      74657272 
 733              	.LASF16:
 734 0022 6F75745F 		.ascii	"out_releay_SetDriveMode\000"
 734      72656C65 
 734      61795F53 
 734      65744472 
 734      6976654D 
 735              	.LASF19:
 736 003a 76616C75 		.ascii	"value\000"
 736      6500
 737              	.LASF29:
 738 0040 453A5C50 		.ascii	"E:\\Progetti\\Cypress\\Test\\BLE_Sensor\\Beacom_bri"
 738      726F6765 
 738      7474695C 
 738      43797072 
 738      6573735C 
 739 006e 636B2E63 		.ascii	"ck.cydsn\000"
 739      7964736E 
 739      00
 740              	.LASF28:
 741 0077 47656E65 		.ascii	"Generated_Source\\PSoC4\\out_releay.c\000"
 741      72617465 
 741      645F536F 
 741      75726365 
 741      5C50536F 
 742              	.LASF12:
 743 009b 666C6F61 		.ascii	"float\000"
 743      7400
 744              	.LASF1:
 745 00a1 756E7369 		.ascii	"unsigned char\000"
 745      676E6564 
 745      20636861 
 745      7200
 746              	.LASF30:
 747 00af 64725661 		.ascii	"drVal\000"
ARM GAS  C:\Users\diego\AppData\Local\Temp\ccnKlrcw.s 			page 19


 747      6C00
 748              	.LASF5:
 749 00b5 6C6F6E67 		.ascii	"long unsigned int\000"
 749      20756E73 
 749      69676E65 
 749      6420696E 
 749      7400
 750              	.LASF3:
 751 00c7 73686F72 		.ascii	"short unsigned int\000"
 751      7420756E 
 751      7369676E 
 751      65642069 
 751      6E7400
 752              	.LASF20:
 753 00da 6F75745F 		.ascii	"out_releay_Read\000"
 753      72656C65 
 753      61795F52 
 753      65616400 
 754              	.LASF27:
 755 00ea 474E5520 		.ascii	"GNU C11 5.4.1 20160609 (release) [ARM/embedded-5-br"
 755      43313120 
 755      352E342E 
 755      31203230 
 755      31363036 
 756 011d 616E6368 		.ascii	"anch revision 237715] -mcpu=cortex-m0 -mthumb -g -O"
 756      20726576 
 756      6973696F 
 756      6E203233 
 756      37373135 
 757 0150 33202D66 		.ascii	"3 -ffunction-sections -ffat-lto-objects\000"
 757      66756E63 
 757      74696F6E 
 757      2D736563 
 757      74696F6E 
 758              	.LASF13:
 759 0178 646F7562 		.ascii	"double\000"
 759      6C6500
 760              	.LASF24:
 761 017f 6F75745F 		.ascii	"out_releay_ClearInterrupt\000"
 761      72656C65 
 761      61795F43 
 761      6C656172 
 761      496E7465 
 762              	.LASF10:
 763 0199 75696E74 		.ascii	"uint16\000"
 763      313600
 764              	.LASF23:
 765 01a0 706F7369 		.ascii	"position\000"
 765      74696F6E 
 765      00
 766              	.LASF11:
 767 01a9 75696E74 		.ascii	"uint32\000"
 767      333200
 768              	.LASF25:
 769 01b0 696E7472 		.ascii	"intrCfg\000"
 769      43666700 
 770              	.LASF8:
ARM GAS  C:\Users\diego\AppData\Local\Temp\ccnKlrcw.s 			page 20


 771 01b8 756E7369 		.ascii	"unsigned int\000"
 771      676E6564 
 771      20696E74 
 771      00
 772              	.LASF7:
 773 01c5 6C6F6E67 		.ascii	"long long unsigned int\000"
 773      206C6F6E 
 773      6720756E 
 773      7369676E 
 773      65642069 
 774              	.LASF18:
 775 01dc 6D6F6465 		.ascii	"mode\000"
 775      00
 776              	.LASF6:
 777 01e1 6C6F6E67 		.ascii	"long long int\000"
 777      206C6F6E 
 777      6720696E 
 777      7400
 778              	.LASF26:
 779 01ef 6D61736B 		.ascii	"maskedStatus\000"
 779      65645374 
 779      61747573 
 779      00
 780              	.LASF14:
 781 01fc 63686172 		.ascii	"char\000"
 781      00
 782              	.LASF17:
 783 0201 6F75745F 		.ascii	"out_releay_Write\000"
 783      72656C65 
 783      61795F57 
 783      72697465 
 783      00
 784              	.LASF2:
 785 0212 73686F72 		.ascii	"short int\000"
 785      7420696E 
 785      7400
 786              	.LASF9:
 787 021c 75696E74 		.ascii	"uint8\000"
 787      3800
 788              	.LASF4:
 789 0222 6C6F6E67 		.ascii	"long int\000"
 789      20696E74 
 789      00
 790              	.LASF21:
 791 022b 6F75745F 		.ascii	"out_releay_ReadDataReg\000"
 791      72656C65 
 791      61795F52 
 791      65616444 
 791      61746152 
 792              	.LASF0:
 793 0242 7369676E 		.ascii	"signed char\000"
 793      65642063 
 793      68617200 
 794              		.ident	"GCC: (GNU Tools for ARM Embedded Processors) 5.4.1 20160609 (release) [ARM/embedded-5-bran
