ARM GAS  C:\Users\diego\AppData\Local\Temp\cco4NGgV.s 			page 1


   1              		.syntax unified
   2              		.cpu cortex-m0
   3              		.fpu softvfp
   4              		.eabi_attribute 20, 1
   5              		.eabi_attribute 21, 1
   6              		.eabi_attribute 23, 3
   7              		.eabi_attribute 24, 1
   8              		.eabi_attribute 25, 1
   9              		.eabi_attribute 26, 1
  10              		.eabi_attribute 30, 2
  11              		.eabi_attribute 34, 0
  12              		.eabi_attribute 18, 4
  13              		.thumb
  14              		.syntax unified
  15              		.file	"spi_mosi_m.c"
  16              		.text
  17              	.Ltext0:
  18              		.cfi_sections	.debug_frame
  19              		.section	.text.spi_mosi_m_SetDriveMode,"ax",%progbits
  20              		.align	2
  21              		.global	spi_mosi_m_SetDriveMode
  22              		.code	16
  23              		.thumb_func
  24              		.type	spi_mosi_m_SetDriveMode, %function
  25              	spi_mosi_m_SetDriveMode:
  26              	.LFB0:
  27              		.file 1 "Generated_Source\\PSoC4\\spi_mosi_m.c"
   1:Generated_Source\PSoC4/spi_mosi_m.c **** /*******************************************************************************
   2:Generated_Source\PSoC4/spi_mosi_m.c **** * File Name: spi_mosi_m.c  
   3:Generated_Source\PSoC4/spi_mosi_m.c **** * Version 2.20
   4:Generated_Source\PSoC4/spi_mosi_m.c **** *
   5:Generated_Source\PSoC4/spi_mosi_m.c **** * Description:
   6:Generated_Source\PSoC4/spi_mosi_m.c **** *  This file contains API to enable firmware control of a Pins component.
   7:Generated_Source\PSoC4/spi_mosi_m.c **** *
   8:Generated_Source\PSoC4/spi_mosi_m.c **** ********************************************************************************
   9:Generated_Source\PSoC4/spi_mosi_m.c **** * Copyright 2008-2015, Cypress Semiconductor Corporation.  All rights reserved.
  10:Generated_Source\PSoC4/spi_mosi_m.c **** * You may use this file only in accordance with the license, terms, conditions, 
  11:Generated_Source\PSoC4/spi_mosi_m.c **** * disclaimers, and limitations in the end user license agreement accompanying 
  12:Generated_Source\PSoC4/spi_mosi_m.c **** * the software package with which this file was provided.
  13:Generated_Source\PSoC4/spi_mosi_m.c **** *******************************************************************************/
  14:Generated_Source\PSoC4/spi_mosi_m.c **** 
  15:Generated_Source\PSoC4/spi_mosi_m.c **** #include "cytypes.h"
  16:Generated_Source\PSoC4/spi_mosi_m.c **** #include "spi_mosi_m.h"
  17:Generated_Source\PSoC4/spi_mosi_m.c **** 
  18:Generated_Source\PSoC4/spi_mosi_m.c **** 
  19:Generated_Source\PSoC4/spi_mosi_m.c **** #if defined(spi_mosi_m__PC)
  20:Generated_Source\PSoC4/spi_mosi_m.c ****     #define spi_mosi_m_SetP4PinDriveMode(shift, mode)  \
  21:Generated_Source\PSoC4/spi_mosi_m.c ****     do { \
  22:Generated_Source\PSoC4/spi_mosi_m.c ****         spi_mosi_m_PC =   (spi_mosi_m_PC & \
  23:Generated_Source\PSoC4/spi_mosi_m.c ****                                 (uint32)(~(uint32)(spi_mosi_m_DRIVE_MODE_IND_MASK << \
  24:Generated_Source\PSoC4/spi_mosi_m.c ****                                 (spi_mosi_m_DRIVE_MODE_BITS * (shift))))) | \
  25:Generated_Source\PSoC4/spi_mosi_m.c ****                                 (uint32)((uint32)(mode) << \
  26:Generated_Source\PSoC4/spi_mosi_m.c ****                                 (spi_mosi_m_DRIVE_MODE_BITS * (shift))); \
  27:Generated_Source\PSoC4/spi_mosi_m.c ****     } while (0)
  28:Generated_Source\PSoC4/spi_mosi_m.c **** #else
  29:Generated_Source\PSoC4/spi_mosi_m.c ****     #if (CY_PSOC4_4200L)
  30:Generated_Source\PSoC4/spi_mosi_m.c ****         #define spi_mosi_m_SetP4PinDriveMode(shift, mode)  \
ARM GAS  C:\Users\diego\AppData\Local\Temp\cco4NGgV.s 			page 2


  31:Generated_Source\PSoC4/spi_mosi_m.c ****         do { \
  32:Generated_Source\PSoC4/spi_mosi_m.c ****             spi_mosi_m_USBIO_CTRL_REG = (spi_mosi_m_USBIO_CTRL_REG & \
  33:Generated_Source\PSoC4/spi_mosi_m.c ****                                     (uint32)(~(uint32)(spi_mosi_m_DRIVE_MODE_IND_MASK << \
  34:Generated_Source\PSoC4/spi_mosi_m.c ****                                     (spi_mosi_m_DRIVE_MODE_BITS * (shift))))) | \
  35:Generated_Source\PSoC4/spi_mosi_m.c ****                                     (uint32)((uint32)(mode) << \
  36:Generated_Source\PSoC4/spi_mosi_m.c ****                                     (spi_mosi_m_DRIVE_MODE_BITS * (shift))); \
  37:Generated_Source\PSoC4/spi_mosi_m.c ****         } while (0)
  38:Generated_Source\PSoC4/spi_mosi_m.c ****     #endif
  39:Generated_Source\PSoC4/spi_mosi_m.c **** #endif
  40:Generated_Source\PSoC4/spi_mosi_m.c ****   
  41:Generated_Source\PSoC4/spi_mosi_m.c **** 
  42:Generated_Source\PSoC4/spi_mosi_m.c **** #if defined(spi_mosi_m__PC) || (CY_PSOC4_4200L) 
  43:Generated_Source\PSoC4/spi_mosi_m.c ****     /*******************************************************************************
  44:Generated_Source\PSoC4/spi_mosi_m.c ****     * Function Name: spi_mosi_m_SetDriveMode
  45:Generated_Source\PSoC4/spi_mosi_m.c ****     ****************************************************************************//**
  46:Generated_Source\PSoC4/spi_mosi_m.c ****     *
  47:Generated_Source\PSoC4/spi_mosi_m.c ****     * \brief Sets the drive mode for each of the Pins component's pins.
  48:Generated_Source\PSoC4/spi_mosi_m.c ****     * 
  49:Generated_Source\PSoC4/spi_mosi_m.c ****     * <b>Note</b> This affects all pins in the Pins component instance. Use the
  50:Generated_Source\PSoC4/spi_mosi_m.c ****     * Per-Pin APIs if you wish to control individual pin's drive modes.
  51:Generated_Source\PSoC4/spi_mosi_m.c ****     *
  52:Generated_Source\PSoC4/spi_mosi_m.c ****     * <b>Note</b> USBIOs have limited drive functionality. Refer to the Drive Mode
  53:Generated_Source\PSoC4/spi_mosi_m.c ****     * parameter for more information.
  54:Generated_Source\PSoC4/spi_mosi_m.c ****     *
  55:Generated_Source\PSoC4/spi_mosi_m.c ****     * \param mode
  56:Generated_Source\PSoC4/spi_mosi_m.c ****     *  Mode for the selected signals. Valid options are documented in 
  57:Generated_Source\PSoC4/spi_mosi_m.c ****     *  \ref driveMode.
  58:Generated_Source\PSoC4/spi_mosi_m.c ****     *
  59:Generated_Source\PSoC4/spi_mosi_m.c ****     * \return
  60:Generated_Source\PSoC4/spi_mosi_m.c ****     *  None
  61:Generated_Source\PSoC4/spi_mosi_m.c ****     *
  62:Generated_Source\PSoC4/spi_mosi_m.c ****     * \sideeffect
  63:Generated_Source\PSoC4/spi_mosi_m.c ****     *  If you use read-modify-write operations that are not atomic, the ISR can
  64:Generated_Source\PSoC4/spi_mosi_m.c ****     *  cause corruption of this function. An ISR that interrupts this function 
  65:Generated_Source\PSoC4/spi_mosi_m.c ****     *  and performs writes to the Pins component Drive Mode registers can cause 
  66:Generated_Source\PSoC4/spi_mosi_m.c ****     *  corrupted port data. To avoid this issue, you should either use the Per-Pin
  67:Generated_Source\PSoC4/spi_mosi_m.c ****     *  APIs (primary method) or disable interrupts around this function.
  68:Generated_Source\PSoC4/spi_mosi_m.c ****     *
  69:Generated_Source\PSoC4/spi_mosi_m.c ****     * \funcusage
  70:Generated_Source\PSoC4/spi_mosi_m.c ****     *  \snippet spi_mosi_m_SUT.c usage_spi_mosi_m_SetDriveMode
  71:Generated_Source\PSoC4/spi_mosi_m.c ****     *******************************************************************************/
  72:Generated_Source\PSoC4/spi_mosi_m.c ****     void spi_mosi_m_SetDriveMode(uint8 mode)
  73:Generated_Source\PSoC4/spi_mosi_m.c ****     {
  28              		.loc 1 73 0
  29              		.cfi_startproc
  30              		@ args = 0, pretend = 0, frame = 0
  31              		@ frame_needed = 0, uses_anonymous_args = 0
  32              		@ link register save eliminated.
  33              	.LVL0:
  74:Generated_Source\PSoC4/spi_mosi_m.c **** 		spi_mosi_m_SetP4PinDriveMode(spi_mosi_m__0__SHIFT, mode);
  34              		.loc 1 74 0
  35 0000 034A     		ldr	r2, .L2
  36 0002 044B     		ldr	r3, .L2+4
  37 0004 1168     		ldr	r1, [r2]
  38 0006 0003     		lsls	r0, r0, #12
  39              	.LVL1:
  40 0008 0B40     		ands	r3, r1
ARM GAS  C:\Users\diego\AppData\Local\Temp\cco4NGgV.s 			page 3


  41 000a 1843     		orrs	r0, r3
  42 000c 1060     		str	r0, [r2]
  75:Generated_Source\PSoC4/spi_mosi_m.c ****     }
  43              		.loc 1 75 0
  44              		@ sp needed
  45 000e 7047     		bx	lr
  46              	.L3:
  47              		.align	2
  48              	.L2:
  49 0010 08010440 		.word	1074004232
  50 0014 FF8FFFFF 		.word	-28673
  51              		.cfi_endproc
  52              	.LFE0:
  53              		.size	spi_mosi_m_SetDriveMode, .-spi_mosi_m_SetDriveMode
  54              		.section	.text.spi_mosi_m_Write,"ax",%progbits
  55              		.align	2
  56              		.global	spi_mosi_m_Write
  57              		.code	16
  58              		.thumb_func
  59              		.type	spi_mosi_m_Write, %function
  60              	spi_mosi_m_Write:
  61              	.LFB1:
  76:Generated_Source\PSoC4/spi_mosi_m.c **** #endif
  77:Generated_Source\PSoC4/spi_mosi_m.c **** 
  78:Generated_Source\PSoC4/spi_mosi_m.c **** 
  79:Generated_Source\PSoC4/spi_mosi_m.c **** /*******************************************************************************
  80:Generated_Source\PSoC4/spi_mosi_m.c **** * Function Name: spi_mosi_m_Write
  81:Generated_Source\PSoC4/spi_mosi_m.c **** ****************************************************************************//**
  82:Generated_Source\PSoC4/spi_mosi_m.c **** *
  83:Generated_Source\PSoC4/spi_mosi_m.c **** * \brief Writes the value to the physical port (data output register), masking
  84:Generated_Source\PSoC4/spi_mosi_m.c **** *  and shifting the bits appropriately. 
  85:Generated_Source\PSoC4/spi_mosi_m.c **** *
  86:Generated_Source\PSoC4/spi_mosi_m.c **** * The data output register controls the signal applied to the physical pin in 
  87:Generated_Source\PSoC4/spi_mosi_m.c **** * conjunction with the drive mode parameter. This function avoids changing 
  88:Generated_Source\PSoC4/spi_mosi_m.c **** * other bits in the port by using the appropriate method (read-modify-write or
  89:Generated_Source\PSoC4/spi_mosi_m.c **** * bit banding).
  90:Generated_Source\PSoC4/spi_mosi_m.c **** *
  91:Generated_Source\PSoC4/spi_mosi_m.c **** * <b>Note</b> This function should not be used on a hardware digital output pin 
  92:Generated_Source\PSoC4/spi_mosi_m.c **** * as it is driven by the hardware signal attached to it.
  93:Generated_Source\PSoC4/spi_mosi_m.c **** *
  94:Generated_Source\PSoC4/spi_mosi_m.c **** * \param value
  95:Generated_Source\PSoC4/spi_mosi_m.c **** *  Value to write to the component instance.
  96:Generated_Source\PSoC4/spi_mosi_m.c **** *
  97:Generated_Source\PSoC4/spi_mosi_m.c **** * \return 
  98:Generated_Source\PSoC4/spi_mosi_m.c **** *  None 
  99:Generated_Source\PSoC4/spi_mosi_m.c **** *
 100:Generated_Source\PSoC4/spi_mosi_m.c **** * \sideeffect
 101:Generated_Source\PSoC4/spi_mosi_m.c **** *  If you use read-modify-write operations that are not atomic; the Interrupt 
 102:Generated_Source\PSoC4/spi_mosi_m.c **** *  Service Routines (ISR) can cause corruption of this function. An ISR that 
 103:Generated_Source\PSoC4/spi_mosi_m.c **** *  interrupts this function and performs writes to the Pins component data 
 104:Generated_Source\PSoC4/spi_mosi_m.c **** *  register can cause corrupted port data. To avoid this issue, you should 
 105:Generated_Source\PSoC4/spi_mosi_m.c **** *  either use the Per-Pin APIs (primary method) or disable interrupts around 
 106:Generated_Source\PSoC4/spi_mosi_m.c **** *  this function.
 107:Generated_Source\PSoC4/spi_mosi_m.c **** *
 108:Generated_Source\PSoC4/spi_mosi_m.c **** * \funcusage
 109:Generated_Source\PSoC4/spi_mosi_m.c **** *  \snippet spi_mosi_m_SUT.c usage_spi_mosi_m_Write
 110:Generated_Source\PSoC4/spi_mosi_m.c **** *******************************************************************************/
ARM GAS  C:\Users\diego\AppData\Local\Temp\cco4NGgV.s 			page 4


 111:Generated_Source\PSoC4/spi_mosi_m.c **** void spi_mosi_m_Write(uint8 value)
 112:Generated_Source\PSoC4/spi_mosi_m.c **** {
  62              		.loc 1 112 0
  63              		.cfi_startproc
  64              		@ args = 0, pretend = 0, frame = 0
  65              		@ frame_needed = 0, uses_anonymous_args = 0
  66              		@ link register save eliminated.
  67              	.LVL2:
  68              		.loc 1 112 0
  69 0000 0300     		movs	r3, r0
 113:Generated_Source\PSoC4/spi_mosi_m.c ****     uint8 drVal = (uint8)(spi_mosi_m_DR & (uint8)(~spi_mosi_m_MASK));
  70              		.loc 1 113 0
  71 0002 1020     		movs	r0, #16
  72              	.LVL3:
  73 0004 0449     		ldr	r1, .L5
 114:Generated_Source\PSoC4/spi_mosi_m.c ****     drVal = (drVal | ((uint8)(value << spi_mosi_m_SHIFT) & spi_mosi_m_MASK));
 115:Generated_Source\PSoC4/spi_mosi_m.c ****     spi_mosi_m_DR = (uint32)drVal;
  74              		.loc 1 115 0
  75 0006 1B01     		lsls	r3, r3, #4
 113:Generated_Source\PSoC4/spi_mosi_m.c ****     uint8 drVal = (uint8)(spi_mosi_m_DR & (uint8)(~spi_mosi_m_MASK));
  76              		.loc 1 113 0
  77 0008 0A68     		ldr	r2, [r1]
 116:Generated_Source\PSoC4/spi_mosi_m.c **** }
  78              		.loc 1 116 0
  79              		@ sp needed
 113:Generated_Source\PSoC4/spi_mosi_m.c ****     uint8 drVal = (uint8)(spi_mosi_m_DR & (uint8)(~spi_mosi_m_MASK));
  80              		.loc 1 113 0
  81 000a 8243     		bics	r2, r0
  82 000c D2B2     		uxtb	r2, r2
 115:Generated_Source\PSoC4/spi_mosi_m.c **** }
  83              		.loc 1 115 0
  84 000e 1840     		ands	r0, r3
  85 0010 1043     		orrs	r0, r2
  86 0012 0860     		str	r0, [r1]
  87              		.loc 1 116 0
  88 0014 7047     		bx	lr
  89              	.L6:
  90 0016 C046     		.align	2
  91              	.L5:
  92 0018 00010440 		.word	1074004224
  93              		.cfi_endproc
  94              	.LFE1:
  95              		.size	spi_mosi_m_Write, .-spi_mosi_m_Write
  96              		.section	.text.spi_mosi_m_Read,"ax",%progbits
  97              		.align	2
  98              		.global	spi_mosi_m_Read
  99              		.code	16
 100              		.thumb_func
 101              		.type	spi_mosi_m_Read, %function
 102              	spi_mosi_m_Read:
 103              	.LFB2:
 117:Generated_Source\PSoC4/spi_mosi_m.c **** 
 118:Generated_Source\PSoC4/spi_mosi_m.c **** 
 119:Generated_Source\PSoC4/spi_mosi_m.c **** /*******************************************************************************
 120:Generated_Source\PSoC4/spi_mosi_m.c **** * Function Name: spi_mosi_m_Read
 121:Generated_Source\PSoC4/spi_mosi_m.c **** ****************************************************************************//**
 122:Generated_Source\PSoC4/spi_mosi_m.c **** *
ARM GAS  C:\Users\diego\AppData\Local\Temp\cco4NGgV.s 			page 5


 123:Generated_Source\PSoC4/spi_mosi_m.c **** * \brief Reads the associated physical port (pin status register) and masks 
 124:Generated_Source\PSoC4/spi_mosi_m.c **** *  the required bits according to the width and bit position of the component
 125:Generated_Source\PSoC4/spi_mosi_m.c **** *  instance. 
 126:Generated_Source\PSoC4/spi_mosi_m.c **** *
 127:Generated_Source\PSoC4/spi_mosi_m.c **** * The pin's status register returns the current logic level present on the 
 128:Generated_Source\PSoC4/spi_mosi_m.c **** * physical pin.
 129:Generated_Source\PSoC4/spi_mosi_m.c **** *
 130:Generated_Source\PSoC4/spi_mosi_m.c **** * \return 
 131:Generated_Source\PSoC4/spi_mosi_m.c **** *  The current value for the pins in the component as a right justified number.
 132:Generated_Source\PSoC4/spi_mosi_m.c **** *
 133:Generated_Source\PSoC4/spi_mosi_m.c **** * \funcusage
 134:Generated_Source\PSoC4/spi_mosi_m.c **** *  \snippet spi_mosi_m_SUT.c usage_spi_mosi_m_Read  
 135:Generated_Source\PSoC4/spi_mosi_m.c **** *******************************************************************************/
 136:Generated_Source\PSoC4/spi_mosi_m.c **** uint8 spi_mosi_m_Read(void)
 137:Generated_Source\PSoC4/spi_mosi_m.c **** {
 104              		.loc 1 137 0
 105              		.cfi_startproc
 106              		@ args = 0, pretend = 0, frame = 0
 107              		@ frame_needed = 0, uses_anonymous_args = 0
 108              		@ link register save eliminated.
 138:Generated_Source\PSoC4/spi_mosi_m.c ****     return (uint8)((spi_mosi_m_PS & spi_mosi_m_MASK) >> spi_mosi_m_SHIFT);
 109              		.loc 1 138 0
 110 0000 024B     		ldr	r3, .L8
 139:Generated_Source\PSoC4/spi_mosi_m.c **** }
 111              		.loc 1 139 0
 112              		@ sp needed
 138:Generated_Source\PSoC4/spi_mosi_m.c ****     return (uint8)((spi_mosi_m_PS & spi_mosi_m_MASK) >> spi_mosi_m_SHIFT);
 113              		.loc 1 138 0
 114 0002 1868     		ldr	r0, [r3]
 115 0004 C006     		lsls	r0, r0, #27
 116 0006 C00F     		lsrs	r0, r0, #31
 117              		.loc 1 139 0
 118 0008 7047     		bx	lr
 119              	.L9:
 120 000a C046     		.align	2
 121              	.L8:
 122 000c 04010440 		.word	1074004228
 123              		.cfi_endproc
 124              	.LFE2:
 125              		.size	spi_mosi_m_Read, .-spi_mosi_m_Read
 126              		.section	.text.spi_mosi_m_ReadDataReg,"ax",%progbits
 127              		.align	2
 128              		.global	spi_mosi_m_ReadDataReg
 129              		.code	16
 130              		.thumb_func
 131              		.type	spi_mosi_m_ReadDataReg, %function
 132              	spi_mosi_m_ReadDataReg:
 133              	.LFB3:
 140:Generated_Source\PSoC4/spi_mosi_m.c **** 
 141:Generated_Source\PSoC4/spi_mosi_m.c **** 
 142:Generated_Source\PSoC4/spi_mosi_m.c **** /*******************************************************************************
 143:Generated_Source\PSoC4/spi_mosi_m.c **** * Function Name: spi_mosi_m_ReadDataReg
 144:Generated_Source\PSoC4/spi_mosi_m.c **** ****************************************************************************//**
 145:Generated_Source\PSoC4/spi_mosi_m.c **** *
 146:Generated_Source\PSoC4/spi_mosi_m.c **** * \brief Reads the associated physical port's data output register and masks 
 147:Generated_Source\PSoC4/spi_mosi_m.c **** *  the correct bits according to the width and bit position of the component 
 148:Generated_Source\PSoC4/spi_mosi_m.c **** *  instance. 
ARM GAS  C:\Users\diego\AppData\Local\Temp\cco4NGgV.s 			page 6


 149:Generated_Source\PSoC4/spi_mosi_m.c **** *
 150:Generated_Source\PSoC4/spi_mosi_m.c **** * The data output register controls the signal applied to the physical pin in 
 151:Generated_Source\PSoC4/spi_mosi_m.c **** * conjunction with the drive mode parameter. This is not the same as the 
 152:Generated_Source\PSoC4/spi_mosi_m.c **** * preferred spi_mosi_m_Read() API because the 
 153:Generated_Source\PSoC4/spi_mosi_m.c **** * spi_mosi_m_ReadDataReg() reads the data register instead of the status 
 154:Generated_Source\PSoC4/spi_mosi_m.c **** * register. For output pins this is a useful function to determine the value 
 155:Generated_Source\PSoC4/spi_mosi_m.c **** * just written to the pin.
 156:Generated_Source\PSoC4/spi_mosi_m.c **** *
 157:Generated_Source\PSoC4/spi_mosi_m.c **** * \return 
 158:Generated_Source\PSoC4/spi_mosi_m.c **** *  The current value of the data register masked and shifted into a right 
 159:Generated_Source\PSoC4/spi_mosi_m.c **** *  justified number for the component instance.
 160:Generated_Source\PSoC4/spi_mosi_m.c **** *
 161:Generated_Source\PSoC4/spi_mosi_m.c **** * \funcusage
 162:Generated_Source\PSoC4/spi_mosi_m.c **** *  \snippet spi_mosi_m_SUT.c usage_spi_mosi_m_ReadDataReg 
 163:Generated_Source\PSoC4/spi_mosi_m.c **** *******************************************************************************/
 164:Generated_Source\PSoC4/spi_mosi_m.c **** uint8 spi_mosi_m_ReadDataReg(void)
 165:Generated_Source\PSoC4/spi_mosi_m.c **** {
 134              		.loc 1 165 0
 135              		.cfi_startproc
 136              		@ args = 0, pretend = 0, frame = 0
 137              		@ frame_needed = 0, uses_anonymous_args = 0
 138              		@ link register save eliminated.
 166:Generated_Source\PSoC4/spi_mosi_m.c ****     return (uint8)((spi_mosi_m_DR & spi_mosi_m_MASK) >> spi_mosi_m_SHIFT);
 139              		.loc 1 166 0
 140 0000 024B     		ldr	r3, .L11
 167:Generated_Source\PSoC4/spi_mosi_m.c **** }
 141              		.loc 1 167 0
 142              		@ sp needed
 166:Generated_Source\PSoC4/spi_mosi_m.c ****     return (uint8)((spi_mosi_m_DR & spi_mosi_m_MASK) >> spi_mosi_m_SHIFT);
 143              		.loc 1 166 0
 144 0002 1868     		ldr	r0, [r3]
 145 0004 C006     		lsls	r0, r0, #27
 146 0006 C00F     		lsrs	r0, r0, #31
 147              		.loc 1 167 0
 148 0008 7047     		bx	lr
 149              	.L12:
 150 000a C046     		.align	2
 151              	.L11:
 152 000c 00010440 		.word	1074004224
 153              		.cfi_endproc
 154              	.LFE3:
 155              		.size	spi_mosi_m_ReadDataReg, .-spi_mosi_m_ReadDataReg
 156              		.section	.text.spi_mosi_m_SetInterruptMode,"ax",%progbits
 157              		.align	2
 158              		.global	spi_mosi_m_SetInterruptMode
 159              		.code	16
 160              		.thumb_func
 161              		.type	spi_mosi_m_SetInterruptMode, %function
 162              	spi_mosi_m_SetInterruptMode:
 163              	.LFB4:
 168:Generated_Source\PSoC4/spi_mosi_m.c **** 
 169:Generated_Source\PSoC4/spi_mosi_m.c **** 
 170:Generated_Source\PSoC4/spi_mosi_m.c **** /*******************************************************************************
 171:Generated_Source\PSoC4/spi_mosi_m.c **** * Function Name: spi_mosi_m_SetInterruptMode
 172:Generated_Source\PSoC4/spi_mosi_m.c **** ****************************************************************************//**
 173:Generated_Source\PSoC4/spi_mosi_m.c **** *
 174:Generated_Source\PSoC4/spi_mosi_m.c **** * \brief Configures the interrupt mode for each of the Pins component's
ARM GAS  C:\Users\diego\AppData\Local\Temp\cco4NGgV.s 			page 7


 175:Generated_Source\PSoC4/spi_mosi_m.c **** *  pins. Alternatively you may set the interrupt mode for all the pins
 176:Generated_Source\PSoC4/spi_mosi_m.c **** *  specified in the Pins component.
 177:Generated_Source\PSoC4/spi_mosi_m.c **** *
 178:Generated_Source\PSoC4/spi_mosi_m.c **** *  <b>Note</b> The interrupt is port-wide and therefore any enabled pin
 179:Generated_Source\PSoC4/spi_mosi_m.c **** *  interrupt may trigger it.
 180:Generated_Source\PSoC4/spi_mosi_m.c **** *
 181:Generated_Source\PSoC4/spi_mosi_m.c **** * \param position
 182:Generated_Source\PSoC4/spi_mosi_m.c **** *  The pin position as listed in the Pins component. You may OR these to be 
 183:Generated_Source\PSoC4/spi_mosi_m.c **** *  able to configure the interrupt mode of multiple pins within a Pins 
 184:Generated_Source\PSoC4/spi_mosi_m.c **** *  component. Or you may use spi_mosi_m_INTR_ALL to configure the
 185:Generated_Source\PSoC4/spi_mosi_m.c **** *  interrupt mode of all the pins in the Pins component.       
 186:Generated_Source\PSoC4/spi_mosi_m.c **** *  - spi_mosi_m_0_INTR       (First pin in the list)
 187:Generated_Source\PSoC4/spi_mosi_m.c **** *  - spi_mosi_m_1_INTR       (Second pin in the list)
 188:Generated_Source\PSoC4/spi_mosi_m.c **** *  - ...
 189:Generated_Source\PSoC4/spi_mosi_m.c **** *  - spi_mosi_m_INTR_ALL     (All pins in Pins component)
 190:Generated_Source\PSoC4/spi_mosi_m.c **** *
 191:Generated_Source\PSoC4/spi_mosi_m.c **** * \param mode
 192:Generated_Source\PSoC4/spi_mosi_m.c **** *  Interrupt mode for the selected pins. Valid options are documented in
 193:Generated_Source\PSoC4/spi_mosi_m.c **** *  \ref intrMode.
 194:Generated_Source\PSoC4/spi_mosi_m.c **** *
 195:Generated_Source\PSoC4/spi_mosi_m.c **** * \return 
 196:Generated_Source\PSoC4/spi_mosi_m.c **** *  None
 197:Generated_Source\PSoC4/spi_mosi_m.c **** *  
 198:Generated_Source\PSoC4/spi_mosi_m.c **** * \sideeffect
 199:Generated_Source\PSoC4/spi_mosi_m.c **** *  It is recommended that the interrupt be disabled before calling this 
 200:Generated_Source\PSoC4/spi_mosi_m.c **** *  function to avoid unintended interrupt requests. Note that the interrupt
 201:Generated_Source\PSoC4/spi_mosi_m.c **** *  type is port wide, and therefore will trigger for any enabled pin on the 
 202:Generated_Source\PSoC4/spi_mosi_m.c **** *  port.
 203:Generated_Source\PSoC4/spi_mosi_m.c **** *
 204:Generated_Source\PSoC4/spi_mosi_m.c **** * \funcusage
 205:Generated_Source\PSoC4/spi_mosi_m.c **** *  \snippet spi_mosi_m_SUT.c usage_spi_mosi_m_SetInterruptMode
 206:Generated_Source\PSoC4/spi_mosi_m.c **** *******************************************************************************/
 207:Generated_Source\PSoC4/spi_mosi_m.c **** void spi_mosi_m_SetInterruptMode(uint16 position, uint16 mode)
 208:Generated_Source\PSoC4/spi_mosi_m.c **** {
 164              		.loc 1 208 0
 165              		.cfi_startproc
 166              		@ args = 0, pretend = 0, frame = 0
 167              		@ frame_needed = 0, uses_anonymous_args = 0
 168              		@ link register save eliminated.
 169              	.LVL4:
 209:Generated_Source\PSoC4/spi_mosi_m.c ****     uint32 intrCfg;
 210:Generated_Source\PSoC4/spi_mosi_m.c ****     
 211:Generated_Source\PSoC4/spi_mosi_m.c ****     intrCfg =  spi_mosi_m_INTCFG & (uint32)(~(uint32)position);
 170              		.loc 1 211 0
 171 0000 034A     		ldr	r2, .L14
 212:Generated_Source\PSoC4/spi_mosi_m.c ****     spi_mosi_m_INTCFG = intrCfg | ((uint32)position & (uint32)mode);
 213:Generated_Source\PSoC4/spi_mosi_m.c **** }
 172              		.loc 1 213 0
 173              		@ sp needed
 211:Generated_Source\PSoC4/spi_mosi_m.c ****     spi_mosi_m_INTCFG = intrCfg | ((uint32)position & (uint32)mode);
 174              		.loc 1 211 0
 175 0002 1368     		ldr	r3, [r2]
 176              	.LVL5:
 212:Generated_Source\PSoC4/spi_mosi_m.c ****     spi_mosi_m_INTCFG = intrCfg | ((uint32)position & (uint32)mode);
 177              		.loc 1 212 0
 178 0004 8343     		bics	r3, r0
 179              	.LVL6:
ARM GAS  C:\Users\diego\AppData\Local\Temp\cco4NGgV.s 			page 8


 180 0006 0840     		ands	r0, r1
 181              	.LVL7:
 182 0008 1843     		orrs	r0, r3
 183 000a 1060     		str	r0, [r2]
 184              		.loc 1 213 0
 185 000c 7047     		bx	lr
 186              	.L15:
 187 000e C046     		.align	2
 188              	.L14:
 189 0010 0C010440 		.word	1074004236
 190              		.cfi_endproc
 191              	.LFE4:
 192              		.size	spi_mosi_m_SetInterruptMode, .-spi_mosi_m_SetInterruptMode
 193              		.section	.text.spi_mosi_m_ClearInterrupt,"ax",%progbits
 194              		.align	2
 195              		.global	spi_mosi_m_ClearInterrupt
 196              		.code	16
 197              		.thumb_func
 198              		.type	spi_mosi_m_ClearInterrupt, %function
 199              	spi_mosi_m_ClearInterrupt:
 200              	.LFB5:
 214:Generated_Source\PSoC4/spi_mosi_m.c **** 
 215:Generated_Source\PSoC4/spi_mosi_m.c **** 
 216:Generated_Source\PSoC4/spi_mosi_m.c **** /*******************************************************************************
 217:Generated_Source\PSoC4/spi_mosi_m.c **** * Function Name: spi_mosi_m_ClearInterrupt
 218:Generated_Source\PSoC4/spi_mosi_m.c **** ****************************************************************************//**
 219:Generated_Source\PSoC4/spi_mosi_m.c **** *
 220:Generated_Source\PSoC4/spi_mosi_m.c **** * \brief Clears any active interrupts attached with the component and returns 
 221:Generated_Source\PSoC4/spi_mosi_m.c **** *  the value of the interrupt status register allowing determination of which
 222:Generated_Source\PSoC4/spi_mosi_m.c **** *  pins generated an interrupt event.
 223:Generated_Source\PSoC4/spi_mosi_m.c **** *
 224:Generated_Source\PSoC4/spi_mosi_m.c **** * \return 
 225:Generated_Source\PSoC4/spi_mosi_m.c **** *  The right-shifted current value of the interrupt status register. Each pin 
 226:Generated_Source\PSoC4/spi_mosi_m.c **** *  has one bit set if it generated an interrupt event. For example, bit 0 is 
 227:Generated_Source\PSoC4/spi_mosi_m.c **** *  for pin 0 and bit 1 is for pin 1 of the Pins component.
 228:Generated_Source\PSoC4/spi_mosi_m.c **** *  
 229:Generated_Source\PSoC4/spi_mosi_m.c **** * \sideeffect
 230:Generated_Source\PSoC4/spi_mosi_m.c **** *  Clears all bits of the physical port's interrupt status register, not just
 231:Generated_Source\PSoC4/spi_mosi_m.c **** *  those associated with the Pins component.
 232:Generated_Source\PSoC4/spi_mosi_m.c **** *
 233:Generated_Source\PSoC4/spi_mosi_m.c **** * \funcusage
 234:Generated_Source\PSoC4/spi_mosi_m.c **** *  \snippet spi_mosi_m_SUT.c usage_spi_mosi_m_ClearInterrupt
 235:Generated_Source\PSoC4/spi_mosi_m.c **** *******************************************************************************/
 236:Generated_Source\PSoC4/spi_mosi_m.c **** uint8 spi_mosi_m_ClearInterrupt(void)
 237:Generated_Source\PSoC4/spi_mosi_m.c **** {
 201              		.loc 1 237 0
 202              		.cfi_startproc
 203              		@ args = 0, pretend = 0, frame = 0
 204              		@ frame_needed = 0, uses_anonymous_args = 0
 205              		@ link register save eliminated.
 238:Generated_Source\PSoC4/spi_mosi_m.c **** 	uint8 maskedStatus = (uint8)(spi_mosi_m_INTSTAT & spi_mosi_m_MASK);
 206              		.loc 1 238 0
 207 0000 1020     		movs	r0, #16
 208 0002 034A     		ldr	r2, .L17
 239:Generated_Source\PSoC4/spi_mosi_m.c **** 	spi_mosi_m_INTSTAT = maskedStatus;
 240:Generated_Source\PSoC4/spi_mosi_m.c ****     return maskedStatus >> spi_mosi_m_SHIFT;
 241:Generated_Source\PSoC4/spi_mosi_m.c **** }
ARM GAS  C:\Users\diego\AppData\Local\Temp\cco4NGgV.s 			page 9


 209              		.loc 1 241 0
 210              		@ sp needed
 238:Generated_Source\PSoC4/spi_mosi_m.c **** 	uint8 maskedStatus = (uint8)(spi_mosi_m_INTSTAT & spi_mosi_m_MASK);
 211              		.loc 1 238 0
 212 0004 1368     		ldr	r3, [r2]
 213 0006 1840     		ands	r0, r3
 214              	.LVL8:
 239:Generated_Source\PSoC4/spi_mosi_m.c **** 	spi_mosi_m_INTSTAT = maskedStatus;
 215              		.loc 1 239 0
 216 0008 1060     		str	r0, [r2]
 240:Generated_Source\PSoC4/spi_mosi_m.c **** }
 217              		.loc 1 240 0
 218 000a 0009     		lsrs	r0, r0, #4
 219              	.LVL9:
 220 000c C0B2     		uxtb	r0, r0
 221              		.loc 1 241 0
 222 000e 7047     		bx	lr
 223              	.L18:
 224              		.align	2
 225              	.L17:
 226 0010 10010440 		.word	1074004240
 227              		.cfi_endproc
 228              	.LFE5:
 229              		.size	spi_mosi_m_ClearInterrupt, .-spi_mosi_m_ClearInterrupt
 230              		.text
 231              	.Letext0:
 232              		.file 2 "Generated_Source\\PSoC4\\cytypes.h"
 233              		.section	.debug_info,"",%progbits
 234              	.Ldebug_info0:
 235 0000 97010000 		.4byte	0x197
 236 0004 0400     		.2byte	0x4
 237 0006 00000000 		.4byte	.Ldebug_abbrev0
 238 000a 04       		.byte	0x4
 239 000b 01       		.uleb128 0x1
 240 000c D0000000 		.4byte	.LASF27
 241 0010 0C       		.byte	0xc
 242 0011 77000000 		.4byte	.LASF28
 243 0015 0C000000 		.4byte	.LASF29
 244 0019 00000000 		.4byte	.Ldebug_ranges0+0
 245 001d 00000000 		.4byte	0
 246 0021 00000000 		.4byte	.Ldebug_line0
 247 0025 02       		.uleb128 0x2
 248 0026 01       		.byte	0x1
 249 0027 06       		.byte	0x6
 250 0028 42020000 		.4byte	.LASF0
 251 002c 02       		.uleb128 0x2
 252 002d 01       		.byte	0x1
 253 002e 08       		.byte	0x8
 254 002f 63000000 		.4byte	.LASF1
 255 0033 02       		.uleb128 0x2
 256 0034 02       		.byte	0x2
 257 0035 05       		.byte	0x5
 258 0036 F7010000 		.4byte	.LASF2
 259 003a 02       		.uleb128 0x2
 260 003b 02       		.byte	0x2
 261 003c 07       		.byte	0x7
 262 003d AD000000 		.4byte	.LASF3
ARM GAS  C:\Users\diego\AppData\Local\Temp\cco4NGgV.s 			page 10


 263 0041 02       		.uleb128 0x2
 264 0042 04       		.byte	0x4
 265 0043 05       		.byte	0x5
 266 0044 28020000 		.4byte	.LASF4
 267 0048 02       		.uleb128 0x2
 268 0049 04       		.byte	0x4
 269 004a 07       		.byte	0x7
 270 004b 9B000000 		.4byte	.LASF5
 271 004f 02       		.uleb128 0x2
 272 0050 08       		.byte	0x8
 273 0051 05       		.byte	0x5
 274 0052 D7010000 		.4byte	.LASF6
 275 0056 02       		.uleb128 0x2
 276 0057 08       		.byte	0x8
 277 0058 07       		.byte	0x7
 278 0059 9F010000 		.4byte	.LASF7
 279 005d 03       		.uleb128 0x3
 280 005e 04       		.byte	0x4
 281 005f 05       		.byte	0x5
 282 0060 696E7400 		.ascii	"int\000"
 283 0064 02       		.uleb128 0x2
 284 0065 04       		.byte	0x4
 285 0066 07       		.byte	0x7
 286 0067 92010000 		.4byte	.LASF8
 287 006b 04       		.uleb128 0x4
 288 006c 01020000 		.4byte	.LASF9
 289 0070 02       		.byte	0x2
 290 0071 F701     		.2byte	0x1f7
 291 0073 2C000000 		.4byte	0x2c
 292 0077 04       		.uleb128 0x4
 293 0078 65010000 		.4byte	.LASF10
 294 007c 02       		.byte	0x2
 295 007d F801     		.2byte	0x1f8
 296 007f 3A000000 		.4byte	0x3a
 297 0083 04       		.uleb128 0x4
 298 0084 83010000 		.4byte	.LASF11
 299 0088 02       		.byte	0x2
 300 0089 F901     		.2byte	0x1f9
 301 008b 48000000 		.4byte	0x48
 302 008f 02       		.uleb128 0x2
 303 0090 04       		.byte	0x4
 304 0091 04       		.byte	0x4
 305 0092 5D000000 		.4byte	.LASF12
 306 0096 02       		.uleb128 0x2
 307 0097 08       		.byte	0x8
 308 0098 04       		.byte	0x4
 309 0099 5E010000 		.4byte	.LASF13
 310 009d 02       		.uleb128 0x2
 311 009e 01       		.byte	0x1
 312 009f 08       		.byte	0x8
 313 00a0 F2010000 		.4byte	.LASF14
 314 00a4 04       		.uleb128 0x4
 315 00a5 00000000 		.4byte	.LASF15
 316 00a9 02       		.byte	0x2
 317 00aa A302     		.2byte	0x2a3
 318 00ac B0000000 		.4byte	0xb0
 319 00b0 05       		.uleb128 0x5
ARM GAS  C:\Users\diego\AppData\Local\Temp\cco4NGgV.s 			page 11


 320 00b1 83000000 		.4byte	0x83
 321 00b5 06       		.uleb128 0x6
 322 00b6 10020000 		.4byte	.LASF16
 323 00ba 01       		.byte	0x1
 324 00bb 48       		.byte	0x48
 325 00bc 00000000 		.4byte	.LFB0
 326 00c0 18000000 		.4byte	.LFE0-.LFB0
 327 00c4 01       		.uleb128 0x1
 328 00c5 9C       		.byte	0x9c
 329 00c6 DA000000 		.4byte	0xda
 330 00ca 07       		.uleb128 0x7
 331 00cb B6010000 		.4byte	.LASF18
 332 00cf 01       		.byte	0x1
 333 00d0 48       		.byte	0x48
 334 00d1 6B000000 		.4byte	0x6b
 335 00d5 00000000 		.4byte	.LLST0
 336 00d9 00       		.byte	0
 337 00da 06       		.uleb128 0x6
 338 00db 31020000 		.4byte	.LASF17
 339 00df 01       		.byte	0x1
 340 00e0 6F       		.byte	0x6f
 341 00e1 00000000 		.4byte	.LFB1
 342 00e5 1C000000 		.4byte	.LFE1-.LFB1
 343 00e9 01       		.uleb128 0x1
 344 00ea 9C       		.byte	0x9c
 345 00eb 0A010000 		.4byte	0x10a
 346 00ef 07       		.uleb128 0x7
 347 00f0 06000000 		.4byte	.LASF19
 348 00f4 01       		.byte	0x1
 349 00f5 6F       		.byte	0x6f
 350 00f6 6B000000 		.4byte	0x6b
 351 00fa 21000000 		.4byte	.LLST1
 352 00fe 08       		.uleb128 0x8
 353 00ff 71000000 		.4byte	.LASF30
 354 0103 01       		.byte	0x1
 355 0104 71       		.byte	0x71
 356 0105 6B000000 		.4byte	0x6b
 357 0109 00       		.byte	0
 358 010a 09       		.uleb128 0x9
 359 010b C0000000 		.4byte	.LASF20
 360 010f 01       		.byte	0x1
 361 0110 88       		.byte	0x88
 362 0111 6B000000 		.4byte	0x6b
 363 0115 00000000 		.4byte	.LFB2
 364 0119 10000000 		.4byte	.LFE2-.LFB2
 365 011d 01       		.uleb128 0x1
 366 011e 9C       		.byte	0x9c
 367 011f 09       		.uleb128 0x9
 368 0120 6C010000 		.4byte	.LASF21
 369 0124 01       		.byte	0x1
 370 0125 A4       		.byte	0xa4
 371 0126 6B000000 		.4byte	0x6b
 372 012a 00000000 		.4byte	.LFB3
 373 012e 10000000 		.4byte	.LFE3-.LFB3
 374 0132 01       		.uleb128 0x1
 375 0133 9C       		.byte	0x9c
 376 0134 06       		.uleb128 0x6
ARM GAS  C:\Users\diego\AppData\Local\Temp\cco4NGgV.s 			page 12


 377 0135 BB010000 		.4byte	.LASF22
 378 0139 01       		.byte	0x1
 379 013a CF       		.byte	0xcf
 380 013b 00000000 		.4byte	.LFB4
 381 013f 14000000 		.4byte	.LFE4-.LFB4
 382 0143 01       		.uleb128 0x1
 383 0144 9C       		.byte	0x9c
 384 0145 75010000 		.4byte	0x175
 385 0149 07       		.uleb128 0x7
 386 014a 07020000 		.4byte	.LASF23
 387 014e 01       		.byte	0x1
 388 014f CF       		.byte	0xcf
 389 0150 77000000 		.4byte	0x77
 390 0154 42000000 		.4byte	.LLST2
 391 0158 0A       		.uleb128 0xa
 392 0159 B6010000 		.4byte	.LASF18
 393 015d 01       		.byte	0x1
 394 015e CF       		.byte	0xcf
 395 015f 77000000 		.4byte	0x77
 396 0163 01       		.uleb128 0x1
 397 0164 51       		.byte	0x51
 398 0165 0B       		.uleb128 0xb
 399 0166 8A010000 		.4byte	.LASF25
 400 016a 01       		.byte	0x1
 401 016b D1       		.byte	0xd1
 402 016c 83000000 		.4byte	0x83
 403 0170 63000000 		.4byte	.LLST3
 404 0174 00       		.byte	0
 405 0175 0C       		.uleb128 0xc
 406 0176 43000000 		.4byte	.LASF24
 407 017a 01       		.byte	0x1
 408 017b EC       		.byte	0xec
 409 017c 6B000000 		.4byte	0x6b
 410 0180 00000000 		.4byte	.LFB5
 411 0184 14000000 		.4byte	.LFE5-.LFB5
 412 0188 01       		.uleb128 0x1
 413 0189 9C       		.byte	0x9c
 414 018a 0B       		.uleb128 0xb
 415 018b E5010000 		.4byte	.LASF26
 416 018f 01       		.byte	0x1
 417 0190 EE       		.byte	0xee
 418 0191 6B000000 		.4byte	0x6b
 419 0195 80000000 		.4byte	.LLST4
 420 0199 00       		.byte	0
 421 019a 00       		.byte	0
 422              		.section	.debug_abbrev,"",%progbits
 423              	.Ldebug_abbrev0:
 424 0000 01       		.uleb128 0x1
 425 0001 11       		.uleb128 0x11
 426 0002 01       		.byte	0x1
 427 0003 25       		.uleb128 0x25
 428 0004 0E       		.uleb128 0xe
 429 0005 13       		.uleb128 0x13
 430 0006 0B       		.uleb128 0xb
 431 0007 03       		.uleb128 0x3
 432 0008 0E       		.uleb128 0xe
 433 0009 1B       		.uleb128 0x1b
ARM GAS  C:\Users\diego\AppData\Local\Temp\cco4NGgV.s 			page 13


 434 000a 0E       		.uleb128 0xe
 435 000b 55       		.uleb128 0x55
 436 000c 17       		.uleb128 0x17
 437 000d 11       		.uleb128 0x11
 438 000e 01       		.uleb128 0x1
 439 000f 10       		.uleb128 0x10
 440 0010 17       		.uleb128 0x17
 441 0011 00       		.byte	0
 442 0012 00       		.byte	0
 443 0013 02       		.uleb128 0x2
 444 0014 24       		.uleb128 0x24
 445 0015 00       		.byte	0
 446 0016 0B       		.uleb128 0xb
 447 0017 0B       		.uleb128 0xb
 448 0018 3E       		.uleb128 0x3e
 449 0019 0B       		.uleb128 0xb
 450 001a 03       		.uleb128 0x3
 451 001b 0E       		.uleb128 0xe
 452 001c 00       		.byte	0
 453 001d 00       		.byte	0
 454 001e 03       		.uleb128 0x3
 455 001f 24       		.uleb128 0x24
 456 0020 00       		.byte	0
 457 0021 0B       		.uleb128 0xb
 458 0022 0B       		.uleb128 0xb
 459 0023 3E       		.uleb128 0x3e
 460 0024 0B       		.uleb128 0xb
 461 0025 03       		.uleb128 0x3
 462 0026 08       		.uleb128 0x8
 463 0027 00       		.byte	0
 464 0028 00       		.byte	0
 465 0029 04       		.uleb128 0x4
 466 002a 16       		.uleb128 0x16
 467 002b 00       		.byte	0
 468 002c 03       		.uleb128 0x3
 469 002d 0E       		.uleb128 0xe
 470 002e 3A       		.uleb128 0x3a
 471 002f 0B       		.uleb128 0xb
 472 0030 3B       		.uleb128 0x3b
 473 0031 05       		.uleb128 0x5
 474 0032 49       		.uleb128 0x49
 475 0033 13       		.uleb128 0x13
 476 0034 00       		.byte	0
 477 0035 00       		.byte	0
 478 0036 05       		.uleb128 0x5
 479 0037 35       		.uleb128 0x35
 480 0038 00       		.byte	0
 481 0039 49       		.uleb128 0x49
 482 003a 13       		.uleb128 0x13
 483 003b 00       		.byte	0
 484 003c 00       		.byte	0
 485 003d 06       		.uleb128 0x6
 486 003e 2E       		.uleb128 0x2e
 487 003f 01       		.byte	0x1
 488 0040 3F       		.uleb128 0x3f
 489 0041 19       		.uleb128 0x19
 490 0042 03       		.uleb128 0x3
ARM GAS  C:\Users\diego\AppData\Local\Temp\cco4NGgV.s 			page 14


 491 0043 0E       		.uleb128 0xe
 492 0044 3A       		.uleb128 0x3a
 493 0045 0B       		.uleb128 0xb
 494 0046 3B       		.uleb128 0x3b
 495 0047 0B       		.uleb128 0xb
 496 0048 27       		.uleb128 0x27
 497 0049 19       		.uleb128 0x19
 498 004a 11       		.uleb128 0x11
 499 004b 01       		.uleb128 0x1
 500 004c 12       		.uleb128 0x12
 501 004d 06       		.uleb128 0x6
 502 004e 40       		.uleb128 0x40
 503 004f 18       		.uleb128 0x18
 504 0050 9742     		.uleb128 0x2117
 505 0052 19       		.uleb128 0x19
 506 0053 01       		.uleb128 0x1
 507 0054 13       		.uleb128 0x13
 508 0055 00       		.byte	0
 509 0056 00       		.byte	0
 510 0057 07       		.uleb128 0x7
 511 0058 05       		.uleb128 0x5
 512 0059 00       		.byte	0
 513 005a 03       		.uleb128 0x3
 514 005b 0E       		.uleb128 0xe
 515 005c 3A       		.uleb128 0x3a
 516 005d 0B       		.uleb128 0xb
 517 005e 3B       		.uleb128 0x3b
 518 005f 0B       		.uleb128 0xb
 519 0060 49       		.uleb128 0x49
 520 0061 13       		.uleb128 0x13
 521 0062 02       		.uleb128 0x2
 522 0063 17       		.uleb128 0x17
 523 0064 00       		.byte	0
 524 0065 00       		.byte	0
 525 0066 08       		.uleb128 0x8
 526 0067 34       		.uleb128 0x34
 527 0068 00       		.byte	0
 528 0069 03       		.uleb128 0x3
 529 006a 0E       		.uleb128 0xe
 530 006b 3A       		.uleb128 0x3a
 531 006c 0B       		.uleb128 0xb
 532 006d 3B       		.uleb128 0x3b
 533 006e 0B       		.uleb128 0xb
 534 006f 49       		.uleb128 0x49
 535 0070 13       		.uleb128 0x13
 536 0071 00       		.byte	0
 537 0072 00       		.byte	0
 538 0073 09       		.uleb128 0x9
 539 0074 2E       		.uleb128 0x2e
 540 0075 00       		.byte	0
 541 0076 3F       		.uleb128 0x3f
 542 0077 19       		.uleb128 0x19
 543 0078 03       		.uleb128 0x3
 544 0079 0E       		.uleb128 0xe
 545 007a 3A       		.uleb128 0x3a
 546 007b 0B       		.uleb128 0xb
 547 007c 3B       		.uleb128 0x3b
ARM GAS  C:\Users\diego\AppData\Local\Temp\cco4NGgV.s 			page 15


 548 007d 0B       		.uleb128 0xb
 549 007e 27       		.uleb128 0x27
 550 007f 19       		.uleb128 0x19
 551 0080 49       		.uleb128 0x49
 552 0081 13       		.uleb128 0x13
 553 0082 11       		.uleb128 0x11
 554 0083 01       		.uleb128 0x1
 555 0084 12       		.uleb128 0x12
 556 0085 06       		.uleb128 0x6
 557 0086 40       		.uleb128 0x40
 558 0087 18       		.uleb128 0x18
 559 0088 9742     		.uleb128 0x2117
 560 008a 19       		.uleb128 0x19
 561 008b 00       		.byte	0
 562 008c 00       		.byte	0
 563 008d 0A       		.uleb128 0xa
 564 008e 05       		.uleb128 0x5
 565 008f 00       		.byte	0
 566 0090 03       		.uleb128 0x3
 567 0091 0E       		.uleb128 0xe
 568 0092 3A       		.uleb128 0x3a
 569 0093 0B       		.uleb128 0xb
 570 0094 3B       		.uleb128 0x3b
 571 0095 0B       		.uleb128 0xb
 572 0096 49       		.uleb128 0x49
 573 0097 13       		.uleb128 0x13
 574 0098 02       		.uleb128 0x2
 575 0099 18       		.uleb128 0x18
 576 009a 00       		.byte	0
 577 009b 00       		.byte	0
 578 009c 0B       		.uleb128 0xb
 579 009d 34       		.uleb128 0x34
 580 009e 00       		.byte	0
 581 009f 03       		.uleb128 0x3
 582 00a0 0E       		.uleb128 0xe
 583 00a1 3A       		.uleb128 0x3a
 584 00a2 0B       		.uleb128 0xb
 585 00a3 3B       		.uleb128 0x3b
 586 00a4 0B       		.uleb128 0xb
 587 00a5 49       		.uleb128 0x49
 588 00a6 13       		.uleb128 0x13
 589 00a7 02       		.uleb128 0x2
 590 00a8 17       		.uleb128 0x17
 591 00a9 00       		.byte	0
 592 00aa 00       		.byte	0
 593 00ab 0C       		.uleb128 0xc
 594 00ac 2E       		.uleb128 0x2e
 595 00ad 01       		.byte	0x1
 596 00ae 3F       		.uleb128 0x3f
 597 00af 19       		.uleb128 0x19
 598 00b0 03       		.uleb128 0x3
 599 00b1 0E       		.uleb128 0xe
 600 00b2 3A       		.uleb128 0x3a
 601 00b3 0B       		.uleb128 0xb
 602 00b4 3B       		.uleb128 0x3b
 603 00b5 0B       		.uleb128 0xb
 604 00b6 27       		.uleb128 0x27
ARM GAS  C:\Users\diego\AppData\Local\Temp\cco4NGgV.s 			page 16


 605 00b7 19       		.uleb128 0x19
 606 00b8 49       		.uleb128 0x49
 607 00b9 13       		.uleb128 0x13
 608 00ba 11       		.uleb128 0x11
 609 00bb 01       		.uleb128 0x1
 610 00bc 12       		.uleb128 0x12
 611 00bd 06       		.uleb128 0x6
 612 00be 40       		.uleb128 0x40
 613 00bf 18       		.uleb128 0x18
 614 00c0 9742     		.uleb128 0x2117
 615 00c2 19       		.uleb128 0x19
 616 00c3 00       		.byte	0
 617 00c4 00       		.byte	0
 618 00c5 00       		.byte	0
 619              		.section	.debug_loc,"",%progbits
 620              	.Ldebug_loc0:
 621              	.LLST0:
 622 0000 00000000 		.4byte	.LVL0
 623 0004 08000000 		.4byte	.LVL1
 624 0008 0100     		.2byte	0x1
 625 000a 50       		.byte	0x50
 626 000b 08000000 		.4byte	.LVL1
 627 000f 18000000 		.4byte	.LFE0
 628 0013 0400     		.2byte	0x4
 629 0015 F3       		.byte	0xf3
 630 0016 01       		.uleb128 0x1
 631 0017 50       		.byte	0x50
 632 0018 9F       		.byte	0x9f
 633 0019 00000000 		.4byte	0
 634 001d 00000000 		.4byte	0
 635              	.LLST1:
 636 0021 00000000 		.4byte	.LVL2
 637 0025 04000000 		.4byte	.LVL3
 638 0029 0100     		.2byte	0x1
 639 002b 50       		.byte	0x50
 640 002c 04000000 		.4byte	.LVL3
 641 0030 1C000000 		.4byte	.LFE1
 642 0034 0400     		.2byte	0x4
 643 0036 F3       		.byte	0xf3
 644 0037 01       		.uleb128 0x1
 645 0038 50       		.byte	0x50
 646 0039 9F       		.byte	0x9f
 647 003a 00000000 		.4byte	0
 648 003e 00000000 		.4byte	0
 649              	.LLST2:
 650 0042 00000000 		.4byte	.LVL4
 651 0046 08000000 		.4byte	.LVL7
 652 004a 0100     		.2byte	0x1
 653 004c 50       		.byte	0x50
 654 004d 08000000 		.4byte	.LVL7
 655 0051 14000000 		.4byte	.LFE4
 656 0055 0400     		.2byte	0x4
 657 0057 F3       		.byte	0xf3
 658 0058 01       		.uleb128 0x1
 659 0059 50       		.byte	0x50
 660 005a 9F       		.byte	0x9f
 661 005b 00000000 		.4byte	0
ARM GAS  C:\Users\diego\AppData\Local\Temp\cco4NGgV.s 			page 17


 662 005f 00000000 		.4byte	0
 663              	.LLST3:
 664 0063 04000000 		.4byte	.LVL5
 665 0067 06000000 		.4byte	.LVL6
 666 006b 0B00     		.2byte	0xb
 667 006d 70       		.byte	0x70
 668 006e 00       		.sleb128 0
 669 006f 0A       		.byte	0xa
 670 0070 FFFF     		.2byte	0xffff
 671 0072 1A       		.byte	0x1a
 672 0073 20       		.byte	0x20
 673 0074 73       		.byte	0x73
 674 0075 00       		.sleb128 0
 675 0076 1A       		.byte	0x1a
 676 0077 9F       		.byte	0x9f
 677 0078 00000000 		.4byte	0
 678 007c 00000000 		.4byte	0
 679              	.LLST4:
 680 0080 08000000 		.4byte	.LVL8
 681 0084 0C000000 		.4byte	.LVL9
 682 0088 0100     		.2byte	0x1
 683 008a 50       		.byte	0x50
 684 008b 0C000000 		.4byte	.LVL9
 685 008f 14000000 		.4byte	.LFE5
 686 0093 0400     		.2byte	0x4
 687 0095 72       		.byte	0x72
 688 0096 00       		.sleb128 0
 689 0097 06       		.byte	0x6
 690 0098 9F       		.byte	0x9f
 691 0099 00000000 		.4byte	0
 692 009d 00000000 		.4byte	0
 693              		.section	.debug_aranges,"",%progbits
 694 0000 44000000 		.4byte	0x44
 695 0004 0200     		.2byte	0x2
 696 0006 00000000 		.4byte	.Ldebug_info0
 697 000a 04       		.byte	0x4
 698 000b 00       		.byte	0
 699 000c 0000     		.2byte	0
 700 000e 0000     		.2byte	0
 701 0010 00000000 		.4byte	.LFB0
 702 0014 18000000 		.4byte	.LFE0-.LFB0
 703 0018 00000000 		.4byte	.LFB1
 704 001c 1C000000 		.4byte	.LFE1-.LFB1
 705 0020 00000000 		.4byte	.LFB2
 706 0024 10000000 		.4byte	.LFE2-.LFB2
 707 0028 00000000 		.4byte	.LFB3
 708 002c 10000000 		.4byte	.LFE3-.LFB3
 709 0030 00000000 		.4byte	.LFB4
 710 0034 14000000 		.4byte	.LFE4-.LFB4
 711 0038 00000000 		.4byte	.LFB5
 712 003c 14000000 		.4byte	.LFE5-.LFB5
 713 0040 00000000 		.4byte	0
 714 0044 00000000 		.4byte	0
 715              		.section	.debug_ranges,"",%progbits
 716              	.Ldebug_ranges0:
 717 0000 00000000 		.4byte	.LFB0
 718 0004 18000000 		.4byte	.LFE0
ARM GAS  C:\Users\diego\AppData\Local\Temp\cco4NGgV.s 			page 18


 719 0008 00000000 		.4byte	.LFB1
 720 000c 1C000000 		.4byte	.LFE1
 721 0010 00000000 		.4byte	.LFB2
 722 0014 10000000 		.4byte	.LFE2
 723 0018 00000000 		.4byte	.LFB3
 724 001c 10000000 		.4byte	.LFE3
 725 0020 00000000 		.4byte	.LFB4
 726 0024 14000000 		.4byte	.LFE4
 727 0028 00000000 		.4byte	.LFB5
 728 002c 14000000 		.4byte	.LFE5
 729 0030 00000000 		.4byte	0
 730 0034 00000000 		.4byte	0
 731              		.section	.debug_line,"",%progbits
 732              	.Ldebug_line0:
 733 0000 CA000000 		.section	.debug_str,"MS",%progbits,1
 733      02004700 
 733      00000201 
 733      FB0E0D00 
 733      01010101 
 734              	.LASF15:
 735 0000 72656733 		.ascii	"reg32\000"
 735      3200
 736              	.LASF19:
 737 0006 76616C75 		.ascii	"value\000"
 737      6500
 738              	.LASF29:
 739 000c 453A5C50 		.ascii	"E:\\Progetti\\Cypress\\Test\\BLE_Sensor\\Beacom_bri"
 739      726F6765 
 739      7474695C 
 739      43797072 
 739      6573735C 
 740 003a 636B2E63 		.ascii	"ck.cydsn\000"
 740      7964736E 
 740      00
 741              	.LASF24:
 742 0043 7370695F 		.ascii	"spi_mosi_m_ClearInterrupt\000"
 742      6D6F7369 
 742      5F6D5F43 
 742      6C656172 
 742      496E7465 
 743              	.LASF12:
 744 005d 666C6F61 		.ascii	"float\000"
 744      7400
 745              	.LASF1:
 746 0063 756E7369 		.ascii	"unsigned char\000"
 746      676E6564 
 746      20636861 
 746      7200
 747              	.LASF30:
 748 0071 64725661 		.ascii	"drVal\000"
 748      6C00
 749              	.LASF28:
 750 0077 47656E65 		.ascii	"Generated_Source\\PSoC4\\spi_mosi_m.c\000"
 750      72617465 
 750      645F536F 
 750      75726365 
 750      5C50536F 
ARM GAS  C:\Users\diego\AppData\Local\Temp\cco4NGgV.s 			page 19


 751              	.LASF5:
 752 009b 6C6F6E67 		.ascii	"long unsigned int\000"
 752      20756E73 
 752      69676E65 
 752      6420696E 
 752      7400
 753              	.LASF3:
 754 00ad 73686F72 		.ascii	"short unsigned int\000"
 754      7420756E 
 754      7369676E 
 754      65642069 
 754      6E7400
 755              	.LASF20:
 756 00c0 7370695F 		.ascii	"spi_mosi_m_Read\000"
 756      6D6F7369 
 756      5F6D5F52 
 756      65616400 
 757              	.LASF27:
 758 00d0 474E5520 		.ascii	"GNU C11 5.4.1 20160609 (release) [ARM/embedded-5-br"
 758      43313120 
 758      352E342E 
 758      31203230 
 758      31363036 
 759 0103 616E6368 		.ascii	"anch revision 237715] -mcpu=cortex-m0 -mthumb -g -O"
 759      20726576 
 759      6973696F 
 759      6E203233 
 759      37373135 
 760 0136 33202D66 		.ascii	"3 -ffunction-sections -ffat-lto-objects\000"
 760      66756E63 
 760      74696F6E 
 760      2D736563 
 760      74696F6E 
 761              	.LASF13:
 762 015e 646F7562 		.ascii	"double\000"
 762      6C6500
 763              	.LASF10:
 764 0165 75696E74 		.ascii	"uint16\000"
 764      313600
 765              	.LASF21:
 766 016c 7370695F 		.ascii	"spi_mosi_m_ReadDataReg\000"
 766      6D6F7369 
 766      5F6D5F52 
 766      65616444 
 766      61746152 
 767              	.LASF11:
 768 0183 75696E74 		.ascii	"uint32\000"
 768      333200
 769              	.LASF25:
 770 018a 696E7472 		.ascii	"intrCfg\000"
 770      43666700 
 771              	.LASF8:
 772 0192 756E7369 		.ascii	"unsigned int\000"
 772      676E6564 
 772      20696E74 
 772      00
 773              	.LASF7:
ARM GAS  C:\Users\diego\AppData\Local\Temp\cco4NGgV.s 			page 20


 774 019f 6C6F6E67 		.ascii	"long long unsigned int\000"
 774      206C6F6E 
 774      6720756E 
 774      7369676E 
 774      65642069 
 775              	.LASF18:
 776 01b6 6D6F6465 		.ascii	"mode\000"
 776      00
 777              	.LASF22:
 778 01bb 7370695F 		.ascii	"spi_mosi_m_SetInterruptMode\000"
 778      6D6F7369 
 778      5F6D5F53 
 778      6574496E 
 778      74657272 
 779              	.LASF6:
 780 01d7 6C6F6E67 		.ascii	"long long int\000"
 780      206C6F6E 
 780      6720696E 
 780      7400
 781              	.LASF26:
 782 01e5 6D61736B 		.ascii	"maskedStatus\000"
 782      65645374 
 782      61747573 
 782      00
 783              	.LASF14:
 784 01f2 63686172 		.ascii	"char\000"
 784      00
 785              	.LASF2:
 786 01f7 73686F72 		.ascii	"short int\000"
 786      7420696E 
 786      7400
 787              	.LASF9:
 788 0201 75696E74 		.ascii	"uint8\000"
 788      3800
 789              	.LASF23:
 790 0207 706F7369 		.ascii	"position\000"
 790      74696F6E 
 790      00
 791              	.LASF16:
 792 0210 7370695F 		.ascii	"spi_mosi_m_SetDriveMode\000"
 792      6D6F7369 
 792      5F6D5F53 
 792      65744472 
 792      6976654D 
 793              	.LASF4:
 794 0228 6C6F6E67 		.ascii	"long int\000"
 794      20696E74 
 794      00
 795              	.LASF17:
 796 0231 7370695F 		.ascii	"spi_mosi_m_Write\000"
 796      6D6F7369 
 796      5F6D5F57 
 796      72697465 
 796      00
 797              	.LASF0:
 798 0242 7369676E 		.ascii	"signed char\000"
 798      65642063 
ARM GAS  C:\Users\diego\AppData\Local\Temp\cco4NGgV.s 			page 21


 798      68617200 
 799              		.ident	"GCC: (GNU Tools for ARM Embedded Processors) 5.4.1 20160609 (release) [ARM/embedded-5-bran
