ARM GAS  C:\Users\diego\AppData\Local\Temp\ccw6UJfX.s 			page 1


   1              		.syntax unified
   2              		.cpu cortex-m0
   3              		.fpu softvfp
   4              		.eabi_attribute 20, 1
   5              		.eabi_attribute 21, 1
   6              		.eabi_attribute 23, 3
   7              		.eabi_attribute 24, 1
   8              		.eabi_attribute 25, 1
   9              		.eabi_attribute 26, 1
  10              		.eabi_attribute 30, 2
  11              		.eabi_attribute 34, 0
  12              		.eabi_attribute 18, 4
  13              		.thumb
  14              		.syntax unified
  15              		.file	"VLow.c"
  16              		.text
  17              	.Ltext0:
  18              		.cfi_sections	.debug_frame
  19              		.section	.text.VLow_SetDriveMode,"ax",%progbits
  20              		.align	2
  21              		.global	VLow_SetDriveMode
  22              		.code	16
  23              		.thumb_func
  24              		.type	VLow_SetDriveMode, %function
  25              	VLow_SetDriveMode:
  26              	.LFB0:
  27              		.file 1 "Generated_Source\\PSoC4\\VLow.c"
   1:Generated_Source\PSoC4/VLow.c **** /*******************************************************************************
   2:Generated_Source\PSoC4/VLow.c **** * File Name: VLow.c  
   3:Generated_Source\PSoC4/VLow.c **** * Version 2.20
   4:Generated_Source\PSoC4/VLow.c **** *
   5:Generated_Source\PSoC4/VLow.c **** * Description:
   6:Generated_Source\PSoC4/VLow.c **** *  This file contains API to enable firmware control of a Pins component.
   7:Generated_Source\PSoC4/VLow.c **** *
   8:Generated_Source\PSoC4/VLow.c **** ********************************************************************************
   9:Generated_Source\PSoC4/VLow.c **** * Copyright 2008-2015, Cypress Semiconductor Corporation.  All rights reserved.
  10:Generated_Source\PSoC4/VLow.c **** * You may use this file only in accordance with the license, terms, conditions, 
  11:Generated_Source\PSoC4/VLow.c **** * disclaimers, and limitations in the end user license agreement accompanying 
  12:Generated_Source\PSoC4/VLow.c **** * the software package with which this file was provided.
  13:Generated_Source\PSoC4/VLow.c **** *******************************************************************************/
  14:Generated_Source\PSoC4/VLow.c **** 
  15:Generated_Source\PSoC4/VLow.c **** #include "cytypes.h"
  16:Generated_Source\PSoC4/VLow.c **** #include "VLow.h"
  17:Generated_Source\PSoC4/VLow.c **** 
  18:Generated_Source\PSoC4/VLow.c **** 
  19:Generated_Source\PSoC4/VLow.c **** #if defined(VLow__PC)
  20:Generated_Source\PSoC4/VLow.c ****     #define VLow_SetP4PinDriveMode(shift, mode)  \
  21:Generated_Source\PSoC4/VLow.c ****     do { \
  22:Generated_Source\PSoC4/VLow.c ****         VLow_PC =   (VLow_PC & \
  23:Generated_Source\PSoC4/VLow.c ****                                 (uint32)(~(uint32)(VLow_DRIVE_MODE_IND_MASK << \
  24:Generated_Source\PSoC4/VLow.c ****                                 (VLow_DRIVE_MODE_BITS * (shift))))) | \
  25:Generated_Source\PSoC4/VLow.c ****                                 (uint32)((uint32)(mode) << \
  26:Generated_Source\PSoC4/VLow.c ****                                 (VLow_DRIVE_MODE_BITS * (shift))); \
  27:Generated_Source\PSoC4/VLow.c ****     } while (0)
  28:Generated_Source\PSoC4/VLow.c **** #else
  29:Generated_Source\PSoC4/VLow.c ****     #if (CY_PSOC4_4200L)
  30:Generated_Source\PSoC4/VLow.c ****         #define VLow_SetP4PinDriveMode(shift, mode)  \
ARM GAS  C:\Users\diego\AppData\Local\Temp\ccw6UJfX.s 			page 2


  31:Generated_Source\PSoC4/VLow.c ****         do { \
  32:Generated_Source\PSoC4/VLow.c ****             VLow_USBIO_CTRL_REG = (VLow_USBIO_CTRL_REG & \
  33:Generated_Source\PSoC4/VLow.c ****                                     (uint32)(~(uint32)(VLow_DRIVE_MODE_IND_MASK << \
  34:Generated_Source\PSoC4/VLow.c ****                                     (VLow_DRIVE_MODE_BITS * (shift))))) | \
  35:Generated_Source\PSoC4/VLow.c ****                                     (uint32)((uint32)(mode) << \
  36:Generated_Source\PSoC4/VLow.c ****                                     (VLow_DRIVE_MODE_BITS * (shift))); \
  37:Generated_Source\PSoC4/VLow.c ****         } while (0)
  38:Generated_Source\PSoC4/VLow.c ****     #endif
  39:Generated_Source\PSoC4/VLow.c **** #endif
  40:Generated_Source\PSoC4/VLow.c ****   
  41:Generated_Source\PSoC4/VLow.c **** 
  42:Generated_Source\PSoC4/VLow.c **** #if defined(VLow__PC) || (CY_PSOC4_4200L) 
  43:Generated_Source\PSoC4/VLow.c ****     /*******************************************************************************
  44:Generated_Source\PSoC4/VLow.c ****     * Function Name: VLow_SetDriveMode
  45:Generated_Source\PSoC4/VLow.c ****     ****************************************************************************//**
  46:Generated_Source\PSoC4/VLow.c ****     *
  47:Generated_Source\PSoC4/VLow.c ****     * \brief Sets the drive mode for each of the Pins component's pins.
  48:Generated_Source\PSoC4/VLow.c ****     * 
  49:Generated_Source\PSoC4/VLow.c ****     * <b>Note</b> This affects all pins in the Pins component instance. Use the
  50:Generated_Source\PSoC4/VLow.c ****     * Per-Pin APIs if you wish to control individual pin's drive modes.
  51:Generated_Source\PSoC4/VLow.c ****     *
  52:Generated_Source\PSoC4/VLow.c ****     * <b>Note</b> USBIOs have limited drive functionality. Refer to the Drive Mode
  53:Generated_Source\PSoC4/VLow.c ****     * parameter for more information.
  54:Generated_Source\PSoC4/VLow.c ****     *
  55:Generated_Source\PSoC4/VLow.c ****     * \param mode
  56:Generated_Source\PSoC4/VLow.c ****     *  Mode for the selected signals. Valid options are documented in 
  57:Generated_Source\PSoC4/VLow.c ****     *  \ref driveMode.
  58:Generated_Source\PSoC4/VLow.c ****     *
  59:Generated_Source\PSoC4/VLow.c ****     * \return
  60:Generated_Source\PSoC4/VLow.c ****     *  None
  61:Generated_Source\PSoC4/VLow.c ****     *
  62:Generated_Source\PSoC4/VLow.c ****     * \sideeffect
  63:Generated_Source\PSoC4/VLow.c ****     *  If you use read-modify-write operations that are not atomic, the ISR can
  64:Generated_Source\PSoC4/VLow.c ****     *  cause corruption of this function. An ISR that interrupts this function 
  65:Generated_Source\PSoC4/VLow.c ****     *  and performs writes to the Pins component Drive Mode registers can cause 
  66:Generated_Source\PSoC4/VLow.c ****     *  corrupted port data. To avoid this issue, you should either use the Per-Pin
  67:Generated_Source\PSoC4/VLow.c ****     *  APIs (primary method) or disable interrupts around this function.
  68:Generated_Source\PSoC4/VLow.c ****     *
  69:Generated_Source\PSoC4/VLow.c ****     * \funcusage
  70:Generated_Source\PSoC4/VLow.c ****     *  \snippet VLow_SUT.c usage_VLow_SetDriveMode
  71:Generated_Source\PSoC4/VLow.c ****     *******************************************************************************/
  72:Generated_Source\PSoC4/VLow.c ****     void VLow_SetDriveMode(uint8 mode)
  73:Generated_Source\PSoC4/VLow.c ****     {
  28              		.loc 1 73 0
  29              		.cfi_startproc
  30              		@ args = 0, pretend = 0, frame = 0
  31              		@ frame_needed = 0, uses_anonymous_args = 0
  32              		@ link register save eliminated.
  33              	.LVL0:
  74:Generated_Source\PSoC4/VLow.c **** 		VLow_SetP4PinDriveMode(VLow__0__SHIFT, mode);
  34              		.loc 1 74 0
  35 0000 034A     		ldr	r2, .L2
  36 0002 044B     		ldr	r3, .L2+4
  37 0004 1168     		ldr	r1, [r2]
  38 0006 4005     		lsls	r0, r0, #21
  39              	.LVL1:
  40 0008 0B40     		ands	r3, r1
ARM GAS  C:\Users\diego\AppData\Local\Temp\ccw6UJfX.s 			page 3


  41 000a 1843     		orrs	r0, r3
  42 000c 1060     		str	r0, [r2]
  75:Generated_Source\PSoC4/VLow.c ****     }
  43              		.loc 1 75 0
  44              		@ sp needed
  45 000e 7047     		bx	lr
  46              	.L3:
  47              		.align	2
  48              	.L2:
  49 0010 08030440 		.word	1074004744
  50 0014 FFFF1FFF 		.word	-14680065
  51              		.cfi_endproc
  52              	.LFE0:
  53              		.size	VLow_SetDriveMode, .-VLow_SetDriveMode
  54              		.section	.text.VLow_Write,"ax",%progbits
  55              		.align	2
  56              		.global	VLow_Write
  57              		.code	16
  58              		.thumb_func
  59              		.type	VLow_Write, %function
  60              	VLow_Write:
  61              	.LFB1:
  76:Generated_Source\PSoC4/VLow.c **** #endif
  77:Generated_Source\PSoC4/VLow.c **** 
  78:Generated_Source\PSoC4/VLow.c **** 
  79:Generated_Source\PSoC4/VLow.c **** /*******************************************************************************
  80:Generated_Source\PSoC4/VLow.c **** * Function Name: VLow_Write
  81:Generated_Source\PSoC4/VLow.c **** ****************************************************************************//**
  82:Generated_Source\PSoC4/VLow.c **** *
  83:Generated_Source\PSoC4/VLow.c **** * \brief Writes the value to the physical port (data output register), masking
  84:Generated_Source\PSoC4/VLow.c **** *  and shifting the bits appropriately. 
  85:Generated_Source\PSoC4/VLow.c **** *
  86:Generated_Source\PSoC4/VLow.c **** * The data output register controls the signal applied to the physical pin in 
  87:Generated_Source\PSoC4/VLow.c **** * conjunction with the drive mode parameter. This function avoids changing 
  88:Generated_Source\PSoC4/VLow.c **** * other bits in the port by using the appropriate method (read-modify-write or
  89:Generated_Source\PSoC4/VLow.c **** * bit banding).
  90:Generated_Source\PSoC4/VLow.c **** *
  91:Generated_Source\PSoC4/VLow.c **** * <b>Note</b> This function should not be used on a hardware digital output pin 
  92:Generated_Source\PSoC4/VLow.c **** * as it is driven by the hardware signal attached to it.
  93:Generated_Source\PSoC4/VLow.c **** *
  94:Generated_Source\PSoC4/VLow.c **** * \param value
  95:Generated_Source\PSoC4/VLow.c **** *  Value to write to the component instance.
  96:Generated_Source\PSoC4/VLow.c **** *
  97:Generated_Source\PSoC4/VLow.c **** * \return 
  98:Generated_Source\PSoC4/VLow.c **** *  None 
  99:Generated_Source\PSoC4/VLow.c **** *
 100:Generated_Source\PSoC4/VLow.c **** * \sideeffect
 101:Generated_Source\PSoC4/VLow.c **** *  If you use read-modify-write operations that are not atomic; the Interrupt 
 102:Generated_Source\PSoC4/VLow.c **** *  Service Routines (ISR) can cause corruption of this function. An ISR that 
 103:Generated_Source\PSoC4/VLow.c **** *  interrupts this function and performs writes to the Pins component data 
 104:Generated_Source\PSoC4/VLow.c **** *  register can cause corrupted port data. To avoid this issue, you should 
 105:Generated_Source\PSoC4/VLow.c **** *  either use the Per-Pin APIs (primary method) or disable interrupts around 
 106:Generated_Source\PSoC4/VLow.c **** *  this function.
 107:Generated_Source\PSoC4/VLow.c **** *
 108:Generated_Source\PSoC4/VLow.c **** * \funcusage
 109:Generated_Source\PSoC4/VLow.c **** *  \snippet VLow_SUT.c usage_VLow_Write
 110:Generated_Source\PSoC4/VLow.c **** *******************************************************************************/
ARM GAS  C:\Users\diego\AppData\Local\Temp\ccw6UJfX.s 			page 4


 111:Generated_Source\PSoC4/VLow.c **** void VLow_Write(uint8 value)
 112:Generated_Source\PSoC4/VLow.c **** {
  62              		.loc 1 112 0
  63              		.cfi_startproc
  64              		@ args = 0, pretend = 0, frame = 0
  65              		@ frame_needed = 0, uses_anonymous_args = 0
  66              		@ link register save eliminated.
  67              	.LVL2:
 113:Generated_Source\PSoC4/VLow.c ****     uint8 drVal = (uint8)(VLow_DR & (uint8)(~VLow_MASK));
  68              		.loc 1 113 0
  69 0000 7F21     		movs	r1, #127
  70 0002 044A     		ldr	r2, .L5
 114:Generated_Source\PSoC4/VLow.c ****     drVal = (drVal | ((uint8)(value << VLow_SHIFT) & VLow_MASK));
 115:Generated_Source\PSoC4/VLow.c ****     VLow_DR = (uint32)drVal;
  71              		.loc 1 115 0
  72 0004 C001     		lsls	r0, r0, #7
  73              	.LVL3:
 113:Generated_Source\PSoC4/VLow.c ****     uint8 drVal = (uint8)(VLow_DR & (uint8)(~VLow_MASK));
  74              		.loc 1 113 0
  75 0006 1368     		ldr	r3, [r2]
 116:Generated_Source\PSoC4/VLow.c **** }
  76              		.loc 1 116 0
  77              		@ sp needed
 113:Generated_Source\PSoC4/VLow.c ****     uint8 drVal = (uint8)(VLow_DR & (uint8)(~VLow_MASK));
  78              		.loc 1 113 0
  79 0008 0B40     		ands	r3, r1
 115:Generated_Source\PSoC4/VLow.c **** }
  80              		.loc 1 115 0
  81 000a 1843     		orrs	r0, r3
  82 000c C0B2     		uxtb	r0, r0
  83 000e 1060     		str	r0, [r2]
  84              		.loc 1 116 0
  85 0010 7047     		bx	lr
  86              	.L6:
  87 0012 C046     		.align	2
  88              	.L5:
  89 0014 00030440 		.word	1074004736
  90              		.cfi_endproc
  91              	.LFE1:
  92              		.size	VLow_Write, .-VLow_Write
  93              		.section	.text.VLow_Read,"ax",%progbits
  94              		.align	2
  95              		.global	VLow_Read
  96              		.code	16
  97              		.thumb_func
  98              		.type	VLow_Read, %function
  99              	VLow_Read:
 100              	.LFB2:
 117:Generated_Source\PSoC4/VLow.c **** 
 118:Generated_Source\PSoC4/VLow.c **** 
 119:Generated_Source\PSoC4/VLow.c **** /*******************************************************************************
 120:Generated_Source\PSoC4/VLow.c **** * Function Name: VLow_Read
 121:Generated_Source\PSoC4/VLow.c **** ****************************************************************************//**
 122:Generated_Source\PSoC4/VLow.c **** *
 123:Generated_Source\PSoC4/VLow.c **** * \brief Reads the associated physical port (pin status register) and masks 
 124:Generated_Source\PSoC4/VLow.c **** *  the required bits according to the width and bit position of the component
 125:Generated_Source\PSoC4/VLow.c **** *  instance. 
ARM GAS  C:\Users\diego\AppData\Local\Temp\ccw6UJfX.s 			page 5


 126:Generated_Source\PSoC4/VLow.c **** *
 127:Generated_Source\PSoC4/VLow.c **** * The pin's status register returns the current logic level present on the 
 128:Generated_Source\PSoC4/VLow.c **** * physical pin.
 129:Generated_Source\PSoC4/VLow.c **** *
 130:Generated_Source\PSoC4/VLow.c **** * \return 
 131:Generated_Source\PSoC4/VLow.c **** *  The current value for the pins in the component as a right justified number.
 132:Generated_Source\PSoC4/VLow.c **** *
 133:Generated_Source\PSoC4/VLow.c **** * \funcusage
 134:Generated_Source\PSoC4/VLow.c **** *  \snippet VLow_SUT.c usage_VLow_Read  
 135:Generated_Source\PSoC4/VLow.c **** *******************************************************************************/
 136:Generated_Source\PSoC4/VLow.c **** uint8 VLow_Read(void)
 137:Generated_Source\PSoC4/VLow.c **** {
 101              		.loc 1 137 0
 102              		.cfi_startproc
 103              		@ args = 0, pretend = 0, frame = 0
 104              		@ frame_needed = 0, uses_anonymous_args = 0
 105              		@ link register save eliminated.
 138:Generated_Source\PSoC4/VLow.c ****     return (uint8)((VLow_PS & VLow_MASK) >> VLow_SHIFT);
 106              		.loc 1 138 0
 107 0000 024B     		ldr	r3, .L8
 139:Generated_Source\PSoC4/VLow.c **** }
 108              		.loc 1 139 0
 109              		@ sp needed
 138:Generated_Source\PSoC4/VLow.c ****     return (uint8)((VLow_PS & VLow_MASK) >> VLow_SHIFT);
 110              		.loc 1 138 0
 111 0002 1868     		ldr	r0, [r3]
 112 0004 0006     		lsls	r0, r0, #24
 113 0006 C00F     		lsrs	r0, r0, #31
 114              		.loc 1 139 0
 115 0008 7047     		bx	lr
 116              	.L9:
 117 000a C046     		.align	2
 118              	.L8:
 119 000c 04030440 		.word	1074004740
 120              		.cfi_endproc
 121              	.LFE2:
 122              		.size	VLow_Read, .-VLow_Read
 123              		.section	.text.VLow_ReadDataReg,"ax",%progbits
 124              		.align	2
 125              		.global	VLow_ReadDataReg
 126              		.code	16
 127              		.thumb_func
 128              		.type	VLow_ReadDataReg, %function
 129              	VLow_ReadDataReg:
 130              	.LFB3:
 140:Generated_Source\PSoC4/VLow.c **** 
 141:Generated_Source\PSoC4/VLow.c **** 
 142:Generated_Source\PSoC4/VLow.c **** /*******************************************************************************
 143:Generated_Source\PSoC4/VLow.c **** * Function Name: VLow_ReadDataReg
 144:Generated_Source\PSoC4/VLow.c **** ****************************************************************************//**
 145:Generated_Source\PSoC4/VLow.c **** *
 146:Generated_Source\PSoC4/VLow.c **** * \brief Reads the associated physical port's data output register and masks 
 147:Generated_Source\PSoC4/VLow.c **** *  the correct bits according to the width and bit position of the component 
 148:Generated_Source\PSoC4/VLow.c **** *  instance. 
 149:Generated_Source\PSoC4/VLow.c **** *
 150:Generated_Source\PSoC4/VLow.c **** * The data output register controls the signal applied to the physical pin in 
 151:Generated_Source\PSoC4/VLow.c **** * conjunction with the drive mode parameter. This is not the same as the 
ARM GAS  C:\Users\diego\AppData\Local\Temp\ccw6UJfX.s 			page 6


 152:Generated_Source\PSoC4/VLow.c **** * preferred VLow_Read() API because the 
 153:Generated_Source\PSoC4/VLow.c **** * VLow_ReadDataReg() reads the data register instead of the status 
 154:Generated_Source\PSoC4/VLow.c **** * register. For output pins this is a useful function to determine the value 
 155:Generated_Source\PSoC4/VLow.c **** * just written to the pin.
 156:Generated_Source\PSoC4/VLow.c **** *
 157:Generated_Source\PSoC4/VLow.c **** * \return 
 158:Generated_Source\PSoC4/VLow.c **** *  The current value of the data register masked and shifted into a right 
 159:Generated_Source\PSoC4/VLow.c **** *  justified number for the component instance.
 160:Generated_Source\PSoC4/VLow.c **** *
 161:Generated_Source\PSoC4/VLow.c **** * \funcusage
 162:Generated_Source\PSoC4/VLow.c **** *  \snippet VLow_SUT.c usage_VLow_ReadDataReg 
 163:Generated_Source\PSoC4/VLow.c **** *******************************************************************************/
 164:Generated_Source\PSoC4/VLow.c **** uint8 VLow_ReadDataReg(void)
 165:Generated_Source\PSoC4/VLow.c **** {
 131              		.loc 1 165 0
 132              		.cfi_startproc
 133              		@ args = 0, pretend = 0, frame = 0
 134              		@ frame_needed = 0, uses_anonymous_args = 0
 135              		@ link register save eliminated.
 166:Generated_Source\PSoC4/VLow.c ****     return (uint8)((VLow_DR & VLow_MASK) >> VLow_SHIFT);
 136              		.loc 1 166 0
 137 0000 024B     		ldr	r3, .L11
 167:Generated_Source\PSoC4/VLow.c **** }
 138              		.loc 1 167 0
 139              		@ sp needed
 166:Generated_Source\PSoC4/VLow.c ****     return (uint8)((VLow_DR & VLow_MASK) >> VLow_SHIFT);
 140              		.loc 1 166 0
 141 0002 1868     		ldr	r0, [r3]
 142 0004 0006     		lsls	r0, r0, #24
 143 0006 C00F     		lsrs	r0, r0, #31
 144              		.loc 1 167 0
 145 0008 7047     		bx	lr
 146              	.L12:
 147 000a C046     		.align	2
 148              	.L11:
 149 000c 00030440 		.word	1074004736
 150              		.cfi_endproc
 151              	.LFE3:
 152              		.size	VLow_ReadDataReg, .-VLow_ReadDataReg
 153              		.section	.text.VLow_SetInterruptMode,"ax",%progbits
 154              		.align	2
 155              		.global	VLow_SetInterruptMode
 156              		.code	16
 157              		.thumb_func
 158              		.type	VLow_SetInterruptMode, %function
 159              	VLow_SetInterruptMode:
 160              	.LFB4:
 168:Generated_Source\PSoC4/VLow.c **** 
 169:Generated_Source\PSoC4/VLow.c **** 
 170:Generated_Source\PSoC4/VLow.c **** /*******************************************************************************
 171:Generated_Source\PSoC4/VLow.c **** * Function Name: VLow_SetInterruptMode
 172:Generated_Source\PSoC4/VLow.c **** ****************************************************************************//**
 173:Generated_Source\PSoC4/VLow.c **** *
 174:Generated_Source\PSoC4/VLow.c **** * \brief Configures the interrupt mode for each of the Pins component's
 175:Generated_Source\PSoC4/VLow.c **** *  pins. Alternatively you may set the interrupt mode for all the pins
 176:Generated_Source\PSoC4/VLow.c **** *  specified in the Pins component.
 177:Generated_Source\PSoC4/VLow.c **** *
ARM GAS  C:\Users\diego\AppData\Local\Temp\ccw6UJfX.s 			page 7


 178:Generated_Source\PSoC4/VLow.c **** *  <b>Note</b> The interrupt is port-wide and therefore any enabled pin
 179:Generated_Source\PSoC4/VLow.c **** *  interrupt may trigger it.
 180:Generated_Source\PSoC4/VLow.c **** *
 181:Generated_Source\PSoC4/VLow.c **** * \param position
 182:Generated_Source\PSoC4/VLow.c **** *  The pin position as listed in the Pins component. You may OR these to be 
 183:Generated_Source\PSoC4/VLow.c **** *  able to configure the interrupt mode of multiple pins within a Pins 
 184:Generated_Source\PSoC4/VLow.c **** *  component. Or you may use VLow_INTR_ALL to configure the
 185:Generated_Source\PSoC4/VLow.c **** *  interrupt mode of all the pins in the Pins component.       
 186:Generated_Source\PSoC4/VLow.c **** *  - VLow_0_INTR       (First pin in the list)
 187:Generated_Source\PSoC4/VLow.c **** *  - VLow_1_INTR       (Second pin in the list)
 188:Generated_Source\PSoC4/VLow.c **** *  - ...
 189:Generated_Source\PSoC4/VLow.c **** *  - VLow_INTR_ALL     (All pins in Pins component)
 190:Generated_Source\PSoC4/VLow.c **** *
 191:Generated_Source\PSoC4/VLow.c **** * \param mode
 192:Generated_Source\PSoC4/VLow.c **** *  Interrupt mode for the selected pins. Valid options are documented in
 193:Generated_Source\PSoC4/VLow.c **** *  \ref intrMode.
 194:Generated_Source\PSoC4/VLow.c **** *
 195:Generated_Source\PSoC4/VLow.c **** * \return 
 196:Generated_Source\PSoC4/VLow.c **** *  None
 197:Generated_Source\PSoC4/VLow.c **** *  
 198:Generated_Source\PSoC4/VLow.c **** * \sideeffect
 199:Generated_Source\PSoC4/VLow.c **** *  It is recommended that the interrupt be disabled before calling this 
 200:Generated_Source\PSoC4/VLow.c **** *  function to avoid unintended interrupt requests. Note that the interrupt
 201:Generated_Source\PSoC4/VLow.c **** *  type is port wide, and therefore will trigger for any enabled pin on the 
 202:Generated_Source\PSoC4/VLow.c **** *  port.
 203:Generated_Source\PSoC4/VLow.c **** *
 204:Generated_Source\PSoC4/VLow.c **** * \funcusage
 205:Generated_Source\PSoC4/VLow.c **** *  \snippet VLow_SUT.c usage_VLow_SetInterruptMode
 206:Generated_Source\PSoC4/VLow.c **** *******************************************************************************/
 207:Generated_Source\PSoC4/VLow.c **** void VLow_SetInterruptMode(uint16 position, uint16 mode)
 208:Generated_Source\PSoC4/VLow.c **** {
 161              		.loc 1 208 0
 162              		.cfi_startproc
 163              		@ args = 0, pretend = 0, frame = 0
 164              		@ frame_needed = 0, uses_anonymous_args = 0
 165              		@ link register save eliminated.
 166              	.LVL4:
 209:Generated_Source\PSoC4/VLow.c ****     uint32 intrCfg;
 210:Generated_Source\PSoC4/VLow.c ****     
 211:Generated_Source\PSoC4/VLow.c ****     intrCfg =  VLow_INTCFG & (uint32)(~(uint32)position);
 167              		.loc 1 211 0
 168 0000 034A     		ldr	r2, .L14
 212:Generated_Source\PSoC4/VLow.c ****     VLow_INTCFG = intrCfg | ((uint32)position & (uint32)mode);
 213:Generated_Source\PSoC4/VLow.c **** }
 169              		.loc 1 213 0
 170              		@ sp needed
 211:Generated_Source\PSoC4/VLow.c ****     VLow_INTCFG = intrCfg | ((uint32)position & (uint32)mode);
 171              		.loc 1 211 0
 172 0002 1368     		ldr	r3, [r2]
 173              	.LVL5:
 212:Generated_Source\PSoC4/VLow.c ****     VLow_INTCFG = intrCfg | ((uint32)position & (uint32)mode);
 174              		.loc 1 212 0
 175 0004 8343     		bics	r3, r0
 176              	.LVL6:
 177 0006 0840     		ands	r0, r1
 178              	.LVL7:
 179 0008 1843     		orrs	r0, r3
ARM GAS  C:\Users\diego\AppData\Local\Temp\ccw6UJfX.s 			page 8


 180 000a 1060     		str	r0, [r2]
 181              		.loc 1 213 0
 182 000c 7047     		bx	lr
 183              	.L15:
 184 000e C046     		.align	2
 185              	.L14:
 186 0010 0C030440 		.word	1074004748
 187              		.cfi_endproc
 188              	.LFE4:
 189              		.size	VLow_SetInterruptMode, .-VLow_SetInterruptMode
 190              		.section	.text.VLow_ClearInterrupt,"ax",%progbits
 191              		.align	2
 192              		.global	VLow_ClearInterrupt
 193              		.code	16
 194              		.thumb_func
 195              		.type	VLow_ClearInterrupt, %function
 196              	VLow_ClearInterrupt:
 197              	.LFB5:
 214:Generated_Source\PSoC4/VLow.c **** 
 215:Generated_Source\PSoC4/VLow.c **** 
 216:Generated_Source\PSoC4/VLow.c **** /*******************************************************************************
 217:Generated_Source\PSoC4/VLow.c **** * Function Name: VLow_ClearInterrupt
 218:Generated_Source\PSoC4/VLow.c **** ****************************************************************************//**
 219:Generated_Source\PSoC4/VLow.c **** *
 220:Generated_Source\PSoC4/VLow.c **** * \brief Clears any active interrupts attached with the component and returns 
 221:Generated_Source\PSoC4/VLow.c **** *  the value of the interrupt status register allowing determination of which
 222:Generated_Source\PSoC4/VLow.c **** *  pins generated an interrupt event.
 223:Generated_Source\PSoC4/VLow.c **** *
 224:Generated_Source\PSoC4/VLow.c **** * \return 
 225:Generated_Source\PSoC4/VLow.c **** *  The right-shifted current value of the interrupt status register. Each pin 
 226:Generated_Source\PSoC4/VLow.c **** *  has one bit set if it generated an interrupt event. For example, bit 0 is 
 227:Generated_Source\PSoC4/VLow.c **** *  for pin 0 and bit 1 is for pin 1 of the Pins component.
 228:Generated_Source\PSoC4/VLow.c **** *  
 229:Generated_Source\PSoC4/VLow.c **** * \sideeffect
 230:Generated_Source\PSoC4/VLow.c **** *  Clears all bits of the physical port's interrupt status register, not just
 231:Generated_Source\PSoC4/VLow.c **** *  those associated with the Pins component.
 232:Generated_Source\PSoC4/VLow.c **** *
 233:Generated_Source\PSoC4/VLow.c **** * \funcusage
 234:Generated_Source\PSoC4/VLow.c **** *  \snippet VLow_SUT.c usage_VLow_ClearInterrupt
 235:Generated_Source\PSoC4/VLow.c **** *******************************************************************************/
 236:Generated_Source\PSoC4/VLow.c **** uint8 VLow_ClearInterrupt(void)
 237:Generated_Source\PSoC4/VLow.c **** {
 198              		.loc 1 237 0
 199              		.cfi_startproc
 200              		@ args = 0, pretend = 0, frame = 0
 201              		@ frame_needed = 0, uses_anonymous_args = 0
 202              		@ link register save eliminated.
 238:Generated_Source\PSoC4/VLow.c **** 	uint8 maskedStatus = (uint8)(VLow_INTSTAT & VLow_MASK);
 203              		.loc 1 238 0
 204 0000 7F22     		movs	r2, #127
 205 0002 034B     		ldr	r3, .L17
 239:Generated_Source\PSoC4/VLow.c **** 	VLow_INTSTAT = maskedStatus;
 240:Generated_Source\PSoC4/VLow.c ****     return maskedStatus >> VLow_SHIFT;
 241:Generated_Source\PSoC4/VLow.c **** }
 206              		.loc 1 241 0
 207              		@ sp needed
 238:Generated_Source\PSoC4/VLow.c **** 	uint8 maskedStatus = (uint8)(VLow_INTSTAT & VLow_MASK);
ARM GAS  C:\Users\diego\AppData\Local\Temp\ccw6UJfX.s 			page 9


 208              		.loc 1 238 0
 209 0004 1868     		ldr	r0, [r3]
 210 0006 9043     		bics	r0, r2
 211 0008 C0B2     		uxtb	r0, r0
 212              	.LVL8:
 239:Generated_Source\PSoC4/VLow.c **** 	VLow_INTSTAT = maskedStatus;
 213              		.loc 1 239 0
 214 000a 1860     		str	r0, [r3]
 240:Generated_Source\PSoC4/VLow.c **** }
 215              		.loc 1 240 0
 216 000c C009     		lsrs	r0, r0, #7
 217              	.LVL9:
 218              		.loc 1 241 0
 219 000e 7047     		bx	lr
 220              	.L18:
 221              		.align	2
 222              	.L17:
 223 0010 10030440 		.word	1074004752
 224              		.cfi_endproc
 225              	.LFE5:
 226              		.size	VLow_ClearInterrupt, .-VLow_ClearInterrupt
 227              		.text
 228              	.Letext0:
 229              		.file 2 "Generated_Source\\PSoC4\\cytypes.h"
 230              		.section	.debug_info,"",%progbits
 231              	.Ldebug_info0:
 232 0000 97010000 		.4byte	0x197
 233 0004 0400     		.2byte	0x4
 234 0006 00000000 		.4byte	.Ldebug_abbrev0
 235 000a 04       		.byte	0x4
 236 000b 01       		.uleb128 0x1
 237 000c BD000000 		.4byte	.LASF27
 238 0010 0C       		.byte	0xc
 239 0011 DB010000 		.4byte	.LASF28
 240 0015 19000000 		.4byte	.LASF29
 241 0019 00000000 		.4byte	.Ldebug_ranges0+0
 242 001d 00000000 		.4byte	0
 243 0021 00000000 		.4byte	.Ldebug_line0
 244 0025 02       		.uleb128 0x2
 245 0026 01       		.byte	0x1
 246 0027 06       		.byte	0x6
 247 0028 02020000 		.4byte	.LASF0
 248 002c 02       		.uleb128 0x2
 249 002d 01       		.byte	0x1
 250 002e 08       		.byte	0x8
 251 002f 56000000 		.4byte	.LASF1
 252 0033 02       		.uleb128 0x2
 253 0034 02       		.byte	0x2
 254 0035 05       		.byte	0x5
 255 0036 CB010000 		.4byte	.LASF2
 256 003a 02       		.uleb128 0x2
 257 003b 02       		.byte	0x2
 258 003c 07       		.byte	0x7
 259 003d 7C000000 		.4byte	.LASF3
 260 0041 02       		.uleb128 0x2
 261 0042 04       		.byte	0x4
 262 0043 05       		.byte	0x5
ARM GAS  C:\Users\diego\AppData\Local\Temp\ccw6UJfX.s 			page 10


 263 0044 F9010000 		.4byte	.LASF4
 264 0048 02       		.uleb128 0x2
 265 0049 04       		.byte	0x4
 266 004a 07       		.byte	0x7
 267 004b 6A000000 		.4byte	.LASF5
 268 004f 02       		.uleb128 0x2
 269 0050 08       		.byte	0x8
 270 0051 05       		.byte	0x5
 271 0052 A4010000 		.4byte	.LASF6
 272 0056 02       		.uleb128 0x2
 273 0057 08       		.byte	0x8
 274 0058 07       		.byte	0x7
 275 0059 7E010000 		.4byte	.LASF7
 276 005d 03       		.uleb128 0x3
 277 005e 04       		.byte	0x4
 278 005f 05       		.byte	0x5
 279 0060 696E7400 		.ascii	"int\000"
 280 0064 02       		.uleb128 0x2
 281 0065 04       		.byte	0x4
 282 0066 07       		.byte	0x7
 283 0067 71010000 		.4byte	.LASF8
 284 006b 04       		.uleb128 0x4
 285 006c D5010000 		.4byte	.LASF9
 286 0070 02       		.byte	0x2
 287 0071 F701     		.2byte	0x1f7
 288 0073 2C000000 		.4byte	0x2c
 289 0077 04       		.uleb128 0x4
 290 0078 52010000 		.4byte	.LASF10
 291 007c 02       		.byte	0x2
 292 007d F801     		.2byte	0x1f8
 293 007f 3A000000 		.4byte	0x3a
 294 0083 04       		.uleb128 0x4
 295 0084 62010000 		.4byte	.LASF11
 296 0088 02       		.byte	0x2
 297 0089 F901     		.2byte	0x1f9
 298 008b 48000000 		.4byte	0x48
 299 008f 02       		.uleb128 0x2
 300 0090 04       		.byte	0x4
 301 0091 04       		.byte	0x4
 302 0092 50000000 		.4byte	.LASF12
 303 0096 02       		.uleb128 0x2
 304 0097 08       		.byte	0x8
 305 0098 04       		.byte	0x4
 306 0099 4B010000 		.4byte	.LASF13
 307 009d 02       		.uleb128 0x2
 308 009e 01       		.byte	0x1
 309 009f 08       		.byte	0x8
 310 00a0 C6010000 		.4byte	.LASF14
 311 00a4 04       		.uleb128 0x4
 312 00a5 00000000 		.4byte	.LASF15
 313 00a9 02       		.byte	0x2
 314 00aa A302     		.2byte	0x2a3
 315 00ac B0000000 		.4byte	0xb0
 316 00b0 05       		.uleb128 0x5
 317 00b1 83000000 		.4byte	0x83
 318 00b5 06       		.uleb128 0x6
 319 00b6 AB000000 		.4byte	.LASF16
ARM GAS  C:\Users\diego\AppData\Local\Temp\ccw6UJfX.s 			page 11


 320 00ba 01       		.byte	0x1
 321 00bb 48       		.byte	0x48
 322 00bc 00000000 		.4byte	.LFB0
 323 00c0 18000000 		.4byte	.LFE0-.LFB0
 324 00c4 01       		.uleb128 0x1
 325 00c5 9C       		.byte	0x9c
 326 00c6 DA000000 		.4byte	0xda
 327 00ca 07       		.uleb128 0x7
 328 00cb 9F010000 		.4byte	.LASF18
 329 00cf 01       		.byte	0x1
 330 00d0 48       		.byte	0x48
 331 00d1 6B000000 		.4byte	0x6b
 332 00d5 00000000 		.4byte	.LLST0
 333 00d9 00       		.byte	0
 334 00da 06       		.uleb128 0x6
 335 00db A0000000 		.4byte	.LASF17
 336 00df 01       		.byte	0x1
 337 00e0 6F       		.byte	0x6f
 338 00e1 00000000 		.4byte	.LFB1
 339 00e5 18000000 		.4byte	.LFE1-.LFB1
 340 00e9 01       		.uleb128 0x1
 341 00ea 9C       		.byte	0x9c
 342 00eb 0A010000 		.4byte	0x10a
 343 00ef 07       		.uleb128 0x7
 344 00f0 13000000 		.4byte	.LASF19
 345 00f4 01       		.byte	0x1
 346 00f5 6F       		.byte	0x6f
 347 00f6 6B000000 		.4byte	0x6b
 348 00fa 21000000 		.4byte	.LLST1
 349 00fe 08       		.uleb128 0x8
 350 00ff 64000000 		.4byte	.LASF30
 351 0103 01       		.byte	0x1
 352 0104 71       		.byte	0x71
 353 0105 6B000000 		.4byte	0x6b
 354 0109 00       		.byte	0
 355 010a 09       		.uleb128 0x9
 356 010b 95010000 		.4byte	.LASF20
 357 010f 01       		.byte	0x1
 358 0110 88       		.byte	0x88
 359 0111 6B000000 		.4byte	0x6b
 360 0115 00000000 		.4byte	.LFB2
 361 0119 10000000 		.4byte	.LFE2-.LFB2
 362 011d 01       		.uleb128 0x1
 363 011e 9C       		.byte	0x9c
 364 011f 09       		.uleb128 0x9
 365 0120 8F000000 		.4byte	.LASF21
 366 0124 01       		.byte	0x1
 367 0125 A4       		.byte	0xa4
 368 0126 6B000000 		.4byte	0x6b
 369 012a 00000000 		.4byte	.LFB3
 370 012e 10000000 		.4byte	.LFE3-.LFB3
 371 0132 01       		.uleb128 0x1
 372 0133 9C       		.byte	0x9c
 373 0134 06       		.uleb128 0x6
 374 0135 0E020000 		.4byte	.LASF22
 375 0139 01       		.byte	0x1
 376 013a CF       		.byte	0xcf
ARM GAS  C:\Users\diego\AppData\Local\Temp\ccw6UJfX.s 			page 12


 377 013b 00000000 		.4byte	.LFB4
 378 013f 14000000 		.4byte	.LFE4-.LFB4
 379 0143 01       		.uleb128 0x1
 380 0144 9C       		.byte	0x9c
 381 0145 75010000 		.4byte	0x175
 382 0149 07       		.uleb128 0x7
 383 014a 59010000 		.4byte	.LASF23
 384 014e 01       		.byte	0x1
 385 014f CF       		.byte	0xcf
 386 0150 77000000 		.4byte	0x77
 387 0154 42000000 		.4byte	.LLST2
 388 0158 0A       		.uleb128 0xa
 389 0159 9F010000 		.4byte	.LASF18
 390 015d 01       		.byte	0x1
 391 015e CF       		.byte	0xcf
 392 015f 77000000 		.4byte	0x77
 393 0163 01       		.uleb128 0x1
 394 0164 51       		.byte	0x51
 395 0165 0B       		.uleb128 0xb
 396 0166 69010000 		.4byte	.LASF25
 397 016a 01       		.byte	0x1
 398 016b D1       		.byte	0xd1
 399 016c 83000000 		.4byte	0x83
 400 0170 63000000 		.4byte	.LLST3
 401 0174 00       		.byte	0
 402 0175 0C       		.uleb128 0xc
 403 0176 B2010000 		.4byte	.LASF24
 404 017a 01       		.byte	0x1
 405 017b EC       		.byte	0xec
 406 017c 6B000000 		.4byte	0x6b
 407 0180 00000000 		.4byte	.LFB5
 408 0184 14000000 		.4byte	.LFE5-.LFB5
 409 0188 01       		.uleb128 0x1
 410 0189 9C       		.byte	0x9c
 411 018a 0B       		.uleb128 0xb
 412 018b 06000000 		.4byte	.LASF26
 413 018f 01       		.byte	0x1
 414 0190 EE       		.byte	0xee
 415 0191 6B000000 		.4byte	0x6b
 416 0195 80000000 		.4byte	.LLST4
 417 0199 00       		.byte	0
 418 019a 00       		.byte	0
 419              		.section	.debug_abbrev,"",%progbits
 420              	.Ldebug_abbrev0:
 421 0000 01       		.uleb128 0x1
 422 0001 11       		.uleb128 0x11
 423 0002 01       		.byte	0x1
 424 0003 25       		.uleb128 0x25
 425 0004 0E       		.uleb128 0xe
 426 0005 13       		.uleb128 0x13
 427 0006 0B       		.uleb128 0xb
 428 0007 03       		.uleb128 0x3
 429 0008 0E       		.uleb128 0xe
 430 0009 1B       		.uleb128 0x1b
 431 000a 0E       		.uleb128 0xe
 432 000b 55       		.uleb128 0x55
 433 000c 17       		.uleb128 0x17
ARM GAS  C:\Users\diego\AppData\Local\Temp\ccw6UJfX.s 			page 13


 434 000d 11       		.uleb128 0x11
 435 000e 01       		.uleb128 0x1
 436 000f 10       		.uleb128 0x10
 437 0010 17       		.uleb128 0x17
 438 0011 00       		.byte	0
 439 0012 00       		.byte	0
 440 0013 02       		.uleb128 0x2
 441 0014 24       		.uleb128 0x24
 442 0015 00       		.byte	0
 443 0016 0B       		.uleb128 0xb
 444 0017 0B       		.uleb128 0xb
 445 0018 3E       		.uleb128 0x3e
 446 0019 0B       		.uleb128 0xb
 447 001a 03       		.uleb128 0x3
 448 001b 0E       		.uleb128 0xe
 449 001c 00       		.byte	0
 450 001d 00       		.byte	0
 451 001e 03       		.uleb128 0x3
 452 001f 24       		.uleb128 0x24
 453 0020 00       		.byte	0
 454 0021 0B       		.uleb128 0xb
 455 0022 0B       		.uleb128 0xb
 456 0023 3E       		.uleb128 0x3e
 457 0024 0B       		.uleb128 0xb
 458 0025 03       		.uleb128 0x3
 459 0026 08       		.uleb128 0x8
 460 0027 00       		.byte	0
 461 0028 00       		.byte	0
 462 0029 04       		.uleb128 0x4
 463 002a 16       		.uleb128 0x16
 464 002b 00       		.byte	0
 465 002c 03       		.uleb128 0x3
 466 002d 0E       		.uleb128 0xe
 467 002e 3A       		.uleb128 0x3a
 468 002f 0B       		.uleb128 0xb
 469 0030 3B       		.uleb128 0x3b
 470 0031 05       		.uleb128 0x5
 471 0032 49       		.uleb128 0x49
 472 0033 13       		.uleb128 0x13
 473 0034 00       		.byte	0
 474 0035 00       		.byte	0
 475 0036 05       		.uleb128 0x5
 476 0037 35       		.uleb128 0x35
 477 0038 00       		.byte	0
 478 0039 49       		.uleb128 0x49
 479 003a 13       		.uleb128 0x13
 480 003b 00       		.byte	0
 481 003c 00       		.byte	0
 482 003d 06       		.uleb128 0x6
 483 003e 2E       		.uleb128 0x2e
 484 003f 01       		.byte	0x1
 485 0040 3F       		.uleb128 0x3f
 486 0041 19       		.uleb128 0x19
 487 0042 03       		.uleb128 0x3
 488 0043 0E       		.uleb128 0xe
 489 0044 3A       		.uleb128 0x3a
 490 0045 0B       		.uleb128 0xb
ARM GAS  C:\Users\diego\AppData\Local\Temp\ccw6UJfX.s 			page 14


 491 0046 3B       		.uleb128 0x3b
 492 0047 0B       		.uleb128 0xb
 493 0048 27       		.uleb128 0x27
 494 0049 19       		.uleb128 0x19
 495 004a 11       		.uleb128 0x11
 496 004b 01       		.uleb128 0x1
 497 004c 12       		.uleb128 0x12
 498 004d 06       		.uleb128 0x6
 499 004e 40       		.uleb128 0x40
 500 004f 18       		.uleb128 0x18
 501 0050 9742     		.uleb128 0x2117
 502 0052 19       		.uleb128 0x19
 503 0053 01       		.uleb128 0x1
 504 0054 13       		.uleb128 0x13
 505 0055 00       		.byte	0
 506 0056 00       		.byte	0
 507 0057 07       		.uleb128 0x7
 508 0058 05       		.uleb128 0x5
 509 0059 00       		.byte	0
 510 005a 03       		.uleb128 0x3
 511 005b 0E       		.uleb128 0xe
 512 005c 3A       		.uleb128 0x3a
 513 005d 0B       		.uleb128 0xb
 514 005e 3B       		.uleb128 0x3b
 515 005f 0B       		.uleb128 0xb
 516 0060 49       		.uleb128 0x49
 517 0061 13       		.uleb128 0x13
 518 0062 02       		.uleb128 0x2
 519 0063 17       		.uleb128 0x17
 520 0064 00       		.byte	0
 521 0065 00       		.byte	0
 522 0066 08       		.uleb128 0x8
 523 0067 34       		.uleb128 0x34
 524 0068 00       		.byte	0
 525 0069 03       		.uleb128 0x3
 526 006a 0E       		.uleb128 0xe
 527 006b 3A       		.uleb128 0x3a
 528 006c 0B       		.uleb128 0xb
 529 006d 3B       		.uleb128 0x3b
 530 006e 0B       		.uleb128 0xb
 531 006f 49       		.uleb128 0x49
 532 0070 13       		.uleb128 0x13
 533 0071 00       		.byte	0
 534 0072 00       		.byte	0
 535 0073 09       		.uleb128 0x9
 536 0074 2E       		.uleb128 0x2e
 537 0075 00       		.byte	0
 538 0076 3F       		.uleb128 0x3f
 539 0077 19       		.uleb128 0x19
 540 0078 03       		.uleb128 0x3
 541 0079 0E       		.uleb128 0xe
 542 007a 3A       		.uleb128 0x3a
 543 007b 0B       		.uleb128 0xb
 544 007c 3B       		.uleb128 0x3b
 545 007d 0B       		.uleb128 0xb
 546 007e 27       		.uleb128 0x27
 547 007f 19       		.uleb128 0x19
ARM GAS  C:\Users\diego\AppData\Local\Temp\ccw6UJfX.s 			page 15


 548 0080 49       		.uleb128 0x49
 549 0081 13       		.uleb128 0x13
 550 0082 11       		.uleb128 0x11
 551 0083 01       		.uleb128 0x1
 552 0084 12       		.uleb128 0x12
 553 0085 06       		.uleb128 0x6
 554 0086 40       		.uleb128 0x40
 555 0087 18       		.uleb128 0x18
 556 0088 9742     		.uleb128 0x2117
 557 008a 19       		.uleb128 0x19
 558 008b 00       		.byte	0
 559 008c 00       		.byte	0
 560 008d 0A       		.uleb128 0xa
 561 008e 05       		.uleb128 0x5
 562 008f 00       		.byte	0
 563 0090 03       		.uleb128 0x3
 564 0091 0E       		.uleb128 0xe
 565 0092 3A       		.uleb128 0x3a
 566 0093 0B       		.uleb128 0xb
 567 0094 3B       		.uleb128 0x3b
 568 0095 0B       		.uleb128 0xb
 569 0096 49       		.uleb128 0x49
 570 0097 13       		.uleb128 0x13
 571 0098 02       		.uleb128 0x2
 572 0099 18       		.uleb128 0x18
 573 009a 00       		.byte	0
 574 009b 00       		.byte	0
 575 009c 0B       		.uleb128 0xb
 576 009d 34       		.uleb128 0x34
 577 009e 00       		.byte	0
 578 009f 03       		.uleb128 0x3
 579 00a0 0E       		.uleb128 0xe
 580 00a1 3A       		.uleb128 0x3a
 581 00a2 0B       		.uleb128 0xb
 582 00a3 3B       		.uleb128 0x3b
 583 00a4 0B       		.uleb128 0xb
 584 00a5 49       		.uleb128 0x49
 585 00a6 13       		.uleb128 0x13
 586 00a7 02       		.uleb128 0x2
 587 00a8 17       		.uleb128 0x17
 588 00a9 00       		.byte	0
 589 00aa 00       		.byte	0
 590 00ab 0C       		.uleb128 0xc
 591 00ac 2E       		.uleb128 0x2e
 592 00ad 01       		.byte	0x1
 593 00ae 3F       		.uleb128 0x3f
 594 00af 19       		.uleb128 0x19
 595 00b0 03       		.uleb128 0x3
 596 00b1 0E       		.uleb128 0xe
 597 00b2 3A       		.uleb128 0x3a
 598 00b3 0B       		.uleb128 0xb
 599 00b4 3B       		.uleb128 0x3b
 600 00b5 0B       		.uleb128 0xb
 601 00b6 27       		.uleb128 0x27
 602 00b7 19       		.uleb128 0x19
 603 00b8 49       		.uleb128 0x49
 604 00b9 13       		.uleb128 0x13
ARM GAS  C:\Users\diego\AppData\Local\Temp\ccw6UJfX.s 			page 16


 605 00ba 11       		.uleb128 0x11
 606 00bb 01       		.uleb128 0x1
 607 00bc 12       		.uleb128 0x12
 608 00bd 06       		.uleb128 0x6
 609 00be 40       		.uleb128 0x40
 610 00bf 18       		.uleb128 0x18
 611 00c0 9742     		.uleb128 0x2117
 612 00c2 19       		.uleb128 0x19
 613 00c3 00       		.byte	0
 614 00c4 00       		.byte	0
 615 00c5 00       		.byte	0
 616              		.section	.debug_loc,"",%progbits
 617              	.Ldebug_loc0:
 618              	.LLST0:
 619 0000 00000000 		.4byte	.LVL0
 620 0004 08000000 		.4byte	.LVL1
 621 0008 0100     		.2byte	0x1
 622 000a 50       		.byte	0x50
 623 000b 08000000 		.4byte	.LVL1
 624 000f 18000000 		.4byte	.LFE0
 625 0013 0400     		.2byte	0x4
 626 0015 F3       		.byte	0xf3
 627 0016 01       		.uleb128 0x1
 628 0017 50       		.byte	0x50
 629 0018 9F       		.byte	0x9f
 630 0019 00000000 		.4byte	0
 631 001d 00000000 		.4byte	0
 632              	.LLST1:
 633 0021 00000000 		.4byte	.LVL2
 634 0025 06000000 		.4byte	.LVL3
 635 0029 0100     		.2byte	0x1
 636 002b 50       		.byte	0x50
 637 002c 06000000 		.4byte	.LVL3
 638 0030 18000000 		.4byte	.LFE1
 639 0034 0400     		.2byte	0x4
 640 0036 F3       		.byte	0xf3
 641 0037 01       		.uleb128 0x1
 642 0038 50       		.byte	0x50
 643 0039 9F       		.byte	0x9f
 644 003a 00000000 		.4byte	0
 645 003e 00000000 		.4byte	0
 646              	.LLST2:
 647 0042 00000000 		.4byte	.LVL4
 648 0046 08000000 		.4byte	.LVL7
 649 004a 0100     		.2byte	0x1
 650 004c 50       		.byte	0x50
 651 004d 08000000 		.4byte	.LVL7
 652 0051 14000000 		.4byte	.LFE4
 653 0055 0400     		.2byte	0x4
 654 0057 F3       		.byte	0xf3
 655 0058 01       		.uleb128 0x1
 656 0059 50       		.byte	0x50
 657 005a 9F       		.byte	0x9f
 658 005b 00000000 		.4byte	0
 659 005f 00000000 		.4byte	0
 660              	.LLST3:
 661 0063 04000000 		.4byte	.LVL5
ARM GAS  C:\Users\diego\AppData\Local\Temp\ccw6UJfX.s 			page 17


 662 0067 06000000 		.4byte	.LVL6
 663 006b 0B00     		.2byte	0xb
 664 006d 70       		.byte	0x70
 665 006e 00       		.sleb128 0
 666 006f 0A       		.byte	0xa
 667 0070 FFFF     		.2byte	0xffff
 668 0072 1A       		.byte	0x1a
 669 0073 20       		.byte	0x20
 670 0074 73       		.byte	0x73
 671 0075 00       		.sleb128 0
 672 0076 1A       		.byte	0x1a
 673 0077 9F       		.byte	0x9f
 674 0078 00000000 		.4byte	0
 675 007c 00000000 		.4byte	0
 676              	.LLST4:
 677 0080 0A000000 		.4byte	.LVL8
 678 0084 0E000000 		.4byte	.LVL9
 679 0088 0100     		.2byte	0x1
 680 008a 50       		.byte	0x50
 681 008b 0E000000 		.4byte	.LVL9
 682 008f 14000000 		.4byte	.LFE5
 683 0093 0400     		.2byte	0x4
 684 0095 73       		.byte	0x73
 685 0096 00       		.sleb128 0
 686 0097 06       		.byte	0x6
 687 0098 9F       		.byte	0x9f
 688 0099 00000000 		.4byte	0
 689 009d 00000000 		.4byte	0
 690              		.section	.debug_aranges,"",%progbits
 691 0000 44000000 		.4byte	0x44
 692 0004 0200     		.2byte	0x2
 693 0006 00000000 		.4byte	.Ldebug_info0
 694 000a 04       		.byte	0x4
 695 000b 00       		.byte	0
 696 000c 0000     		.2byte	0
 697 000e 0000     		.2byte	0
 698 0010 00000000 		.4byte	.LFB0
 699 0014 18000000 		.4byte	.LFE0-.LFB0
 700 0018 00000000 		.4byte	.LFB1
 701 001c 18000000 		.4byte	.LFE1-.LFB1
 702 0020 00000000 		.4byte	.LFB2
 703 0024 10000000 		.4byte	.LFE2-.LFB2
 704 0028 00000000 		.4byte	.LFB3
 705 002c 10000000 		.4byte	.LFE3-.LFB3
 706 0030 00000000 		.4byte	.LFB4
 707 0034 14000000 		.4byte	.LFE4-.LFB4
 708 0038 00000000 		.4byte	.LFB5
 709 003c 14000000 		.4byte	.LFE5-.LFB5
 710 0040 00000000 		.4byte	0
 711 0044 00000000 		.4byte	0
 712              		.section	.debug_ranges,"",%progbits
 713              	.Ldebug_ranges0:
 714 0000 00000000 		.4byte	.LFB0
 715 0004 18000000 		.4byte	.LFE0
 716 0008 00000000 		.4byte	.LFB1
 717 000c 18000000 		.4byte	.LFE1
 718 0010 00000000 		.4byte	.LFB2
ARM GAS  C:\Users\diego\AppData\Local\Temp\ccw6UJfX.s 			page 18


 719 0014 10000000 		.4byte	.LFE2
 720 0018 00000000 		.4byte	.LFB3
 721 001c 10000000 		.4byte	.LFE3
 722 0020 00000000 		.4byte	.LFB4
 723 0024 14000000 		.4byte	.LFE4
 724 0028 00000000 		.4byte	.LFB5
 725 002c 14000000 		.4byte	.LFE5
 726 0030 00000000 		.4byte	0
 727 0034 00000000 		.4byte	0
 728              		.section	.debug_line,"",%progbits
 729              	.Ldebug_line0:
 730 0000 C3000000 		.section	.debug_str,"MS",%progbits,1
 730      02004100 
 730      00000201 
 730      FB0E0D00 
 730      01010101 
 731              	.LASF15:
 732 0000 72656733 		.ascii	"reg32\000"
 732      3200
 733              	.LASF26:
 734 0006 6D61736B 		.ascii	"maskedStatus\000"
 734      65645374 
 734      61747573 
 734      00
 735              	.LASF19:
 736 0013 76616C75 		.ascii	"value\000"
 736      6500
 737              	.LASF29:
 738 0019 453A5C50 		.ascii	"E:\\Progetti\\Cypress\\Test\\BLE_Sensor\\Beacom_bri"
 738      726F6765 
 738      7474695C 
 738      43797072 
 738      6573735C 
 739 0047 636B2E63 		.ascii	"ck.cydsn\000"
 739      7964736E 
 739      00
 740              	.LASF12:
 741 0050 666C6F61 		.ascii	"float\000"
 741      7400
 742              	.LASF1:
 743 0056 756E7369 		.ascii	"unsigned char\000"
 743      676E6564 
 743      20636861 
 743      7200
 744              	.LASF30:
 745 0064 64725661 		.ascii	"drVal\000"
 745      6C00
 746              	.LASF5:
 747 006a 6C6F6E67 		.ascii	"long unsigned int\000"
 747      20756E73 
 747      69676E65 
 747      6420696E 
 747      7400
 748              	.LASF3:
 749 007c 73686F72 		.ascii	"short unsigned int\000"
 749      7420756E 
 749      7369676E 
ARM GAS  C:\Users\diego\AppData\Local\Temp\ccw6UJfX.s 			page 19


 749      65642069 
 749      6E7400
 750              	.LASF21:
 751 008f 564C6F77 		.ascii	"VLow_ReadDataReg\000"
 751      5F526561 
 751      64446174 
 751      61526567 
 751      00
 752              	.LASF17:
 753 00a0 564C6F77 		.ascii	"VLow_Write\000"
 753      5F577269 
 753      746500
 754              	.LASF16:
 755 00ab 564C6F77 		.ascii	"VLow_SetDriveMode\000"
 755      5F536574 
 755      44726976 
 755      654D6F64 
 755      6500
 756              	.LASF27:
 757 00bd 474E5520 		.ascii	"GNU C11 5.4.1 20160609 (release) [ARM/embedded-5-br"
 757      43313120 
 757      352E342E 
 757      31203230 
 757      31363036 
 758 00f0 616E6368 		.ascii	"anch revision 237715] -mcpu=cortex-m0 -mthumb -g -O"
 758      20726576 
 758      6973696F 
 758      6E203233 
 758      37373135 
 759 0123 33202D66 		.ascii	"3 -ffunction-sections -ffat-lto-objects\000"
 759      66756E63 
 759      74696F6E 
 759      2D736563 
 759      74696F6E 
 760              	.LASF13:
 761 014b 646F7562 		.ascii	"double\000"
 761      6C6500
 762              	.LASF10:
 763 0152 75696E74 		.ascii	"uint16\000"
 763      313600
 764              	.LASF23:
 765 0159 706F7369 		.ascii	"position\000"
 765      74696F6E 
 765      00
 766              	.LASF11:
 767 0162 75696E74 		.ascii	"uint32\000"
 767      333200
 768              	.LASF25:
 769 0169 696E7472 		.ascii	"intrCfg\000"
 769      43666700 
 770              	.LASF8:
 771 0171 756E7369 		.ascii	"unsigned int\000"
 771      676E6564 
 771      20696E74 
 771      00
 772              	.LASF7:
 773 017e 6C6F6E67 		.ascii	"long long unsigned int\000"
ARM GAS  C:\Users\diego\AppData\Local\Temp\ccw6UJfX.s 			page 20


 773      206C6F6E 
 773      6720756E 
 773      7369676E 
 773      65642069 
 774              	.LASF20:
 775 0195 564C6F77 		.ascii	"VLow_Read\000"
 775      5F526561 
 775      6400
 776              	.LASF18:
 777 019f 6D6F6465 		.ascii	"mode\000"
 777      00
 778              	.LASF6:
 779 01a4 6C6F6E67 		.ascii	"long long int\000"
 779      206C6F6E 
 779      6720696E 
 779      7400
 780              	.LASF24:
 781 01b2 564C6F77 		.ascii	"VLow_ClearInterrupt\000"
 781      5F436C65 
 781      6172496E 
 781      74657272 
 781      75707400 
 782              	.LASF14:
 783 01c6 63686172 		.ascii	"char\000"
 783      00
 784              	.LASF2:
 785 01cb 73686F72 		.ascii	"short int\000"
 785      7420696E 
 785      7400
 786              	.LASF9:
 787 01d5 75696E74 		.ascii	"uint8\000"
 787      3800
 788              	.LASF28:
 789 01db 47656E65 		.ascii	"Generated_Source\\PSoC4\\VLow.c\000"
 789      72617465 
 789      645F536F 
 789      75726365 
 789      5C50536F 
 790              	.LASF4:
 791 01f9 6C6F6E67 		.ascii	"long int\000"
 791      20696E74 
 791      00
 792              	.LASF0:
 793 0202 7369676E 		.ascii	"signed char\000"
 793      65642063 
 793      68617200 
 794              	.LASF22:
 795 020e 564C6F77 		.ascii	"VLow_SetInterruptMode\000"
 795      5F536574 
 795      496E7465 
 795      72727570 
 795      744D6F64 
 796              		.ident	"GCC: (GNU Tools for ARM Embedded Processors) 5.4.1 20160609 (release) [ARM/embedded-5-bran
