ARM GAS  C:\Users\diego\AppData\Local\Temp\ccNmoqMP.s 			page 1


   1              		.syntax unified
   2              		.cpu cortex-m0
   3              		.fpu softvfp
   4              		.eabi_attribute 20, 1
   5              		.eabi_attribute 21, 1
   6              		.eabi_attribute 23, 3
   7              		.eabi_attribute 24, 1
   8              		.eabi_attribute 25, 1
   9              		.eabi_attribute 26, 1
  10              		.eabi_attribute 30, 2
  11              		.eabi_attribute 34, 0
  12              		.eabi_attribute 18, 4
  13              		.thumb
  14              		.syntax unified
  15              		.file	"WriteUserSFlash.c"
  16              		.text
  17              	.Ltext0:
  18              		.cfi_sections	.debug_frame
  19              		.section	.text.WriteUserSFlashRow,"ax",%progbits
  20              		.align	2
  21              		.global	WriteUserSFlashRow
  22              		.code	16
  23              		.thumb_func
  24              		.type	WriteUserSFlashRow, %function
  25              	WriteUserSFlashRow:
  26              	.LFB35:
  27              		.file 1 "WriteUserSFlash.c"
   1:WriteUserSFlash.c **** /******************************************************************************
   2:WriteUserSFlash.c **** * Project Name      : Solar BLE Sensor
   3:WriteUserSFlash.c **** * File Name         : WriteUserSFlash.c
   4:WriteUserSFlash.c **** * Version           : CYALKIT-E02 Sample Firmware, Version 1.2.00
   5:WriteUserSFlash.c **** * Device Used       : CYBLE-022001-00
   6:WriteUserSFlash.c **** * Software Used     : PSoC Creator 3.3 CP3
   7:WriteUserSFlash.c **** * Compiler          : ARM GCC 4.9.3
   8:WriteUserSFlash.c **** * Related Hardware  : Solar BLE Sensor
   9:WriteUserSFlash.c **** *
  10:WriteUserSFlash.c **** *******************************************************************************
  11:WriteUserSFlash.c **** * Copyright (2016), Cypress Semiconductor Corporation. All Rights Reserved.
  12:WriteUserSFlash.c **** *******************************************************************************
  13:WriteUserSFlash.c **** * This software is owned by Cypress Semiconductor Corporation (Cypress)
  14:WriteUserSFlash.c **** * and is protected by and subject to worldwide patent protection (United
  15:WriteUserSFlash.c **** * States and foreign), United States copyright laws and international treaty
  16:WriteUserSFlash.c **** * provisions. Cypress hereby grants to licensee a personal, non-exclusive,
  17:WriteUserSFlash.c **** * non-transferable license to copy, use, modify, create derivative works of,
  18:WriteUserSFlash.c **** * and compile the Cypress Source Code and derivative works for the sole
  19:WriteUserSFlash.c **** * purpose of creating custom software in support of licensee product to be
  20:WriteUserSFlash.c **** * used only in conjunction with a Cypress integrated circuit as specified in
  21:WriteUserSFlash.c **** * the applicable agreement. Any reproduction, modification, translation,
  22:WriteUserSFlash.c **** * compilation, or representation of this software except as specified above 
  23:WriteUserSFlash.c **** * is prohibited without the express written permission of Cypress.
  24:WriteUserSFlash.c **** *
  25:WriteUserSFlash.c **** * Disclaimer: CYPRESS MAKES NO WARRANTY OF ANY KIND, EXPRESS OR IMPLIED, WITH 
  26:WriteUserSFlash.c **** * REGARD TO THIS MATERIAL, INCLUDING, BUT NOT LIMITED TO, THE IMPLIED 
  27:WriteUserSFlash.c **** * WARRANTIES OF MERCHANTABILITY AND FITNESS FOR A PARTICULAR PURPOSE.
  28:WriteUserSFlash.c **** * Cypress reserves the right to make changes without further notice to the 
  29:WriteUserSFlash.c **** * materials described herein. Cypress does not assume any liability arising out 
  30:WriteUserSFlash.c **** * of the application or use of any product or circuit described herein. Cypress 
ARM GAS  C:\Users\diego\AppData\Local\Temp\ccNmoqMP.s 			page 2


  31:WriteUserSFlash.c **** * does not authorize its products for use as critical components in life-support 
  32:WriteUserSFlash.c **** * systems where a malfunction or failure may reasonably be expected to result in 
  33:WriteUserSFlash.c **** * significant injury to the user. The inclusion of Cypress' product in a life-
  34:WriteUserSFlash.c **** * support systems application implies that the manufacturer assumes all risk of 
  35:WriteUserSFlash.c **** * such use and in doing so indemnifies Cypress against all charges. 
  36:WriteUserSFlash.c **** *
  37:WriteUserSFlash.c **** * Use of this Software may be limited by and subject to the applicable Cypress
  38:WriteUserSFlash.c **** * software license agreement. 
  39:WriteUserSFlash.c **** *******************************************************************************/
  40:WriteUserSFlash.c **** 
  41:WriteUserSFlash.c **** #include <Project.h>
  42:WriteUserSFlash.c **** #include <WriteUserSFlash.h>
  43:WriteUserSFlash.c **** 
  44:WriteUserSFlash.c **** /*******************************************************************************
  45:WriteUserSFlash.c **** * Function Name: WriteUserSFlashRow
  46:WriteUserSFlash.c **** ********************************************************************************
  47:WriteUserSFlash.c **** * Summary:
  48:WriteUserSFlash.c **** *   This routine calls the PSoC 4 BLE device supervisory ROM APIs to update 
  49:WriteUserSFlash.c **** *   the user configuration area of Supervisory Flash (SFlash).  
  50:WriteUserSFlash.c **** *
  51:WriteUserSFlash.c **** * Parameters:
  52:WriteUserSFlash.c **** *   userRowNUmber - User config SFlash row number to which data is to be written
  53:WriteUserSFlash.c **** *   dataPointer - Pointer to the data to be written. This API writes one row of 
  54:WriteUserSFlash.c **** *                 user config SFlash row at a time.
  55:WriteUserSFlash.c **** *
  56:WriteUserSFlash.c **** * Return:
  57:WriteUserSFlash.c **** *   uint32_t - state of the user config SFlash write operation.
  58:WriteUserSFlash.c **** *******************************************************************************/
  59:WriteUserSFlash.c **** #if defined (__GNUC__)
  60:WriteUserSFlash.c **** #pragma GCC optimize ("O0")
  61:WriteUserSFlash.c **** #endif /* End of #if defined (__GNUC__) */
  62:WriteUserSFlash.c **** uint32_t WriteUserSFlashRow(uint8_t userRowNUmber, uint32_t *dataPointer)
  63:WriteUserSFlash.c **** {
  28              		.loc 1 63 0
  29              		.cfi_startproc
  30              		@ args = 0, pretend = 0, frame = 176
  31              		@ frame_needed = 1, uses_anonymous_args = 0
  32              	.LVL0:
  33 0000 80B5     		push	{r7, lr}
  34              		.cfi_def_cfa_offset 8
  35              		.cfi_offset 7, -8
  36              		.cfi_offset 14, -4
  37 0002 ACB0     		sub	sp, sp, #176
  38              		.cfi_def_cfa_offset 184
  39 0004 00AF     		add	r7, sp, #0
  40              		.cfi_def_cfa_register 7
  41 0006 0200     		movs	r2, r0
  42 0008 3960     		str	r1, [r7]
  43 000a FB1D     		adds	r3, r7, #7
  44 000c 1A70     		strb	r2, [r3]
  64:WriteUserSFlash.c ****     uint8_t localCount;
  65:WriteUserSFlash.c ****     volatile uint32_t retValue=0;
  45              		.loc 1 65 0
  46 000e 0023     		movs	r3, #0
  47 0010 A822     		movs	r2, #168
  48 0012 BA18     		adds	r2, r7, r2
  49 0014 1360     		str	r3, [r2]
ARM GAS  C:\Users\diego\AppData\Local\Temp\ccNmoqMP.s 			page 3


  66:WriteUserSFlash.c ****     volatile uint32_t cmdDataBuffer[(CY_FLASH_SIZEOF_ROW/4) + 2];
  67:WriteUserSFlash.c ****     volatile uint32_t reg1,reg2,reg3,reg4,reg5,reg6;
  68:WriteUserSFlash.c ****     
  69:WriteUserSFlash.c ****     /* Store the clock settings temporarily */
  70:WriteUserSFlash.c ****     reg1 =  CY_GET_XTND_REG32((void CYFAR *)(CYREG_CLK_SELECT));
  50              		.loc 1 70 0
  51 0016 3A4B     		ldr	r3, .L5
  52 0018 1B68     		ldr	r3, [r3]
  53 001a FB61     		str	r3, [r7, #28]
  71:WriteUserSFlash.c ****     reg2 =  CY_GET_XTND_REG32((void CYFAR *)(CYREG_CLK_IMO_CONFIG));
  54              		.loc 1 71 0
  55 001c 394B     		ldr	r3, .L5+4
  56 001e 1B68     		ldr	r3, [r3]
  57 0020 BB61     		str	r3, [r7, #24]
  72:WriteUserSFlash.c ****     reg3 =  CY_GET_XTND_REG32((void CYFAR *)(CYREG_PWR_BG_TRIM4));
  58              		.loc 1 72 0
  59 0022 394B     		ldr	r3, .L5+8
  60 0024 1B68     		ldr	r3, [r3]
  61 0026 7B61     		str	r3, [r7, #20]
  73:WriteUserSFlash.c ****     reg4 =  CY_GET_XTND_REG32((void CYFAR *)(CYREG_PWR_BG_TRIM5));
  62              		.loc 1 73 0
  63 0028 384B     		ldr	r3, .L5+12
  64 002a 1B68     		ldr	r3, [r3]
  65 002c 3B61     		str	r3, [r7, #16]
  74:WriteUserSFlash.c ****     reg5 =  CY_GET_XTND_REG32((void CYFAR *)(CYREG_CLK_IMO_TRIM1));
  66              		.loc 1 74 0
  67 002e 384B     		ldr	r3, .L5+16
  68 0030 1B68     		ldr	r3, [r3]
  69 0032 FB60     		str	r3, [r7, #12]
  75:WriteUserSFlash.c ****     reg6 =  CY_GET_XTND_REG32((void CYFAR *)(CYREG_CLK_IMO_TRIM2));
  70              		.loc 1 75 0
  71 0034 374B     		ldr	r3, .L5+20
  72 0036 1B68     		ldr	r3, [r3]
  73 0038 BB60     		str	r3, [r7, #8]
  76:WriteUserSFlash.c ****     
  77:WriteUserSFlash.c ****     /* Initialize the clock necessary for flash programming */
  78:WriteUserSFlash.c ****     CY_SET_REG32(CYREG_CPUSS_SYSARG, 0x0000e8b6);
  74              		.loc 1 78 0
  75 003a 374B     		ldr	r3, .L5+24
  76 003c 374A     		ldr	r2, .L5+28
  77 003e 1A60     		str	r2, [r3]
  79:WriteUserSFlash.c ****     CY_SET_REG32(CYREG_CPUSS_SYSREQ, 0x80000015);
  78              		.loc 1 79 0
  79 0040 374B     		ldr	r3, .L5+32
  80 0042 384A     		ldr	r2, .L5+36
  81 0044 1A60     		str	r2, [r3]
  80:WriteUserSFlash.c ****     
  81:WriteUserSFlash.c ****     /******* Initialize SRAM parameters for the LOAD FLASH command ******/
  82:WriteUserSFlash.c ****     /* byte 3 (i.e. 00) is the Macro_select */
  83:WriteUserSFlash.c ****     /* byte 2 (i.e. 00) is the Start addr of page latch */
  84:WriteUserSFlash.c ****     /* byte 1 (i.e. d7) is the key 2  */
  85:WriteUserSFlash.c ****     /* byte 0 (i.e. b6) is the key 1  */
  86:WriteUserSFlash.c ****     cmdDataBuffer[0]=0x0000d7b6;
  82              		.loc 1 86 0
  83 0046 2023     		movs	r3, #32
  84 0048 FB18     		adds	r3, r7, r3
  85 004a 374A     		ldr	r2, .L5+40
ARM GAS  C:\Users\diego\AppData\Local\Temp\ccNmoqMP.s 			page 4


  86 004c 1A60     		str	r2, [r3]
  87:WriteUserSFlash.c ****     
  88:WriteUserSFlash.c ****     /****** Initialize SRAM parameters for the LOAD FLASH command ******/
  89:WriteUserSFlash.c ****     /* byte 3,2 and 1 are null */
  90:WriteUserSFlash.c ****     /* byte 0 (i.e. 7F) is the number of bytes to be written */
  91:WriteUserSFlash.c ****     cmdDataBuffer[1]=0x0000007F;     
  87              		.loc 1 91 0
  88 004e 2023     		movs	r3, #32
  89 0050 FB18     		adds	r3, r7, r3
  90 0052 7F22     		movs	r2, #127
  91 0054 5A60     		str	r2, [r3, #4]
  92:WriteUserSFlash.c ****     
  93:WriteUserSFlash.c ****     /* Initialize the SRAM buffer with data bytes */
  94:WriteUserSFlash.c ****     for(localCount = 0; localCount < (CY_FLASH_SIZEOF_ROW/4); localCount++)    
  92              		.loc 1 94 0
  93 0056 AF23     		movs	r3, #175
  94 0058 FB18     		adds	r3, r7, r3
  95 005a 0022     		movs	r2, #0
  96 005c 1A70     		strb	r2, [r3]
  97              	.LVL1:
  98 005e 15E0     		b	.L2
  99              	.LVL2:
 100              	.L3:
  95:WriteUserSFlash.c ****     {
  96:WriteUserSFlash.c ****         cmdDataBuffer[localCount + 2] = dataPointer[localCount]; 
 101              		.loc 1 96 0 discriminator 3
 102 0060 AF23     		movs	r3, #175
 103 0062 FB18     		adds	r3, r7, r3
 104 0064 1B78     		ldrb	r3, [r3]
 105 0066 9A1C     		adds	r2, r3, #2
 106 0068 AF23     		movs	r3, #175
 107 006a FB18     		adds	r3, r7, r3
 108 006c 1B78     		ldrb	r3, [r3]
 109 006e 9B00     		lsls	r3, r3, #2
 110 0070 3968     		ldr	r1, [r7]
 111 0072 CB18     		adds	r3, r1, r3
 112 0074 1968     		ldr	r1, [r3]
 113 0076 2023     		movs	r3, #32
 114 0078 FB18     		adds	r3, r7, r3
 115 007a 9200     		lsls	r2, r2, #2
 116 007c D150     		str	r1, [r2, r3]
  94:WriteUserSFlash.c ****     {
 117              		.loc 1 94 0 discriminator 3
 118 007e AF23     		movs	r3, #175
 119 0080 FB18     		adds	r3, r7, r3
 120 0082 1A78     		ldrb	r2, [r3]
 121 0084 AF23     		movs	r3, #175
 122 0086 FB18     		adds	r3, r7, r3
 123 0088 0132     		adds	r2, r2, #1
 124 008a 1A70     		strb	r2, [r3]
 125              	.LVL3:
 126              	.L2:
  94:WriteUserSFlash.c ****     {
 127              		.loc 1 94 0 is_stmt 0 discriminator 1
 128 008c AF23     		movs	r3, #175
 129 008e FB18     		adds	r3, r7, r3
 130 0090 1B78     		ldrb	r3, [r3]
ARM GAS  C:\Users\diego\AppData\Local\Temp\ccNmoqMP.s 			page 5


 131 0092 1F2B     		cmp	r3, #31
 132 0094 E4D9     		bls	.L3
  97:WriteUserSFlash.c ****     }
  98:WriteUserSFlash.c ****     
  99:WriteUserSFlash.c ****     /* Write the following to registers to execute a LOAD FLASH bytes */
 100:WriteUserSFlash.c ****     CY_SET_REG32(CYREG_CPUSS_SYSARG, &cmdDataBuffer[0]);
 133              		.loc 1 100 0 is_stmt 1
 134 0096 204B     		ldr	r3, .L5+24
 135 0098 2022     		movs	r2, #32
 136 009a BA18     		adds	r2, r7, r2
 137 009c 1A60     		str	r2, [r3]
 101:WriteUserSFlash.c ****     CY_SET_REG32(CYREG_CPUSS_SYSREQ, LOAD_FLASH);
 138              		.loc 1 101 0
 139 009e 204B     		ldr	r3, .L5+32
 140 00a0 224A     		ldr	r2, .L5+44
 141 00a2 1A60     		str	r2, [r3]
 102:WriteUserSFlash.c ****     
 103:WriteUserSFlash.c ****     /****** Initialize SRAM parameters for the WRITE ROW command ******/
 104:WriteUserSFlash.c ****     /* byte 3 & 2 are null */
 105:WriteUserSFlash.c ****     /* byte 1 (i.e. 0xeb) is the key 2  */
 106:WriteUserSFlash.c ****     /* byte 0 (i.e. 0xb6) is the key 1  */
 107:WriteUserSFlash.c ****     cmdDataBuffer[0] = 0x0000ebb6;
 142              		.loc 1 107 0
 143 00a4 2023     		movs	r3, #32
 144 00a6 FB18     		adds	r3, r7, r3
 145 00a8 214A     		ldr	r2, .L5+48
 146 00aa 1A60     		str	r2, [r3]
 108:WriteUserSFlash.c ****     
 109:WriteUserSFlash.c ****     /* byte 7,6 and 5 are null */
 110:WriteUserSFlash.c ****     /* byte 4 is desired SFlash user row 
 111:WriteUserSFlash.c ****      * Allowed values 0 - row 4
 112:WriteUserSFlash.c ****                       1 - row 5 
 113:WriteUserSFlash.c ****                       2 - row 6
 114:WriteUserSFlash.c ****                       3 - row 7 */
 115:WriteUserSFlash.c ****     cmdDataBuffer[1] = (uint32_t) userRowNUmber;
 147              		.loc 1 115 0
 148 00ac FB1D     		adds	r3, r7, #7
 149 00ae 1A78     		ldrb	r2, [r3]
 150 00b0 2023     		movs	r3, #32
 151 00b2 FB18     		adds	r3, r7, r3
 152 00b4 5A60     		str	r2, [r3, #4]
 116:WriteUserSFlash.c ****     
 117:WriteUserSFlash.c ****     /* Write the following to registers to execute a WRITE USER SFlash ROW command */
 118:WriteUserSFlash.c ****     CY_SET_REG32(CYREG_CPUSS_SYSARG, &cmdDataBuffer[0]);
 153              		.loc 1 118 0
 154 00b6 184B     		ldr	r3, .L5+24
 155 00b8 2022     		movs	r2, #32
 156 00ba BA18     		adds	r2, r7, r2
 157 00bc 1A60     		str	r2, [r3]
 119:WriteUserSFlash.c ****     CY_SET_REG32(CYREG_CPUSS_SYSREQ, WRITE_USER_SFLASH_ROW);
 158              		.loc 1 119 0
 159 00be 184B     		ldr	r3, .L5+32
 160 00c0 1C4A     		ldr	r2, .L5+52
 161 00c2 1A60     		str	r2, [r3]
 120:WriteUserSFlash.c ****     
 121:WriteUserSFlash.c ****     /* Read back SYSARG for the result. 0xA0000000 = SUCCESS; */
 122:WriteUserSFlash.c ****     retValue = CY_GET_REG32(CYREG_CPUSS_SYSARG);
ARM GAS  C:\Users\diego\AppData\Local\Temp\ccNmoqMP.s 			page 6


 162              		.loc 1 122 0
 163 00c4 144B     		ldr	r3, .L5+24
 164 00c6 1B68     		ldr	r3, [r3]
 165 00c8 A822     		movs	r2, #168
 166 00ca BA18     		adds	r2, r7, r2
 167 00cc 1360     		str	r3, [r2]
 123:WriteUserSFlash.c ****     
 124:WriteUserSFlash.c ****     /* Restore the clock settings after the flash programming is done */
 125:WriteUserSFlash.c ****     CY_SET_XTND_REG32((void CYFAR *)(CYREG_CLK_SELECT),reg1);
 168              		.loc 1 125 0
 169 00ce 0C4B     		ldr	r3, .L5
 170 00d0 FA69     		ldr	r2, [r7, #28]
 171 00d2 1A60     		str	r2, [r3]
 126:WriteUserSFlash.c ****     CY_SET_XTND_REG32((void CYFAR *)(CYREG_CLK_IMO_CONFIG),reg2);
 172              		.loc 1 126 0
 173 00d4 0B4B     		ldr	r3, .L5+4
 174 00d6 BA69     		ldr	r2, [r7, #24]
 175 00d8 1A60     		str	r2, [r3]
 127:WriteUserSFlash.c ****     CY_SET_XTND_REG32((void CYFAR *)(CYREG_PWR_BG_TRIM4),reg3);
 176              		.loc 1 127 0
 177 00da 0B4B     		ldr	r3, .L5+8
 178 00dc 7A69     		ldr	r2, [r7, #20]
 179 00de 1A60     		str	r2, [r3]
 128:WriteUserSFlash.c ****     CY_SET_XTND_REG32((void CYFAR *)(CYREG_PWR_BG_TRIM5),reg4);
 180              		.loc 1 128 0
 181 00e0 0A4B     		ldr	r3, .L5+12
 182 00e2 3A69     		ldr	r2, [r7, #16]
 183 00e4 1A60     		str	r2, [r3]
 129:WriteUserSFlash.c ****     CY_SET_XTND_REG32((void CYFAR *)(CYREG_CLK_IMO_TRIM1),reg5);
 184              		.loc 1 129 0
 185 00e6 0A4B     		ldr	r3, .L5+16
 186 00e8 FA68     		ldr	r2, [r7, #12]
 187 00ea 1A60     		str	r2, [r3]
 130:WriteUserSFlash.c ****     CY_SET_XTND_REG32((void CYFAR *)(CYREG_CLK_IMO_TRIM2),reg6);  
 188              		.loc 1 130 0
 189 00ec 094B     		ldr	r3, .L5+20
 190 00ee BA68     		ldr	r2, [r7, #8]
 191 00f0 1A60     		str	r2, [r3]
 131:WriteUserSFlash.c ****     
 132:WriteUserSFlash.c ****     return retValue;
 192              		.loc 1 132 0
 193 00f2 A823     		movs	r3, #168
 194 00f4 FB18     		adds	r3, r7, r3
 195 00f6 1B68     		ldr	r3, [r3]
 133:WriteUserSFlash.c **** }
 196              		.loc 1 133 0
 197 00f8 1800     		movs	r0, r3
 198              	.LVL4:
 199 00fa BD46     		mov	sp, r7
 200              	.LVL5:
 201 00fc 2CB0     		add	sp, sp, #176
 202              	.LVL6:
 203              		@ sp needed
 204              	.LVL7:
 205 00fe 80BD     		pop	{r7, pc}
 206              	.L6:
 207              		.align	2
ARM GAS  C:\Users\diego\AppData\Local\Temp\ccNmoqMP.s 			page 7


 208              	.L5:
 209 0100 00010B40 		.word	1074462976
 210 0104 08010B40 		.word	1074462984
 211 0108 1CFF0B40 		.word	1074528028
 212 010c 20FF0B40 		.word	1074528032
 213 0110 28FF0B40 		.word	1074528040
 214 0114 2CFF0B40 		.word	1074528044
 215 0118 08001040 		.word	1074790408
 216 011c B6E80000 		.word	59574
 217 0120 04001040 		.word	1074790404
 218 0124 15000080 		.word	-2147483627
 219 0128 B6D70000 		.word	55222
 220 012c 04000080 		.word	-2147483644
 221 0130 B6EB0000 		.word	60342
 222 0134 18000080 		.word	-2147483624
 223              		.cfi_endproc
 224              	.LFE35:
 225              		.size	WriteUserSFlashRow, .-WriteUserSFlashRow
 226              		.text
 227              	.Letext0:
 228              		.file 2 "e:\\cypress\\psoc creator\\4.3\\psoc creator\\import\\gnu\\arm\\5.4.1\\arm-none-eabi\\inc
 229              		.file 3 "e:\\cypress\\psoc creator\\4.3\\psoc creator\\import\\gnu\\arm\\5.4.1\\arm-none-eabi\\inc
 230              		.file 4 "Generated_Source\\PSoC4/cytypes.h"
 231              		.section	.debug_info,"",%progbits
 232              	.Ldebug_info0:
 233 0000 B2010000 		.4byte	0x1b2
 234 0004 0400     		.2byte	0x4
 235 0006 00000000 		.4byte	.Ldebug_abbrev0
 236 000a 04       		.byte	0x4
 237 000b 01       		.uleb128 0x1
 238 000c E9000000 		.4byte	.LASF31
 239 0010 0C       		.byte	0xc
 240 0011 D6010000 		.4byte	.LASF32
 241 0015 25000000 		.4byte	.LASF33
 242 0019 00000000 		.4byte	.Ldebug_ranges0+0
 243 001d 00000000 		.4byte	0
 244 0021 00000000 		.4byte	.Ldebug_line0
 245 0025 02       		.uleb128 0x2
 246 0026 01       		.byte	0x1
 247 0027 06       		.byte	0x6
 248 0028 0B020000 		.4byte	.LASF0
 249 002c 03       		.uleb128 0x3
 250 002d 06000000 		.4byte	.LASF5
 251 0031 02       		.byte	0x2
 252 0032 1D       		.byte	0x1d
 253 0033 37000000 		.4byte	0x37
 254 0037 02       		.uleb128 0x2
 255 0038 01       		.byte	0x1
 256 0039 08       		.byte	0x8
 257 003a 95000000 		.4byte	.LASF1
 258 003e 02       		.uleb128 0x2
 259 003f 02       		.byte	0x2
 260 0040 05       		.byte	0x5
 261 0041 CC010000 		.4byte	.LASF2
 262 0045 02       		.uleb128 0x2
 263 0046 02       		.byte	0x2
 264 0047 07       		.byte	0x7
ARM GAS  C:\Users\diego\AppData\Local\Temp\ccNmoqMP.s 			page 8


 265 0048 CD000000 		.4byte	.LASF3
 266 004c 02       		.uleb128 0x2
 267 004d 04       		.byte	0x4
 268 004e 05       		.byte	0x5
 269 004f E8010000 		.4byte	.LASF4
 270 0053 03       		.uleb128 0x3
 271 0054 7E010000 		.4byte	.LASF6
 272 0058 02       		.byte	0x2
 273 0059 41       		.byte	0x41
 274 005a 5E000000 		.4byte	0x5e
 275 005e 02       		.uleb128 0x2
 276 005f 04       		.byte	0x4
 277 0060 07       		.byte	0x7
 278 0061 BB000000 		.4byte	.LASF7
 279 0065 02       		.uleb128 0x2
 280 0066 08       		.byte	0x8
 281 0067 05       		.byte	0x5
 282 0068 BE010000 		.4byte	.LASF8
 283 006c 02       		.uleb128 0x2
 284 006d 08       		.byte	0x8
 285 006e 07       		.byte	0x7
 286 006f 74000000 		.4byte	.LASF9
 287 0073 04       		.uleb128 0x4
 288 0074 04       		.byte	0x4
 289 0075 05       		.byte	0x5
 290 0076 696E7400 		.ascii	"int\000"
 291 007a 02       		.uleb128 0x2
 292 007b 04       		.byte	0x4
 293 007c 07       		.byte	0x7
 294 007d 5C000000 		.4byte	.LASF10
 295 0081 03       		.uleb128 0x3
 296 0082 A8010000 		.4byte	.LASF11
 297 0086 03       		.byte	0x3
 298 0087 18       		.byte	0x18
 299 0088 2C000000 		.4byte	0x2c
 300 008c 03       		.uleb128 0x3
 301 008d E0000000 		.4byte	.LASF12
 302 0091 03       		.byte	0x3
 303 0092 30       		.byte	0x30
 304 0093 53000000 		.4byte	0x53
 305 0097 05       		.uleb128 0x5
 306 0098 89010000 		.4byte	.LASF13
 307 009c 04       		.byte	0x4
 308 009d F901     		.2byte	0x1f9
 309 009f 5E000000 		.4byte	0x5e
 310 00a3 02       		.uleb128 0x2
 311 00a4 04       		.byte	0x4
 312 00a5 04       		.byte	0x4
 313 00a6 69000000 		.4byte	.LASF14
 314 00aa 02       		.uleb128 0x2
 315 00ab 08       		.byte	0x8
 316 00ac 04       		.byte	0x4
 317 00ad 77010000 		.4byte	.LASF15
 318 00b1 02       		.uleb128 0x2
 319 00b2 01       		.byte	0x1
 320 00b3 08       		.byte	0x8
 321 00b4 A3010000 		.4byte	.LASF16
ARM GAS  C:\Users\diego\AppData\Local\Temp\ccNmoqMP.s 			page 9


 322 00b8 05       		.uleb128 0x5
 323 00b9 00000000 		.4byte	.LASF17
 324 00bd 04       		.byte	0x4
 325 00be A302     		.2byte	0x2a3
 326 00c0 C4000000 		.4byte	0xc4
 327 00c4 06       		.uleb128 0x6
 328 00c5 97000000 		.4byte	0x97
 329 00c9 02       		.uleb128 0x2
 330 00ca 08       		.byte	0x8
 331 00cb 04       		.byte	0x4
 332 00cc F1010000 		.4byte	.LASF18
 333 00d0 02       		.uleb128 0x2
 334 00d1 04       		.byte	0x4
 335 00d2 07       		.byte	0x7
 336 00d3 B5010000 		.4byte	.LASF19
 337 00d7 06       		.uleb128 0x6
 338 00d8 8C000000 		.4byte	0x8c
 339 00dc 07       		.uleb128 0x7
 340 00dd A8000000 		.4byte	.LASF34
 341 00e1 01       		.byte	0x1
 342 00e2 3E       		.byte	0x3e
 343 00e3 8C000000 		.4byte	0x8c
 344 00e7 00000000 		.4byte	.LFB35
 345 00eb 38010000 		.4byte	.LFE35-.LFB35
 346 00ef 01       		.uleb128 0x1
 347 00f0 9C       		.byte	0x9c
 348 00f1 9A010000 		.4byte	0x19a
 349 00f5 08       		.uleb128 0x8
 350 00f6 FD010000 		.4byte	.LASF20
 351 00fa 01       		.byte	0x1
 352 00fb 3E       		.byte	0x3e
 353 00fc 81000000 		.4byte	0x81
 354 0100 00000000 		.4byte	.LLST0
 355 0104 08       		.uleb128 0x8
 356 0105 19000000 		.4byte	.LASF21
 357 0109 01       		.byte	0x1
 358 010a 3E       		.byte	0x3e
 359 010b 9A010000 		.4byte	0x19a
 360 010f 21000000 		.4byte	.LLST1
 361 0113 09       		.uleb128 0x9
 362 0114 17020000 		.4byte	.LASF22
 363 0118 01       		.byte	0x1
 364 0119 40       		.byte	0x40
 365 011a 81000000 		.4byte	0x81
 366 011e 4D000000 		.4byte	.LLST2
 367 0122 0A       		.uleb128 0xa
 368 0123 10000000 		.4byte	.LASF23
 369 0127 01       		.byte	0x1
 370 0128 41       		.byte	0x41
 371 0129 D7000000 		.4byte	0xd7
 372 012d 02       		.uleb128 0x2
 373 012e 91       		.byte	0x91
 374 012f 70       		.sleb128 -16
 375 0130 0A       		.uleb128 0xa
 376 0131 90010000 		.4byte	.LASF24
 377 0135 01       		.byte	0x1
 378 0136 42       		.byte	0x42
ARM GAS  C:\Users\diego\AppData\Local\Temp\ccNmoqMP.s 			page 10


 379 0137 B0010000 		.4byte	0x1b0
 380 013b 03       		.uleb128 0x3
 381 013c 91       		.byte	0x91
 382 013d E87E     		.sleb128 -152
 383 013f 0A       		.uleb128 0xa
 384 0140 6F000000 		.4byte	.LASF25
 385 0144 01       		.byte	0x1
 386 0145 43       		.byte	0x43
 387 0146 D7000000 		.4byte	0xd7
 388 014a 03       		.uleb128 0x3
 389 014b 91       		.byte	0x91
 390 014c E47E     		.sleb128 -156
 391 014e 0A       		.uleb128 0xa
 392 014f 9E010000 		.4byte	.LASF26
 393 0153 01       		.byte	0x1
 394 0154 43       		.byte	0x43
 395 0155 D7000000 		.4byte	0xd7
 396 0159 03       		.uleb128 0x3
 397 015a 91       		.byte	0x91
 398 015b E07E     		.sleb128 -160
 399 015d 0A       		.uleb128 0xa
 400 015e 8B000000 		.4byte	.LASF27
 401 0162 01       		.byte	0x1
 402 0163 43       		.byte	0x43
 403 0164 D7000000 		.4byte	0xd7
 404 0168 03       		.uleb128 0x3
 405 0169 91       		.byte	0x91
 406 016a DC7E     		.sleb128 -164
 407 016c 0A       		.uleb128 0xa
 408 016d 90000000 		.4byte	.LASF28
 409 0171 01       		.byte	0x1
 410 0172 43       		.byte	0x43
 411 0173 D7000000 		.4byte	0xd7
 412 0177 03       		.uleb128 0x3
 413 0178 91       		.byte	0x91
 414 0179 D87E     		.sleb128 -168
 415 017b 0A       		.uleb128 0xa
 416 017c B0010000 		.4byte	.LASF29
 417 0180 01       		.byte	0x1
 418 0181 43       		.byte	0x43
 419 0182 D7000000 		.4byte	0xd7
 420 0186 03       		.uleb128 0x3
 421 0187 91       		.byte	0x91
 422 0188 D47E     		.sleb128 -172
 423 018a 0A       		.uleb128 0xa
 424 018b A3000000 		.4byte	.LASF30
 425 018f 01       		.byte	0x1
 426 0190 43       		.byte	0x43
 427 0191 D7000000 		.4byte	0xd7
 428 0195 03       		.uleb128 0x3
 429 0196 91       		.byte	0x91
 430 0197 D07E     		.sleb128 -176
 431 0199 00       		.byte	0
 432 019a 0B       		.uleb128 0xb
 433 019b 04       		.byte	0x4
 434 019c 8C000000 		.4byte	0x8c
 435 01a0 0C       		.uleb128 0xc
ARM GAS  C:\Users\diego\AppData\Local\Temp\ccNmoqMP.s 			page 11


 436 01a1 D7000000 		.4byte	0xd7
 437 01a5 B0010000 		.4byte	0x1b0
 438 01a9 0D       		.uleb128 0xd
 439 01aa D0000000 		.4byte	0xd0
 440 01ae 21       		.byte	0x21
 441 01af 00       		.byte	0
 442 01b0 06       		.uleb128 0x6
 443 01b1 A0010000 		.4byte	0x1a0
 444 01b5 00       		.byte	0
 445              		.section	.debug_abbrev,"",%progbits
 446              	.Ldebug_abbrev0:
 447 0000 01       		.uleb128 0x1
 448 0001 11       		.uleb128 0x11
 449 0002 01       		.byte	0x1
 450 0003 25       		.uleb128 0x25
 451 0004 0E       		.uleb128 0xe
 452 0005 13       		.uleb128 0x13
 453 0006 0B       		.uleb128 0xb
 454 0007 03       		.uleb128 0x3
 455 0008 0E       		.uleb128 0xe
 456 0009 1B       		.uleb128 0x1b
 457 000a 0E       		.uleb128 0xe
 458 000b 55       		.uleb128 0x55
 459 000c 17       		.uleb128 0x17
 460 000d 11       		.uleb128 0x11
 461 000e 01       		.uleb128 0x1
 462 000f 10       		.uleb128 0x10
 463 0010 17       		.uleb128 0x17
 464 0011 00       		.byte	0
 465 0012 00       		.byte	0
 466 0013 02       		.uleb128 0x2
 467 0014 24       		.uleb128 0x24
 468 0015 00       		.byte	0
 469 0016 0B       		.uleb128 0xb
 470 0017 0B       		.uleb128 0xb
 471 0018 3E       		.uleb128 0x3e
 472 0019 0B       		.uleb128 0xb
 473 001a 03       		.uleb128 0x3
 474 001b 0E       		.uleb128 0xe
 475 001c 00       		.byte	0
 476 001d 00       		.byte	0
 477 001e 03       		.uleb128 0x3
 478 001f 16       		.uleb128 0x16
 479 0020 00       		.byte	0
 480 0021 03       		.uleb128 0x3
 481 0022 0E       		.uleb128 0xe
 482 0023 3A       		.uleb128 0x3a
 483 0024 0B       		.uleb128 0xb
 484 0025 3B       		.uleb128 0x3b
 485 0026 0B       		.uleb128 0xb
 486 0027 49       		.uleb128 0x49
 487 0028 13       		.uleb128 0x13
 488 0029 00       		.byte	0
 489 002a 00       		.byte	0
 490 002b 04       		.uleb128 0x4
 491 002c 24       		.uleb128 0x24
 492 002d 00       		.byte	0
ARM GAS  C:\Users\diego\AppData\Local\Temp\ccNmoqMP.s 			page 12


 493 002e 0B       		.uleb128 0xb
 494 002f 0B       		.uleb128 0xb
 495 0030 3E       		.uleb128 0x3e
 496 0031 0B       		.uleb128 0xb
 497 0032 03       		.uleb128 0x3
 498 0033 08       		.uleb128 0x8
 499 0034 00       		.byte	0
 500 0035 00       		.byte	0
 501 0036 05       		.uleb128 0x5
 502 0037 16       		.uleb128 0x16
 503 0038 00       		.byte	0
 504 0039 03       		.uleb128 0x3
 505 003a 0E       		.uleb128 0xe
 506 003b 3A       		.uleb128 0x3a
 507 003c 0B       		.uleb128 0xb
 508 003d 3B       		.uleb128 0x3b
 509 003e 05       		.uleb128 0x5
 510 003f 49       		.uleb128 0x49
 511 0040 13       		.uleb128 0x13
 512 0041 00       		.byte	0
 513 0042 00       		.byte	0
 514 0043 06       		.uleb128 0x6
 515 0044 35       		.uleb128 0x35
 516 0045 00       		.byte	0
 517 0046 49       		.uleb128 0x49
 518 0047 13       		.uleb128 0x13
 519 0048 00       		.byte	0
 520 0049 00       		.byte	0
 521 004a 07       		.uleb128 0x7
 522 004b 2E       		.uleb128 0x2e
 523 004c 01       		.byte	0x1
 524 004d 3F       		.uleb128 0x3f
 525 004e 19       		.uleb128 0x19
 526 004f 03       		.uleb128 0x3
 527 0050 0E       		.uleb128 0xe
 528 0051 3A       		.uleb128 0x3a
 529 0052 0B       		.uleb128 0xb
 530 0053 3B       		.uleb128 0x3b
 531 0054 0B       		.uleb128 0xb
 532 0055 27       		.uleb128 0x27
 533 0056 19       		.uleb128 0x19
 534 0057 49       		.uleb128 0x49
 535 0058 13       		.uleb128 0x13
 536 0059 11       		.uleb128 0x11
 537 005a 01       		.uleb128 0x1
 538 005b 12       		.uleb128 0x12
 539 005c 06       		.uleb128 0x6
 540 005d 40       		.uleb128 0x40
 541 005e 18       		.uleb128 0x18
 542 005f 9742     		.uleb128 0x2117
 543 0061 19       		.uleb128 0x19
 544 0062 01       		.uleb128 0x1
 545 0063 13       		.uleb128 0x13
 546 0064 00       		.byte	0
 547 0065 00       		.byte	0
 548 0066 08       		.uleb128 0x8
 549 0067 05       		.uleb128 0x5
ARM GAS  C:\Users\diego\AppData\Local\Temp\ccNmoqMP.s 			page 13


 550 0068 00       		.byte	0
 551 0069 03       		.uleb128 0x3
 552 006a 0E       		.uleb128 0xe
 553 006b 3A       		.uleb128 0x3a
 554 006c 0B       		.uleb128 0xb
 555 006d 3B       		.uleb128 0x3b
 556 006e 0B       		.uleb128 0xb
 557 006f 49       		.uleb128 0x49
 558 0070 13       		.uleb128 0x13
 559 0071 02       		.uleb128 0x2
 560 0072 17       		.uleb128 0x17
 561 0073 00       		.byte	0
 562 0074 00       		.byte	0
 563 0075 09       		.uleb128 0x9
 564 0076 34       		.uleb128 0x34
 565 0077 00       		.byte	0
 566 0078 03       		.uleb128 0x3
 567 0079 0E       		.uleb128 0xe
 568 007a 3A       		.uleb128 0x3a
 569 007b 0B       		.uleb128 0xb
 570 007c 3B       		.uleb128 0x3b
 571 007d 0B       		.uleb128 0xb
 572 007e 49       		.uleb128 0x49
 573 007f 13       		.uleb128 0x13
 574 0080 02       		.uleb128 0x2
 575 0081 17       		.uleb128 0x17
 576 0082 00       		.byte	0
 577 0083 00       		.byte	0
 578 0084 0A       		.uleb128 0xa
 579 0085 34       		.uleb128 0x34
 580 0086 00       		.byte	0
 581 0087 03       		.uleb128 0x3
 582 0088 0E       		.uleb128 0xe
 583 0089 3A       		.uleb128 0x3a
 584 008a 0B       		.uleb128 0xb
 585 008b 3B       		.uleb128 0x3b
 586 008c 0B       		.uleb128 0xb
 587 008d 49       		.uleb128 0x49
 588 008e 13       		.uleb128 0x13
 589 008f 02       		.uleb128 0x2
 590 0090 18       		.uleb128 0x18
 591 0091 00       		.byte	0
 592 0092 00       		.byte	0
 593 0093 0B       		.uleb128 0xb
 594 0094 0F       		.uleb128 0xf
 595 0095 00       		.byte	0
 596 0096 0B       		.uleb128 0xb
 597 0097 0B       		.uleb128 0xb
 598 0098 49       		.uleb128 0x49
 599 0099 13       		.uleb128 0x13
 600 009a 00       		.byte	0
 601 009b 00       		.byte	0
 602 009c 0C       		.uleb128 0xc
 603 009d 01       		.uleb128 0x1
 604 009e 01       		.byte	0x1
 605 009f 49       		.uleb128 0x49
 606 00a0 13       		.uleb128 0x13
ARM GAS  C:\Users\diego\AppData\Local\Temp\ccNmoqMP.s 			page 14


 607 00a1 01       		.uleb128 0x1
 608 00a2 13       		.uleb128 0x13
 609 00a3 00       		.byte	0
 610 00a4 00       		.byte	0
 611 00a5 0D       		.uleb128 0xd
 612 00a6 21       		.uleb128 0x21
 613 00a7 00       		.byte	0
 614 00a8 49       		.uleb128 0x49
 615 00a9 13       		.uleb128 0x13
 616 00aa 2F       		.uleb128 0x2f
 617 00ab 0B       		.uleb128 0xb
 618 00ac 00       		.byte	0
 619 00ad 00       		.byte	0
 620 00ae 00       		.byte	0
 621              		.section	.debug_loc,"",%progbits
 622              	.Ldebug_loc0:
 623              	.LLST0:
 624 0000 00000000 		.4byte	.LVL0
 625 0004 FA000000 		.4byte	.LVL4
 626 0008 0100     		.2byte	0x1
 627 000a 50       		.byte	0x50
 628 000b FA000000 		.4byte	.LVL4
 629 000f 38010000 		.4byte	.LFE35
 630 0013 0400     		.2byte	0x4
 631 0015 F3       		.byte	0xf3
 632 0016 01       		.uleb128 0x1
 633 0017 50       		.byte	0x50
 634 0018 9F       		.byte	0x9f
 635 0019 00000000 		.4byte	0
 636 001d 00000000 		.4byte	0
 637              	.LLST1:
 638 0021 00000000 		.4byte	.LVL0
 639 0025 60000000 		.4byte	.LVL2
 640 0029 0100     		.2byte	0x1
 641 002b 51       		.byte	0x51
 642 002c 60000000 		.4byte	.LVL2
 643 0030 FE000000 		.4byte	.LVL6
 644 0034 0200     		.2byte	0x2
 645 0036 7D       		.byte	0x7d
 646 0037 00       		.sleb128 0
 647 0038 FE000000 		.4byte	.LVL6
 648 003c 38010000 		.4byte	.LFE35
 649 0040 0300     		.2byte	0x3
 650 0042 7D       		.byte	0x7d
 651 0043 D07E     		.sleb128 -176
 652 0045 00000000 		.4byte	0
 653 0049 00000000 		.4byte	0
 654              	.LLST2:
 655 004d 5E000000 		.4byte	.LVL1
 656 0051 FC000000 		.4byte	.LVL5
 657 0055 0300     		.2byte	0x3
 658 0057 7D       		.byte	0x7d
 659 0058 AF01     		.sleb128 175
 660 005a FC000000 		.4byte	.LVL5
 661 005e FE000000 		.4byte	.LVL7
 662 0062 0300     		.2byte	0x3
 663 0064 77       		.byte	0x77
ARM GAS  C:\Users\diego\AppData\Local\Temp\ccNmoqMP.s 			page 15


 664 0065 AF01     		.sleb128 175
 665 0067 FE000000 		.4byte	.LVL7
 666 006b 38010000 		.4byte	.LFE35
 667 006f 0200     		.2byte	0x2
 668 0071 91       		.byte	0x91
 669 0072 77       		.sleb128 -9
 670 0073 00000000 		.4byte	0
 671 0077 00000000 		.4byte	0
 672              		.section	.debug_aranges,"",%progbits
 673 0000 1C000000 		.4byte	0x1c
 674 0004 0200     		.2byte	0x2
 675 0006 00000000 		.4byte	.Ldebug_info0
 676 000a 04       		.byte	0x4
 677 000b 00       		.byte	0
 678 000c 0000     		.2byte	0
 679 000e 0000     		.2byte	0
 680 0010 00000000 		.4byte	.LFB35
 681 0014 38010000 		.4byte	.LFE35-.LFB35
 682 0018 00000000 		.4byte	0
 683 001c 00000000 		.4byte	0
 684              		.section	.debug_ranges,"",%progbits
 685              	.Ldebug_ranges0:
 686 0000 00000000 		.4byte	.LFB35
 687 0004 38010000 		.4byte	.LFE35
 688 0008 00000000 		.4byte	0
 689 000c 00000000 		.4byte	0
 690              		.section	.debug_line,"",%progbits
 691              	.Ldebug_line0:
 692 0000 62010000 		.section	.debug_str,"MS",%progbits,1
 692      02002101 
 692      00000201 
 692      FB0E0D00 
 692      01010101 
 693              	.LASF17:
 694 0000 72656733 		.ascii	"reg32\000"
 694      3200
 695              	.LASF5:
 696 0006 5F5F7569 		.ascii	"__uint8_t\000"
 696      6E74385F 
 696      7400
 697              	.LASF23:
 698 0010 72657456 		.ascii	"retValue\000"
 698      616C7565 
 698      00
 699              	.LASF21:
 700 0019 64617461 		.ascii	"dataPointer\000"
 700      506F696E 
 700      74657200 
 701              	.LASF33:
 702 0025 453A5C50 		.ascii	"E:\\Progetti\\Cypress\\Test\\BLE_Sensor\\Beacom_bri"
 702      726F6765 
 702      7474695C 
 702      43797072 
 702      6573735C 
 703 0053 636B2E63 		.ascii	"ck.cydsn\000"
 703      7964736E 
 703      00
ARM GAS  C:\Users\diego\AppData\Local\Temp\ccNmoqMP.s 			page 16


 704              	.LASF10:
 705 005c 756E7369 		.ascii	"unsigned int\000"
 705      676E6564 
 705      20696E74 
 705      00
 706              	.LASF14:
 707 0069 666C6F61 		.ascii	"float\000"
 707      7400
 708              	.LASF25:
 709 006f 72656731 		.ascii	"reg1\000"
 709      00
 710              	.LASF9:
 711 0074 6C6F6E67 		.ascii	"long long unsigned int\000"
 711      206C6F6E 
 711      6720756E 
 711      7369676E 
 711      65642069 
 712              	.LASF27:
 713 008b 72656733 		.ascii	"reg3\000"
 713      00
 714              	.LASF28:
 715 0090 72656734 		.ascii	"reg4\000"
 715      00
 716              	.LASF1:
 717 0095 756E7369 		.ascii	"unsigned char\000"
 717      676E6564 
 717      20636861 
 717      7200
 718              	.LASF30:
 719 00a3 72656736 		.ascii	"reg6\000"
 719      00
 720              	.LASF34:
 721 00a8 57726974 		.ascii	"WriteUserSFlashRow\000"
 721      65557365 
 721      7253466C 
 721      61736852 
 721      6F7700
 722              	.LASF7:
 723 00bb 6C6F6E67 		.ascii	"long unsigned int\000"
 723      20756E73 
 723      69676E65 
 723      6420696E 
 723      7400
 724              	.LASF3:
 725 00cd 73686F72 		.ascii	"short unsigned int\000"
 725      7420756E 
 725      7369676E 
 725      65642069 
 725      6E7400
 726              	.LASF12:
 727 00e0 75696E74 		.ascii	"uint32_t\000"
 727      33325F74 
 727      00
 728              	.LASF31:
 729 00e9 474E5520 		.ascii	"GNU C11 5.4.1 20160609 (release) [ARM/embedded-5-br"
 729      43313120 
 729      352E342E 
ARM GAS  C:\Users\diego\AppData\Local\Temp\ccNmoqMP.s 			page 17


 729      31203230 
 729      31363036 
 730 011c 616E6368 		.ascii	"anch revision 237715] -mcpu=cortex-m0 -mthumb -g -O"
 730      20726576 
 730      6973696F 
 730      6E203233 
 730      37373135 
 731 014f 33202D66 		.ascii	"3 -ffunction-sections -ffat-lto-objects\000"
 731      66756E63 
 731      74696F6E 
 731      2D736563 
 731      74696F6E 
 732              	.LASF15:
 733 0177 646F7562 		.ascii	"double\000"
 733      6C6500
 734              	.LASF6:
 735 017e 5F5F7569 		.ascii	"__uint32_t\000"
 735      6E743332 
 735      5F7400
 736              	.LASF13:
 737 0189 75696E74 		.ascii	"uint32\000"
 737      333200
 738              	.LASF24:
 739 0190 636D6444 		.ascii	"cmdDataBuffer\000"
 739      61746142 
 739      75666665 
 739      7200
 740              	.LASF26:
 741 019e 72656732 		.ascii	"reg2\000"
 741      00
 742              	.LASF16:
 743 01a3 63686172 		.ascii	"char\000"
 743      00
 744              	.LASF11:
 745 01a8 75696E74 		.ascii	"uint8_t\000"
 745      385F7400 
 746              	.LASF29:
 747 01b0 72656735 		.ascii	"reg5\000"
 747      00
 748              	.LASF19:
 749 01b5 73697A65 		.ascii	"sizetype\000"
 749      74797065 
 749      00
 750              	.LASF8:
 751 01be 6C6F6E67 		.ascii	"long long int\000"
 751      206C6F6E 
 751      6720696E 
 751      7400
 752              	.LASF2:
 753 01cc 73686F72 		.ascii	"short int\000"
 753      7420696E 
 753      7400
 754              	.LASF32:
 755 01d6 57726974 		.ascii	"WriteUserSFlash.c\000"
 755      65557365 
 755      7253466C 
 755      6173682E 
ARM GAS  C:\Users\diego\AppData\Local\Temp\ccNmoqMP.s 			page 18


 755      6300
 756              	.LASF4:
 757 01e8 6C6F6E67 		.ascii	"long int\000"
 757      20696E74 
 757      00
 758              	.LASF18:
 759 01f1 6C6F6E67 		.ascii	"long double\000"
 759      20646F75 
 759      626C6500 
 760              	.LASF20:
 761 01fd 75736572 		.ascii	"userRowNUmber\000"
 761      526F774E 
 761      556D6265 
 761      7200
 762              	.LASF0:
 763 020b 7369676E 		.ascii	"signed char\000"
 763      65642063 
 763      68617200 
 764              	.LASF22:
 765 0217 6C6F6361 		.ascii	"localCount\000"
 765      6C436F75 
 765      6E7400
 766              		.ident	"GCC: (GNU Tools for ARM Embedded Processors) 5.4.1 20160609 (release) [ARM/embedded-5-bran
